%YAML 1.1
%TAG !u! tag:unity3d.com,2011:
--- !u!1 &4553182245290861471
GameObject:
  m_ObjectHideFlags: 0
  m_CorrespondingSourceObject: {fileID: 0}
  m_PrefabInstance: {fileID: 0}
  m_PrefabAsset: {fileID: 0}
  serializedVersion: 6
  m_Component:
  - component: {fileID: 4553182245290861469}
  - component: {fileID: 4553182245290861468}
  - component: {fileID: 4553182245290861466}
  m_Layer: 0
  m_Name: Ammonation
  m_TagString: Untagged
  m_Icon: {fileID: 0}
  m_NavMeshLayer: 0
  m_StaticEditorFlags: 0
  m_IsActive: 1
--- !u!4 &4553182245290861469
Transform:
  m_ObjectHideFlags: 0
  m_CorrespondingSourceObject: {fileID: 0}
  m_PrefabInstance: {fileID: 0}
  m_PrefabAsset: {fileID: 0}
  m_GameObject: {fileID: 4553182245290861471}
  m_LocalRotation: {x: 0, y: -0, z: -0, w: 1}
  m_LocalPosition: {x: 87.10062, y: 55.996, z: 68.76699}
  m_LocalScale: {x: 1, y: 1, z: 1}
  m_Children:
  - {fileID: 4087753738316593761}
  m_Father: {fileID: 0}
  m_RootOrder: 0
  m_LocalEulerAnglesHint: {x: 0, y: 0, z: 0}
--- !u!65 &4553182245290861468
BoxCollider:
  m_ObjectHideFlags: 0
  m_CorrespondingSourceObject: {fileID: 0}
  m_PrefabInstance: {fileID: 0}
  m_PrefabAsset: {fileID: 0}
  m_GameObject: {fileID: 4553182245290861471}
  m_Material: {fileID: 0}
  m_IsTrigger: 1
  m_Enabled: 1
  serializedVersion: 2
  m_Size: {x: 0.76, y: 0.79, z: 0.61}
  m_Center: {x: 0, y: 0.39, z: 0}
--- !u!114 &4553182245290861466
MonoBehaviour:
  m_ObjectHideFlags: 0
  m_CorrespondingSourceObject: {fileID: 0}
  m_PrefabInstance: {fileID: 0}
  m_PrefabAsset: {fileID: 0}
  m_GameObject: {fileID: 4553182245290861471}
  m_Enabled: 1
  m_EditorHideFlags: 0
  m_Script: {fileID: 11500000, guid: b54b203ddbb84404289d05a49177507b, type: 3}
  m_Name: 
  m_EditorClassIdentifier: 
--- !u!1001 &4553182243863911818
PrefabInstance:
  m_ObjectHideFlags: 0
  serializedVersion: 2
  m_Modification:
    m_TransformParent: {fileID: 4553182245290861469}
    m_Modifications:
    - target: {fileID: -8679921383154817045, guid: b08e16acc6ea34141aaf49adfac56838, type: 3}
      propertyPath: m_RootOrder
      value: 0
      objectReference: {fileID: 0}
    - target: {fileID: -8679921383154817045, guid: b08e16acc6ea34141aaf49adfac56838, type: 3}
      propertyPath: m_LocalPosition.x
      value: 0
      objectReference: {fileID: 0}
    - target: {fileID: -8679921383154817045, guid: b08e16acc6ea34141aaf49adfac56838, type: 3}
      propertyPath: m_LocalPosition.y
      value: 0
      objectReference: {fileID: 0}
    - target: {fileID: -8679921383154817045, guid: b08e16acc6ea34141aaf49adfac56838, type: 3}
      propertyPath: m_LocalPosition.z
      value: 0
      objectReference: {fileID: 0}
    - target: {fileID: -8679921383154817045, guid: b08e16acc6ea34141aaf49adfac56838, type: 3}
      propertyPath: m_LocalRotation.w
      value: 1
      objectReference: {fileID: 0}
    - target: {fileID: -8679921383154817045, guid: b08e16acc6ea34141aaf49adfac56838, type: 3}
      propertyPath: m_LocalRotation.x
      value: -0
      objectReference: {fileID: 0}
    - target: {fileID: -8679921383154817045, guid: b08e16acc6ea34141aaf49adfac56838, type: 3}
      propertyPath: m_LocalRotation.y
      value: -0
      objectReference: {fileID: 0}
    - target: {fileID: -8679921383154817045, guid: b08e16acc6ea34141aaf49adfac56838, type: 3}
      propertyPath: m_LocalRotation.z
      value: -0
      objectReference: {fileID: 0}
    - target: {fileID: -8679921383154817045, guid: b08e16acc6ea34141aaf49adfac56838, type: 3}
      propertyPath: m_LocalEulerAnglesHint.x
      value: 0
      objectReference: {fileID: 0}
    - target: {fileID: -8679921383154817045, guid: b08e16acc6ea34141aaf49adfac56838, type: 3}
      propertyPath: m_LocalEulerAnglesHint.y
      value: 0
      objectReference: {fileID: 0}
    - target: {fileID: -8679921383154817045, guid: b08e16acc6ea34141aaf49adfac56838, type: 3}
      propertyPath: m_LocalEulerAnglesHint.z
      value: 0
      objectReference: {fileID: 0}
    - target: {fileID: -7635826562936255635, guid: b08e16acc6ea34141aaf49adfac56838, type: 3}
      propertyPath: m_Materials.Array.data[0]
      value: 
      objectReference: {fileID: 2100000, guid: a222c38afc233f5489db3a6c12ddcc8b, type: 2}
    - target: {fileID: 919132149155446097, guid: b08e16acc6ea34141aaf49adfac56838, type: 3}
      propertyPath: m_Name
      value: GFX
      objectReference: {fileID: 0}
    m_RemovedComponents: []
  m_SourcePrefab: {fileID: 100100000, guid: b08e16acc6ea34141aaf49adfac56838, type: 3}
--- !u!4 &4087753738316593761 stripped
Transform:
  m_CorrespondingSourceObject: {fileID: -8679921383154817045, guid: b08e16acc6ea34141aaf49adfac56838, type: 3}
  m_PrefabInstance: {fileID: 4553182243863911818}
  m_PrefabAsset: {fileID: 0}
