%YAML 1.1
%TAG !u! tag:unity3d.com,2011:
--- !u!1 &986607110902929474
GameObject:
  m_ObjectHideFlags: 0
  m_CorrespondingSourceObject: {fileID: 0}
  m_PrefabInstance: {fileID: 0}
  m_PrefabAsset: {fileID: 0}
  serializedVersion: 6
  m_Component:
  - component: {fileID: 986607110902929484}
  - component: {fileID: 986607110902929485}
  - component: {fileID: 4756727605256060494}
  m_Layer: 0
  m_Name: Van
  m_TagString: Untagged
  m_Icon: {fileID: 0}
  m_NavMeshLayer: 0
  m_StaticEditorFlags: 0
  m_IsActive: 1
--- !u!4 &986607110902929484
Transform:
  m_ObjectHideFlags: 0
  m_CorrespondingSourceObject: {fileID: 0}
  m_PrefabInstance: {fileID: 0}
  m_PrefabAsset: {fileID: 0}
  m_GameObject: {fileID: 986607110902929474}
  m_LocalRotation: {x: 0, y: 0, z: 0, w: 1}
  m_LocalPosition: {x: 78.745895, y: 54.803, z: 64.25907}
  m_LocalScale: {x: 1, y: 1, z: 1}
  m_Children:
  - {fileID: 8312132542628714264}
  m_Father: {fileID: 0}
  m_RootOrder: 0
  m_LocalEulerAnglesHint: {x: 0, y: 0, z: 0}
--- !u!65 &986607110902929485
BoxCollider:
  m_ObjectHideFlags: 0
  m_CorrespondingSourceObject: {fileID: 0}
  m_PrefabInstance: {fileID: 0}
  m_PrefabAsset: {fileID: 0}
  m_GameObject: {fileID: 986607110902929474}
  m_Material: {fileID: 0}
  m_IsTrigger: 0
  m_Enabled: 1
  serializedVersion: 2
  m_Size: {x: 2.89, y: 2.51, z: 5.22}
  m_Center: {x: -2.28, y: 2.22, z: -1.86}
--- !u!65 &4756727605256060494
BoxCollider:
  m_ObjectHideFlags: 0
  m_CorrespondingSourceObject: {fileID: 0}
  m_PrefabInstance: {fileID: 0}
  m_PrefabAsset: {fileID: 0}
  m_GameObject: {fileID: 986607110902929474}
  m_Material: {fileID: 0}
  m_IsTrigger: 1
  m_Enabled: 1
  serializedVersion: 2
  m_Size: {x: 3.8, y: 2.51, z: 5.88}
  m_Center: {x: -2.28, y: 2.22, z: -1.86}
--- !u!1001 &8417256288574255347
PrefabInstance:
  m_ObjectHideFlags: 0
  serializedVersion: 2
  m_Modification:
    m_TransformParent: {fileID: 986607110902929484}
    m_Modifications:
    - target: {fileID: -8679921383154817045, guid: 7c06ace9a5f34b14dbd9221c24019eee, type: 3}
      propertyPath: m_RootOrder
      value: 0
      objectReference: {fileID: 0}
    - target: {fileID: -8679921383154817045, guid: 7c06ace9a5f34b14dbd9221c24019eee, type: 3}
      propertyPath: m_LocalPosition.x
      value: -2.25
      objectReference: {fileID: 0}
    - target: {fileID: -8679921383154817045, guid: 7c06ace9a5f34b14dbd9221c24019eee, type: 3}
      propertyPath: m_LocalPosition.y
      value: 1.1
      objectReference: {fileID: 0}
    - target: {fileID: -8679921383154817045, guid: 7c06ace9a5f34b14dbd9221c24019eee, type: 3}
      propertyPath: m_LocalPosition.z
      value: -1.86
      objectReference: {fileID: 0}
    - target: {fileID: -8679921383154817045, guid: 7c06ace9a5f34b14dbd9221c24019eee, type: 3}
      propertyPath: m_LocalRotation.w
      value: 1
      objectReference: {fileID: 0}
    - target: {fileID: -8679921383154817045, guid: 7c06ace9a5f34b14dbd9221c24019eee, type: 3}
      propertyPath: m_LocalRotation.x
      value: 0
      objectReference: {fileID: 0}
    - target: {fileID: -8679921383154817045, guid: 7c06ace9a5f34b14dbd9221c24019eee, type: 3}
      propertyPath: m_LocalRotation.y
      value: -0
      objectReference: {fileID: 0}
    - target: {fileID: -8679921383154817045, guid: 7c06ace9a5f34b14dbd9221c24019eee, type: 3}
      propertyPath: m_LocalRotation.z
      value: -0
      objectReference: {fileID: 0}
    - target: {fileID: -8679921383154817045, guid: 7c06ace9a5f34b14dbd9221c24019eee, type: 3}
      propertyPath: m_LocalEulerAnglesHint.x
      value: 0
      objectReference: {fileID: 0}
    - target: {fileID: -8679921383154817045, guid: 7c06ace9a5f34b14dbd9221c24019eee, type: 3}
      propertyPath: m_LocalEulerAnglesHint.y
      value: 0
      objectReference: {fileID: 0}
    - target: {fileID: -8679921383154817045, guid: 7c06ace9a5f34b14dbd9221c24019eee, type: 3}
      propertyPath: m_LocalEulerAnglesHint.z
      value: 0
      objectReference: {fileID: 0}
    - target: {fileID: -7635826562936255635, guid: 7c06ace9a5f34b14dbd9221c24019eee, type: 3}
      propertyPath: m_Materials.Array.data[0]
      value: 
      objectReference: {fileID: 2100000, guid: 9832f4db16007184992dd4dc2ac945ee, type: 2}
    - target: {fileID: 919132149155446097, guid: 7c06ace9a5f34b14dbd9221c24019eee, type: 3}
      propertyPath: m_Name
      value: GFX
      objectReference: {fileID: 0}
    - target: {fileID: 919132149155446097, guid: 7c06ace9a5f34b14dbd9221c24019eee, type: 3}
      propertyPath: m_Layer
      value: 0
      objectReference: {fileID: 0}
    - target: {fileID: 8164078558771037576, guid: 7c06ace9a5f34b14dbd9221c24019eee, type: 3}
      propertyPath: m_Layer
      value: 0
      objectReference: {fileID: 0}
    m_RemovedComponents: []
  m_SourcePrefab: {fileID: 100100000, guid: 7c06ace9a5f34b14dbd9221c24019eee, type: 3}
--- !u!4 &8312132542628714264 stripped
Transform:
  m_CorrespondingSourceObject: {fileID: -8679921383154817045, guid: 7c06ace9a5f34b14dbd9221c24019eee, type: 3}
  m_PrefabInstance: {fileID: 8417256288574255347}
  m_PrefabAsset: {fileID: 0}
