# MagicaVoxel @ Ephtracy

# group
o 

# material
mtllib KamiFull.mtl
usemtl palette

# normals
vn -1 0 0
vn 1 0 0
vn 0 0 1
vn 0 0 -1
vn 0 -1 0
vn 0 1 0

# texcoords
vt 0.306641 0.5
vt 0.939453 0.5
vt 0.943359 0.5
vt 0.947266 0.5
vt 0.951172 0.5
vt 0.955078 0.5
vt 0.958984 0.5
vt 0.962891 0.5
vt 0.970703 0.5
vt 0.974609 0.5
vt 0.978516 0.5
vt 0.982422 0.5
vt 0.990234 0.5
vt 0.994141 0.5

# verts
v -0.9 1.3 0.5
v -0.9 1.3 0.3
v -0.9 1.5 0.5
v -0.9 1.5 0.3
v -0.8 1.1 0.5
v -0.8 1.1 0.4
v -0.8 1.3 0.6
v -0.8 1.3 0.5
v -0.8 1.3 0.4
v -0.8 1.3 0.3
v -0.8 1.3 0
v -0.8 1.5 0.6
v -0.8 1.5 0.5
v -0.8 1.5 0.4
v -0.8 1.5 0.3
v -0.8 1.5 0
v -0.8 1.6 0.5
v -0.8 1.6 0.4
v -0.8 1.8 0.5
v -0.8 1.8 0.4
v -0.8 1.9 0.5
v -0.8 1.9 0.4
v -0.7 1.1 0.6
v -0.7 1.1 0.5
v -0.7 1.1 0.4
v -0.7 1.1 0.3
v -0.7 1.3 0.6
v -0.7 1.3 0.5
v -0.7 1.3 0.4
v -0.7 1.3 0.3
v -0.7 1.5 0.6
v -0.7 1.5 0.5
v -0.7 1.5 0.4
v -0.7 1.5 0.3
v -0.7 1.6 0.6
v -0.7 1.6 0.5
v -0.7 1.6 0.4
v -0.7 1.6 0.3
v -0.7 1.8 0.6
v -0.7 1.8 0.5
v -0.7 1.8 0.4
v -0.7 1.8 0.3
v -0.7 1.9 0.6
v -0.7 1.9 0.5
v -0.7 1.9 0.4
v -0.7 1.9 0.3
v -0.7 2 0.5
v -0.7 2 0.4
v -0.3 0 0.4
v -0.3 0 -0.1
v -0.3 0.1 0.4
v -0.3 0.1 0.2
v -0.3 0.3 0.2
v -0.3 0.3 0
v -0.3 0.3 -0.1
v -0.3 0.4 0.2
v -0.3 0.4 0
v -0.3 0.4 -0.1
v -0.3 0.5 0.1
v -0.3 0.5 0
v -0.3 0.6 0.2
v -0.3 0.6 0.1
v -0.3 0.6 0
v -0.3 0.6 -0.1
v -0.3 0.7 0
v -0.3 0.7 -0.1
v -0.3 0.8 0.2
v -0.3 0.8 0.1
v -0.3 0.8 0
v -0.3 0.8 -0.1
v -0.3 0.9 0.3
v -0.3 0.9 0.2
v -0.3 0.9 -0.1
v -0.3 0.9 -0.2
v -0.3 1.3 0.2
v -0.3 1.3 0
v -0.3 1.5 0.3
v -0.3 1.5 0.2
v -0.3 1.5 0
v -0.3 1.5 -0.1
v -0.3 1.5 -0.2
v -0.3 1.6 0.2
v -0.3 1.6 -0.1
v -0.3 2.1 0.1
v -0.3 2.1 0
v -0.3 2.2 0.1
v -0.3 2.2 0
v -0.2 1.6 0.2
v -0.2 1.6 -0.1
v -0.2 2 0.2
v -0.2 2 -0.1
v -0.1 1.5 0.1
v -0.1 1.5 -0.1
v -0.1 1.6 0.1
v -0.1 1.6 -0.1
v 0.1 0 0.4
v 0.1 0 -0.1
v 0.1 0.1 0.4
v 0.1 0.1 0.2
v 0.1 0.3 0.2
v 0.1 0.3 0
v 0.1 0.3 -0.1
v 0.1 0.4 0.2
v 0.1 0.4 0.1
v 0.1 0.5 0.2
v 0.1 0.5 0.1
v 0.1 0.5 0
v 0.1 0.5 -0.1
v 0.1 0.6 0.2
v 0.1 0.6 0.1
v 0.1 0.6 0
v 0.1 0.6 -0.1
v 0.2 1.4 0.3
v 0.2 1.4 0.2
v 0.2 1.5 0.3
v 0.2 1.5 0.2
v 0.2 1.5 -0.1
v 0.2 1.6 0.2
v 0.2 1.6 -0.1
v 0.4 1.4 0.5
v 0.4 1.4 0.3
v 0.4 1.5 0.5
v 0.4 1.5 0.3
v 0.5 1.1 0.5
v 0.5 1.1 0.4
v 0.5 1.4 0.5
v 0.5 1.4 0.4
v 0.5 1.5 0.5
v 0.5 1.5 0.4
v 0.5 1.6 0.5
v 0.5 1.6 0.4
v 0.5 1.8 0.5
v 0.5 1.8 0.4
v 0.5 1.9 0.5
v 0.5 1.9 0.4
v 0.6 1.1 0.6
v 0.6 1.1 0.5
v 0.6 1.1 0.4
v 0.6 1.1 0.3
v 0.6 1.3 0.4
v 0.6 1.3 0.3
v 0.6 1.3 0.2
v 0.6 1.4 0.4
v 0.6 1.4 0.3
v 0.6 1.5 0.4
v 0.6 1.5 0.3
v 0.6 1.5 0.2
v 0.6 1.6 0.6
v 0.6 1.6 0.5
v 0.6 1.6 0.4
v 0.6 1.6 0.3
v 0.6 1.8 0.6
v 0.6 1.8 0.5
v 0.6 1.8 0.4
v 0.6 1.8 0.3
v 0.6 1.9 0.6
v 0.6 1.9 0.5
v 0.6 1.9 0.4
v 0.6 1.9 0.3
v 0.6 2 0.5
v 0.6 2 0.4
v -0.6 1.1 0.6
v -0.6 1.1 0.5
v -0.6 1.1 0.4
v -0.6 1.1 0.3
v -0.6 1.3 0.4
v -0.6 1.3 0.3
v -0.6 1.3 0.2
v -0.6 1.4 0.4
v -0.6 1.4 0.3
v -0.6 1.5 0.4
v -0.6 1.5 0.3
v -0.6 1.5 0.2
v -0.6 1.6 0.6
v -0.6 1.6 0.5
v -0.6 1.6 0.4
v -0.6 1.6 0.3
v -0.6 1.8 0.6
v -0.6 1.8 0.5
v -0.6 1.8 0.4
v -0.6 1.8 0.3
v -0.6 1.9 0.6
v -0.6 1.9 0.5
v -0.6 1.9 0.4
v -0.6 1.9 0.3
v -0.6 2 0.5
v -0.6 2 0.4
v -0.5 1.1 0.5
v -0.5 1.1 0.4
v -0.5 1.4 0.5
v -0.5 1.4 0.4
v -0.5 1.5 0.5
v -0.5 1.5 0.4
v -0.5 1.6 0.5
v -0.5 1.6 0.4
v -0.5 1.8 0.5
v -0.5 1.8 0.4
v -0.5 1.9 0.5
v -0.5 1.9 0.4
v -0.4 1.4 0.5
v -0.4 1.4 0.3
v -0.4 1.5 0.5
v -0.4 1.5 0.3
v -0.2 1.4 0.3
v -0.2 1.4 0.2
v -0.2 1.5 0.3
v -0.2 1.5 0.2
v -0.2 1.5 -0.1
v -0.2 1.6 0.2
v -0.2 1.6 -0.1
v -0.1 0 0.4
v -0.1 0 -0.1
v -0.1 0.1 0.4
v -0.1 0.1 0.2
v -0.1 0.3 0.2
v -0.1 0.3 0
v -0.1 0.3 -0.1
v -0.1 0.4 0.2
v -0.1 0.4 0.1
v -0.1 0.5 0.2
v -0.1 0.5 0.1
v -0.1 0.5 0
v -0.1 0.5 -0.1
v -0.1 0.6 0.2
v -0.1 0.6 0.1
v -0.1 0.6 0
v -0.1 0.6 -0.1
v 0.1 1.5 0.1
v 0.1 1.5 -0.1
v 0.1 1.6 0.1
v 0.1 1.6 -0.1
v 0.2 1.6 0.2
v 0.2 1.6 -0.1
v 0.2 2 0.2
v 0.2 2 -0.1
v 0.3 0 0.4
v 0.3 0 -0.1
v 0.3 0.1 0.4
v 0.3 0.1 0.2
v 0.3 0.3 0.2
v 0.3 0.3 0.1
v 0.3 0.3 -0.1
v 0.3 0.4 0.2
v 0.3 0.4 0.1
v 0.3 0.4 0
v 0.3 0.5 0.2
v 0.3 0.5 0.1
v 0.3 0.5 0
v 0.3 0.5 -0.1
v 0.3 0.6 0.2
v 0.3 0.6 0.1
v 0.3 0.7 0.2
v 0.3 0.7 0.1
v 0.3 0.7 0
v 0.3 0.8 0.2
v 0.3 0.8 0.1
v 0.3 0.8 -0.1
v 0.3 0.9 0.3
v 0.3 0.9 0.2
v 0.3 0.9 -0.1
v 0.3 0.9 -0.2
v 0.3 1.3 0.2
v 0.3 1.3 0
v 0.3 1.5 0.3
v 0.3 1.5 0.2
v 0.3 1.5 0
v 0.3 1.5 -0.1
v 0.3 1.5 -0.2
v 0.3 1.6 0.2
v 0.3 1.6 -0.1
v 0.3 2.1 0.1
v 0.3 2.1 0
v 0.3 2.2 0.1
v 0.3 2.2 0
v 0.7 1.1 0.6
v 0.7 1.1 0.5
v 0.7 1.1 0.4
v 0.7 1.1 0.3
v 0.7 1.3 0.6
v 0.7 1.3 0.5
v 0.7 1.3 0.4
v 0.7 1.3 0.3
v 0.7 1.5 0.6
v 0.7 1.5 0.5
v 0.7 1.5 0.4
v 0.7 1.5 0.3
v 0.7 1.6 0.6
v 0.7 1.6 0.5
v 0.7 1.6 0.4
v 0.7 1.6 0.3
v 0.7 1.8 0.6
v 0.7 1.8 0.5
v 0.7 1.8 0.4
v 0.7 1.8 0.3
v 0.7 1.9 0.6
v 0.7 1.9 0.5
v 0.7 1.9 0.4
v 0.7 1.9 0.3
v 0.7 2 0.5
v 0.7 2 0.4
v 0.8 1.1 0.5
v 0.8 1.1 0.4
v 0.8 1.3 0.6
v 0.8 1.3 0.5
v 0.8 1.3 0.4
v 0.8 1.3 0.3
v 0.8 1.3 0
v 0.8 1.5 0.6
v 0.8 1.5 0.5
v 0.8 1.5 0.4
v 0.8 1.5 0.3
v 0.8 1.5 0
v 0.8 1.6 0.5
v 0.8 1.6 0.4
v 0.8 1.8 0.5
v 0.8 1.8 0.4
v 0.8 1.9 0.5
v 0.8 1.9 0.4
v 0.9 1.3 0.5
v 0.9 1.3 0.3
v 0.9 1.5 0.5
v 0.9 1.5 0.3
v -0.8 1.3 0.6
v -0.8 1.5 0.6
v -0.7 1.1 0.6
v -0.7 1.3 0.6
v -0.7 1.5 0.6
v -0.7 1.6 0.6
v -0.7 1.8 0.6
v -0.7 1.9 0.6
v -0.6 1.1 0.6
v -0.6 1.6 0.6
v -0.6 1.8 0.6
v -0.6 1.9 0.6
v 0.6 1.1 0.6
v 0.6 1.6 0.6
v 0.6 1.8 0.6
v 0.6 1.9 0.6
v 0.7 1.1 0.6
v 0.7 1.3 0.6
v 0.7 1.5 0.6
v 0.7 1.6 0.6
v 0.7 1.8 0.6
v 0.7 1.9 0.6
v 0.8 1.3 0.6
v 0.8 1.5 0.6
v -0.9 1.3 0.5
v -0.9 1.5 0.5
v -0.8 1.1 0.5
v -0.8 1.3 0.5
v -0.8 1.5 0.5
v -0.8 1.6 0.5
v -0.8 1.8 0.5
v -0.8 1.9 0.5
v -0.7 1.1 0.5
v -0.7 1.3 0.5
v -0.7 1.5 0.5
v -0.7 1.6 0.5
v -0.7 1.8 0.5
v -0.7 1.9 0.5
v -0.7 2 0.5
v -0.6 1.1 0.5
v -0.6 1.6 0.5
v -0.6 1.8 0.5
v -0.6 1.9 0.5
v -0.6 2 0.5
v -0.5 1.1 0.5
v -0.5 1.4 0.5
v -0.5 1.5 0.5
v -0.5 1.6 0.5
v -0.5 1.8 0.5
v -0.5 1.9 0.5
v -0.4 1.4 0.5
v -0.4 1.5 0.5
v 0.4 1.4 0.5
v 0.4 1.5 0.5
v 0.5 1.1 0.5
v 0.5 1.4 0.5
v 0.5 1.5 0.5
v 0.5 1.6 0.5
v 0.5 1.8 0.5
v 0.5 1.9 0.5
v 0.6 1.1 0.5
v 0.6 1.6 0.5
v 0.6 1.8 0.5
v 0.6 1.9 0.5
v 0.6 2 0.5
v 0.7 1.1 0.5
v 0.7 1.3 0.5
v 0.7 1.5 0.5
v 0.7 1.6 0.5
v 0.7 1.8 0.5
v 0.7 1.9 0.5
v 0.7 2 0.5
v 0.8 1.1 0.5
v 0.8 1.3 0.5
v 0.8 1.5 0.5
v 0.8 1.6 0.5
v 0.8 1.8 0.5
v 0.8 1.9 0.5
v 0.9 1.3 0.5
v 0.9 1.5 0.5
v -0.3 0 0.4
v -0.3 0.1 0.4
v -0.1 0 0.4
v -0.1 0.1 0.4
v 0.1 0 0.4
v 0.1 0.1 0.4
v 0.3 0 0.4
v 0.3 0.1 0.4
v -0.3 0.9 0.3
v -0.3 1.5 0.3
v -0.2 1.4 0.3
v -0.2 1.5 0.3
v 0.2 1.4 0.3
v 0.2 1.5 0.3
v 0.3 0.9 0.3
v 0.3 1.5 0.3
v -0.6 1.3 0.2
v -0.6 1.5 0.2
v -0.3 0.1 0.2
v -0.3 0.3 0.2
v -0.3 0.4 0.2
v -0.3 0.6 0.2
v -0.3 0.8 0.2
v -0.3 0.9 0.2
v -0.3 1.3 0.2
v -0.3 1.5 0.2
v -0.3 1.6 0.2
v -0.2 0.3 0.2
v -0.2 0.4 0.2
v -0.2 0.5 0.2
v -0.2 0.6 0.2
v -0.2 0.7 0.2
v -0.2 1.4 0.2
v -0.2 1.5 0.2
v -0.2 1.6 0.2
v -0.2 2 0.2
v -0.1 0.1 0.2
v -0.1 0.3 0.2
v -0.1 0.4 0.2
v -0.1 0.5 0.2
v -0.1 0.6 0.2
v -0.1 0.7 0.2
v -0.1 0.8 0.2
v -0.1 0.9 0.2
v -0.1 1.8 0.2
v -0.1 1.9 0.2
v 0 0.6 0.2
v 0 0.7 0.2
v 0 0.8 0.2
v 0.1 0.1 0.2
v 0.1 0.3 0.2
v 0.1 0.4 0.2
v 0.1 0.5 0.2
v 0.1 0.6 0.2
v 0.1 0.8 0.2
v 0.1 0.9 0.2
v 0.1 1.8 0.2
v 0.1 1.9 0.2
v 0.2 0.3 0.2
v 0.2 0.4 0.2
v 0.2 0.5 0.2
v 0.2 0.6 0.2
v 0.2 0.7 0.2
v 0.2 1.4 0.2
v 0.2 1.5 0.2
v 0.2 1.6 0.2
v 0.2 2 0.2
v 0.3 0.1 0.2
v 0.3 0.3 0.2
v 0.3 0.4 0.2
v 0.3 0.5 0.2
v 0.3 0.6 0.2
v 0.3 0.7 0.2
v 0.3 0.8 0.2
v 0.3 0.9 0.2
v 0.3 1.3 0.2
v 0.3 1.5 0.2
v 0.3 1.6 0.2
v 0.6 1.3 0.2
v 0.6 1.5 0.2
v -0.3 2.1 0.1
v -0.3 2.2 0.1
v -0.1 1.5 0.1
v -0.1 1.6 0.1
v 0.1 1.5 0.1
v 0.1 1.6 0.1
v 0.3 2.1 0.1
v 0.3 2.2 0.1
v -0.8 1.1 0.4
v -0.8 1.3 0.4
v -0.8 1.5 0.4
v -0.8 1.6 0.4
v -0.8 1.8 0.4
v -0.8 1.9 0.4
v -0.7 1.1 0.4
v -0.7 1.3 0.4
v -0.7 1.5 0.4
v -0.7 1.6 0.4
v -0.7 1.8 0.4
v -0.7 1.9 0.4
v -0.7 2 0.4
v -0.6 1.1 0.4
v -0.6 1.3 0.4
v -0.6 1.4 0.4
v -0.6 1.5 0.4
v -0.6 1.6 0.4
v -0.6 1.8 0.4
v -0.6 1.9 0.4
v -0.6 2 0.4
v -0.5 1.1 0.4
v -0.5 1.4 0.4
v -0.5 1.5 0.4
v -0.5 1.6 0.4
v -0.5 1.8 0.4
v -0.5 1.9 0.4
v 0.5 1.1 0.4
v 0.5 1.4 0.4
v 0.5 1.5 0.4
v 0.5 1.6 0.4
v 0.5 1.8 0.4
v 0.5 1.9 0.4
v 0.6 1.1 0.4
v 0.6 1.3 0.4
v 0.6 1.4 0.4
v 0.6 1.5 0.4
v 0.6 1.6 0.4
v 0.6 1.8 0.4
v 0.6 1.9 0.4
v 0.6 2 0.4
v 0.7 1.1 0.4
v 0.7 1.3 0.4
v 0.7 1.5 0.4
v 0.7 1.6 0.4
v 0.7 1.8 0.4
v 0.7 1.9 0.4
v 0.7 2 0.4
v 0.8 1.1 0.4
v 0.8 1.3 0.4
v 0.8 1.5 0.4
v 0.8 1.6 0.4
v 0.8 1.8 0.4
v 0.8 1.9 0.4
v -0.9 1.3 0.3
v -0.9 1.5 0.3
v -0.8 1.3 0.3
v -0.8 1.5 0.3
v -0.7 1.1 0.3
v -0.7 1.3 0.3
v -0.7 1.5 0.3
v -0.7 1.6 0.3
v -0.7 1.8 0.3
v -0.7 1.9 0.3
v -0.6 1.1 0.3
v -0.6 1.3 0.3
v -0.6 1.4 0.3
v -0.6 1.5 0.3
v -0.6 1.6 0.3
v -0.6 1.8 0.3
v -0.6 1.9 0.3
v -0.4 1.4 0.3
v -0.4 1.5 0.3
v 0.4 1.4 0.3
v 0.4 1.5 0.3
v 0.6 1.1 0.3
v 0.6 1.3 0.3
v 0.6 1.4 0.3
v 0.6 1.5 0.3
v 0.6 1.6 0.3
v 0.6 1.8 0.3
v 0.6 1.9 0.3
v 0.7 1.1 0.3
v 0.7 1.3 0.3
v 0.7 1.5 0.3
v 0.7 1.6 0.3
v 0.7 1.8 0.3
v 0.7 1.9 0.3
v 0.8 1.3 0.3
v 0.8 1.5 0.3
v 0.9 1.3 0.3
v 0.9 1.5 0.3
v -0.8 1.3 0
v -0.8 1.5 0
v -0.3 1.3 0
v -0.3 1.5 0
v -0.3 2.1 0
v -0.3 2.2 0
v 0.3 1.3 0
v 0.3 1.5 0
v 0.3 2.1 0
v 0.3 2.2 0
v 0.8 1.3 0
v 0.8 1.5 0
v -0.3 0 -0.1
v -0.3 0.3 -0.1
v -0.3 0.4 -0.1
v -0.3 0.6 -0.1
v -0.3 0.7 -0.1
v -0.3 0.8 -0.1
v -0.3 0.9 -0.1
v -0.3 1.5 -0.1
v -0.3 1.6 -0.1
v -0.2 0.3 -0.1
v -0.2 0.4 -0.1
v -0.2 0.5 -0.1
v -0.2 0.6 -0.1
v -0.2 1.5 -0.1
v -0.2 1.6 -0.1
v -0.2 2 -0.1
v -0.1 0 -0.1
v -0.1 0.3 -0.1
v -0.1 0.5 -0.1
v -0.1 0.6 -0.1
v -0.1 0.7 -0.1
v -0.1 1.5 -0.1
v -0.1 1.6 -0.1
v 0 0.6 -0.1
v 0 0.7 -0.1
v 0 0.8 -0.1
v 0.1 0 -0.1
v 0.1 0.3 -0.1
v 0.1 0.5 -0.1
v 0.1 0.6 -0.1
v 0.1 0.8 -0.1
v 0.1 1.5 -0.1
v 0.1 1.6 -0.1
v 0.2 0.6 -0.1
v 0.2 0.8 -0.1
v 0.2 1.5 -0.1
v 0.2 1.6 -0.1
v 0.2 2 -0.1
v 0.3 0 -0.1
v 0.3 0.3 -0.1
v 0.3 0.5 -0.1
v 0.3 0.8 -0.1
v 0.3 0.9 -0.1
v 0.3 1.5 -0.1
v 0.3 1.6 -0.1
v -0.3 0.9 -0.2
v -0.3 1.5 -0.2
v 0.3 0.9 -0.2
v 0.3 1.5 -0.2
v -0.3 0 0.4
v -0.1 0 0.4
v 0.1 0 0.4
v 0.3 0 0.4
v -0.3 0 -0.1
v -0.1 0 -0.1
v 0.1 0 -0.1
v 0.3 0 -0.1
v -0.1 0.6 0.2
v 0 0.6 0.2
v 0.1 0.6 0.2
v -0.1 0.6 0.1
v 0 0.6 0.1
v 0.1 0.6 0.1
v -0.1 0.6 0
v 0 0.6 0
v 0.1 0.6 0
v -0.1 0.6 -0.1
v 0 0.6 -0.1
v 0.1 0.6 -0.1
v -0.3 0.9 0.3
v 0.3 0.9 0.3
v -0.3 0.9 0.2
v -0.1 0.9 0.2
v 0.1 0.9 0.2
v 0.3 0.9 0.2
v -0.3 0.9 -0.1
v 0.3 0.9 -0.1
v -0.3 0.9 -0.2
v 0.3 0.9 -0.2
v -0.7 1.1 0.6
v -0.6 1.1 0.6
v 0.6 1.1 0.6
v 0.7 1.1 0.6
v -0.8 1.1 0.5
v -0.7 1.1 0.5
v -0.6 1.1 0.5
v -0.5 1.1 0.5
v 0.5 1.1 0.5
v 0.6 1.1 0.5
v 0.7 1.1 0.5
v 0.8 1.1 0.5
v -0.8 1.1 0.4
v -0.7 1.1 0.4
v -0.6 1.1 0.4
v -0.5 1.1 0.4
v 0.5 1.1 0.4
v 0.6 1.1 0.4
v 0.7 1.1 0.4
v 0.8 1.1 0.4
v -0.7 1.1 0.3
v -0.6 1.1 0.3
v 0.6 1.1 0.3
v 0.7 1.1 0.3
v -0.8 1.3 0.6
v -0.7 1.3 0.6
v 0.7 1.3 0.6
v 0.8 1.3 0.6
v -0.9 1.3 0.5
v -0.8 1.3 0.5
v -0.7 1.3 0.5
v 0.7 1.3 0.5
v 0.8 1.3 0.5
v 0.9 1.3 0.5
v -0.8 1.3 0.4
v -0.7 1.3 0.4
v 0.7 1.3 0.4
v 0.8 1.3 0.4
v -0.9 1.3 0.3
v -0.8 1.3 0.3
v -0.7 1.3 0.3
v -0.6 1.3 0.3
v 0.6 1.3 0.3
v 0.7 1.3 0.3
v 0.8 1.3 0.3
v 0.9 1.3 0.3
v -0.6 1.3 0.2
v -0.3 1.3 0.2
v 0.3 1.3 0.2
v 0.6 1.3 0.2
v -0.8 1.3 0
v -0.3 1.3 0
v 0.3 1.3 0
v 0.8 1.3 0
v -0.5 1.4 0.5
v -0.4 1.4 0.5
v 0.4 1.4 0.5
v 0.5 1.4 0.5
v -0.6 1.4 0.4
v -0.5 1.4 0.4
v 0.5 1.4 0.4
v 0.6 1.4 0.4
v -0.6 1.4 0.3
v -0.4 1.4 0.3
v 0.4 1.4 0.3
v 0.6 1.4 0.3
v -0.2 1.6 0.2
v 0.2 1.6 0.2
v -0.1 1.6 0.1
v 0.1 1.6 0.1
v -0.2 1.6 -0.1
v -0.1 1.6 -0.1
v 0.1 1.6 -0.1
v 0.2 1.6 -0.1
v -0.7 1.8 0.6
v -0.6 1.8 0.6
v 0.6 1.8 0.6
v 0.7 1.8 0.6
v -0.8 1.8 0.5
v -0.7 1.8 0.5
v -0.6 1.8 0.5
v -0.5 1.8 0.5
v 0.5 1.8 0.5
v 0.6 1.8 0.5
v 0.7 1.8 0.5
v 0.8 1.8 0.5
v -0.8 1.8 0.4
v -0.7 1.8 0.4
v -0.6 1.8 0.4
v -0.5 1.8 0.4
v 0.5 1.8 0.4
v 0.6 1.8 0.4
v 0.7 1.8 0.4
v 0.8 1.8 0.4
v -0.7 1.8 0.3
v -0.6 1.8 0.3
v 0.6 1.8 0.3
v 0.7 1.8 0.3
v -0.3 2.1 0.1
v 0.3 2.1 0.1
v -0.3 2.1 0
v 0.3 2.1 0
v -0.3 0.1 0.4
v -0.1 0.1 0.4
v 0.1 0.1 0.4
v 0.3 0.1 0.4
v -0.3 0.1 0.2
v -0.1 0.1 0.2
v 0.1 0.1 0.2
v 0.3 0.1 0.2
v -0.2 1.4 0.3
v 0.2 1.4 0.3
v -0.2 1.4 0.2
v 0.2 1.4 0.2
v -0.8 1.5 0.6
v -0.7 1.5 0.6
v 0.7 1.5 0.6
v 0.8 1.5 0.6
v -0.9 1.5 0.5
v -0.8 1.5 0.5
v -0.7 1.5 0.5
v -0.5 1.5 0.5
v -0.4 1.5 0.5
v 0.4 1.5 0.5
v 0.5 1.5 0.5
v 0.7 1.5 0.5
v 0.8 1.5 0.5
v 0.9 1.5 0.5
v -0.8 1.5 0.4
v -0.7 1.5 0.4
v -0.6 1.5 0.4
v -0.5 1.5 0.4
v 0.5 1.5 0.4
v 0.6 1.5 0.4
v 0.7 1.5 0.4
v 0.8 1.5 0.4
v -0.9 1.5 0.3
v -0.8 1.5 0.3
v -0.7 1.5 0.3
v -0.6 1.5 0.3
v -0.4 1.5 0.3
v -0.3 1.5 0.3
v -0.2 1.5 0.3
v 0.2 1.5 0.3
v 0.3 1.5 0.3
v 0.4 1.5 0.3
v 0.6 1.5 0.3
v 0.7 1.5 0.3
v 0.8 1.5 0.3
v 0.9 1.5 0.3
v -0.6 1.5 0.2
v -0.3 1.5 0.2
v -0.2 1.5 0.2
v 0.2 1.5 0.2
v 0.3 1.5 0.2
v 0.6 1.5 0.2
v -0.1 1.5 0.1
v 0.1 1.5 0.1
v -0.8 1.5 0
v -0.3 1.5 0
v 0.3 1.5 0
v 0.8 1.5 0
v -0.3 1.5 -0.1
v -0.2 1.5 -0.1
v -0.1 1.5 -0.1
v 0.1 1.5 -0.1
v 0.2 1.5 -0.1
v 0.3 1.5 -0.1
v -0.3 1.5 -0.2
v 0.3 1.5 -0.2
v -0.7 1.6 0.6
v -0.6 1.6 0.6
v 0.6 1.6 0.6
v 0.7 1.6 0.6
v -0.8 1.6 0.5
v -0.7 1.6 0.5
v -0.6 1.6 0.5
v -0.5 1.6 0.5
v 0.5 1.6 0.5
v 0.6 1.6 0.5
v 0.7 1.6 0.5
v 0.8 1.6 0.5
v -0.8 1.6 0.4
v -0.7 1.6 0.4
v -0.6 1.6 0.4
v -0.5 1.6 0.4
v 0.5 1.6 0.4
v 0.6 1.6 0.4
v 0.7 1.6 0.4
v 0.8 1.6 0.4
v -0.7 1.6 0.3
v -0.6 1.6 0.3
v 0.6 1.6 0.3
v 0.7 1.6 0.3
v -0.3 1.6 0.2
v -0.2 1.6 0.2
v 0.2 1.6 0.2
v 0.3 1.6 0.2
v -0.3 1.6 -0.1
v -0.2 1.6 -0.1
v 0.2 1.6 -0.1
v 0.3 1.6 -0.1
v -0.7 1.9 0.6
v -0.6 1.9 0.6
v 0.6 1.9 0.6
v 0.7 1.9 0.6
v -0.8 1.9 0.5
v -0.7 1.9 0.5
v -0.6 1.9 0.5
v -0.5 1.9 0.5
v 0.5 1.9 0.5
v 0.6 1.9 0.5
v 0.7 1.9 0.5
v 0.8 1.9 0.5
v -0.8 1.9 0.4
v -0.7 1.9 0.4
v -0.6 1.9 0.4
v -0.5 1.9 0.4
v 0.5 1.9 0.4
v 0.6 1.9 0.4
v 0.7 1.9 0.4
v 0.8 1.9 0.4
v -0.7 1.9 0.3
v -0.6 1.9 0.3
v 0.6 1.9 0.3
v 0.7 1.9 0.3
v -0.7 2 0.5
v -0.6 2 0.5
v 0.6 2 0.5
v 0.7 2 0.5
v -0.7 2 0.4
v -0.6 2 0.4
v 0.6 2 0.4
v 0.7 2 0.4
v -0.2 2 0.2
v 0.2 2 0.2
v -0.2 2 -0.1
v 0.2 2 -0.1
v -0.3 2.2 0.1
v 0.3 2.2 0.1
v -0.3 2.2 0
v 0.3 2.2 0

# faces
f 3/10/1 2/10/1 1/10/1
f 4/10/1 2/10/1 3/10/1
f 8/12/1 6/12/1 5/12/1
f 9/12/1 6/12/1 8/12/1
f 12/10/1 8/10/1 7/10/1
f 13/10/1 8/10/1 12/10/1
f 15/9/1 11/9/1 10/9/1
f 16/9/1 11/9/1 15/9/1
f 17/12/1 14/12/1 13/12/1
f 18/12/1 14/12/1 17/12/1
f 21/13/1 20/13/1 19/13/1
f 22/13/1 20/13/1 21/13/1
f 27/12/1 24/12/1 23/12/1
f 28/12/1 24/12/1 27/12/1
f 29/12/1 26/12/1 25/12/1
f 30/12/1 26/12/1 29/12/1
f 35/12/1 32/12/1 31/12/1
f 36/12/1 32/12/1 35/12/1
f 37/12/1 34/12/1 33/12/1
f 38/12/1 34/12/1 37/12/1
f 40/9/1 37/9/1 36/9/1
f 41/9/1 37/9/1 40/9/1
f 43/13/1 40/13/1 39/13/1
f 44/13/1 40/13/1 43/13/1
f 45/13/1 42/13/1 41/13/1
f 46/13/1 42/13/1 45/13/1
f 47/13/1 45/13/1 44/13/1
f 48/13/1 45/13/1 47/13/1
f 51/9/1 50/9/1 49/9/1
f 52/9/1 50/9/1 51/9/1
f 53/9/1 50/9/1 52/9/1
f 54/9/1 50/9/1 53/9/1
f 55/9/1 50/9/1 54/9/1
f 56/6/1 54/6/1 53/6/1
f 57/4/1 55/4/1 54/4/1
f 57/6/1 54/6/1 56/6/1
f 58/4/1 55/4/1 57/4/1
f 59/4/1 57/4/1 56/4/1
f 60/7/1 58/7/1 57/7/1
f 60/4/1 57/4/1 59/4/1
f 61/4/1 59/4/1 56/4/1
f 62/6/1 60/6/1 59/6/1
f 62/4/1 59/4/1 61/4/1
f 63/7/1 58/7/1 60/7/1
f 63/6/1 60/6/1 62/6/1
f 64/7/1 58/7/1 63/7/1
f 65/6/1 63/6/1 62/6/1
f 65/6/1 64/6/1 63/6/1
f 66/6/1 64/6/1 65/6/1
f 67/5/1 62/5/1 61/5/1
f 68/6/1 65/6/1 62/6/1
f 68/5/1 62/5/1 67/5/1
f 69/3/1 66/3/1 65/3/1
f 69/6/1 65/6/1 68/6/1
f 70/3/1 66/3/1 69/3/1
f 72/14/1 68/14/1 67/14/1
f 72/14/1 69/14/1 68/14/1
f 72/14/1 70/14/1 69/14/1
f 73/14/1 70/14/1 72/14/1
f 75/11/1 73/11/1 72/11/1
f 75/11/1 74/11/1 73/11/1
f 75/11/1 72/11/1 71/11/1
f 76/11/1 74/11/1 75/11/1
f 77/11/1 75/11/1 71/11/1
f 78/11/1 75/11/1 77/11/1
f 79/11/1 74/11/1 76/11/1
f 80/11/1 74/11/1 79/11/1
f 81/11/1 74/11/1 80/11/1
f 82/11/1 79/11/1 78/11/1
f 82/11/1 80/11/1 79/11/1
f 83/11/1 80/11/1 82/11/1
f 86/5/1 85/5/1 84/5/1
f 87/5/1 85/5/1 86/5/1
f 90/9/1 89/9/1 88/9/1
f 91/9/1 89/9/1 90/9/1
f 94/10/1 93/10/1 92/10/1
f 95/10/1 93/10/1 94/10/1
f 98/9/1 97/9/1 96/9/1
f 99/9/1 97/9/1 98/9/1
f 100/9/1 97/9/1 99/9/1
f 101/9/1 97/9/1 100/9/1
f 102/9/1 97/9/1 101/9/1
f 103/5/1 101/5/1 100/5/1
f 104/5/1 101/5/1 103/5/1
f 105/8/1 104/8/1 103/8/1
f 106/5/1 101/5/1 104/5/1
f 106/8/1 104/8/1 105/8/1
f 107/6/1 102/6/1 101/6/1
f 107/5/1 101/5/1 106/5/1
f 108/6/1 102/6/1 107/6/1
f 109/6/1 106/6/1 105/6/1
f 110/9/1 107/9/1 106/9/1
f 110/6/1 106/6/1 109/6/1
f 111/5/1 108/5/1 107/5/1
f 111/9/1 107/9/1 110/9/1
f 112/5/1 108/5/1 111/5/1
f 115/11/1 114/11/1 113/11/1
f 116/11/1 114/11/1 115/11/1
f 118/11/1 117/11/1 116/11/1
f 119/11/1 117/11/1 118/11/1
f 122/10/1 121/10/1 120/10/1
f 123/10/1 121/10/1 122/10/1
f 126/12/1 125/12/1 124/12/1
f 127/12/1 125/12/1 126/12/1
f 130/12/1 129/12/1 128/12/1
f 131/12/1 129/12/1 130/12/1
f 134/13/1 133/13/1 132/13/1
f 135/13/1 133/13/1 134/13/1
f 140/12/1 139/12/1 138/12/1
f 141/12/1 139/12/1 140/12/1
f 143/10/1 141/10/1 140/10/1
f 144/9/1 142/9/1 141/9/1
f 144/10/1 141/10/1 143/10/1
f 146/9/1 142/9/1 144/9/1
f 147/9/1 142/9/1 146/9/1
f 148/12/1 137/12/1 136/12/1
f 149/12/1 137/12/1 148/12/1
f 150/12/1 146/12/1 145/12/1
f 151/12/1 146/12/1 150/12/1
f 153/9/1 150/9/1 149/9/1
f 154/9/1 150/9/1 153/9/1
f 156/13/1 153/13/1 152/13/1
f 157/13/1 153/13/1 156/13/1
f 158/13/1 155/13/1 154/13/1
f 159/13/1 155/13/1 158/13/1
f 160/13/1 158/13/1 157/13/1
f 161/13/1 158/13/1 160/13/1
f 164/12/2 165/12/2 166/12/2
f 166/12/2 165/12/2 167/12/2
f 166/10/2 167/10/2 169/10/2
f 167/9/2 168/9/2 170/9/2
f 169/10/2 167/10/2 170/10/2
f 170/9/2 168/9/2 172/9/2
f 172/9/2 168/9/2 173/9/2
f 162/12/2 163/12/2 174/12/2
f 174/12/2 163/12/2 175/12/2
f 171/12/2 172/12/2 176/12/2
f 176/12/2 172/12/2 177/12/2
f 175/9/2 176/9/2 179/9/2
f 179/9/2 176/9/2 180/9/2
f 178/13/2 179/13/2 182/13/2
f 182/13/2 179/13/2 183/13/2
f 180/13/2 181/13/2 184/13/2
f 184/13/2 181/13/2 185/13/2
f 183/13/2 184/13/2 186/13/2
f 186/13/2 184/13/2 187/13/2
f 188/12/2 189/12/2 190/12/2
f 190/12/2 189/12/2 191/12/2
f 192/12/2 193/12/2 194/12/2
f 194/12/2 193/12/2 195/12/2
f 196/13/2 197/13/2 198/13/2
f 198/13/2 197/13/2 199/13/2
f 200/10/2 201/10/2 202/10/2
f 202/10/2 201/10/2 203/10/2
f 204/11/2 205/11/2 206/11/2
f 206/11/2 205/11/2 207/11/2
f 207/11/2 208/11/2 209/11/2
f 209/11/2 208/11/2 210/11/2
f 211/9/2 212/9/2 213/9/2
f 213/9/2 212/9/2 214/9/2
f 214/9/2 212/9/2 215/9/2
f 215/9/2 212/9/2 216/9/2
f 216/9/2 212/9/2 217/9/2
f 215/7/2 216/7/2 218/7/2
f 218/7/2 216/7/2 219/7/2
f 218/6/2 219/6/2 220/6/2
f 219/7/2 216/7/2 221/7/2
f 220/6/2 219/6/2 221/6/2
f 216/5/2 217/5/2 222/5/2
f 221/7/2 216/7/2 222/7/2
f 222/5/2 217/5/2 223/5/2
f 220/3/2 221/3/2 224/3/2
f 221/7/2 222/7/2 225/7/2
f 224/3/2 221/3/2 225/3/2
f 222/6/2 223/6/2 226/6/2
f 225/7/2 222/7/2 226/7/2
f 226/6/2 223/6/2 227/6/2
f 228/10/2 229/10/2 230/10/2
f 230/10/2 229/10/2 231/10/2
f 232/9/2 233/9/2 234/9/2
f 234/9/2 233/9/2 235/9/2
f 236/9/2 237/9/2 238/9/2
f 238/9/2 237/9/2 239/9/2
f 239/9/2 237/9/2 240/9/2
f 240/9/2 237/9/2 241/9/2
f 241/9/2 237/9/2 242/9/2
f 240/8/2 241/8/2 243/8/2
f 241/6/2 242/6/2 244/6/2
f 243/8/2 241/8/2 244/8/2
f 244/6/2 242/6/2 245/6/2
f 243/3/2 244/3/2 246/3/2
f 244/3/2 245/3/2 246/3/2
f 246/3/2 245/3/2 247/3/2
f 245/6/2 242/6/2 248/6/2
f 247/3/2 245/3/2 248/3/2
f 248/6/2 242/6/2 249/6/2
f 246/6/2 247/6/2 250/6/2
f 247/3/2 248/3/2 251/3/2
f 250/6/2 247/6/2 251/6/2
f 250/3/2 251/3/2 252/3/2
f 251/3/2 248/3/2 253/3/2
f 252/3/2 251/3/2 253/3/2
f 248/5/2 249/5/2 254/5/2
f 253/3/2 248/3/2 254/3/2
f 252/8/2 253/8/2 255/8/2
f 253/5/2 254/5/2 256/5/2
f 255/8/2 253/8/2 256/8/2
f 254/5/2 249/5/2 257/5/2
f 256/5/2 254/5/2 257/5/2
f 255/14/2 256/14/2 259/14/2
f 256/14/2 257/14/2 259/14/2
f 259/14/2 257/14/2 260/14/2
f 259/11/2 260/11/2 262/11/2
f 260/11/2 261/11/2 262/11/2
f 258/11/2 259/11/2 262/11/2
f 262/11/2 261/11/2 263/11/2
f 258/11/2 262/11/2 264/11/2
f 264/11/2 262/11/2 265/11/2
f 263/11/2 261/11/2 266/11/2
f 266/11/2 261/11/2 267/11/2
f 267/11/2 261/11/2 268/11/2
f 265/11/2 266/11/2 269/11/2
f 266/11/2 267/11/2 269/11/2
f 269/11/2 267/11/2 270/11/2
f 271/5/2 272/5/2 273/5/2
f 273/5/2 272/5/2 274/5/2
f 275/12/2 276/12/2 279/12/2
f 279/12/2 276/12/2 280/12/2
f 277/12/2 278/12/2 281/12/2
f 281/12/2 278/12/2 282/12/2
f 283/12/2 284/12/2 287/12/2
f 287/12/2 284/12/2 288/12/2
f 285/12/2 286/12/2 289/12/2
f 289/12/2 286/12/2 290/12/2
f 288/9/2 289/9/2 292/9/2
f 292/9/2 289/9/2 293/9/2
f 291/13/2 292/13/2 295/13/2
f 295/13/2 292/13/2 296/13/2
f 293/13/2 294/13/2 297/13/2
f 297/13/2 294/13/2 298/13/2
f 296/13/2 297/13/2 299/13/2
f 299/13/2 297/13/2 300/13/2
f 301/12/2 302/12/2 304/12/2
f 304/12/2 302/12/2 305/12/2
f 303/10/2 304/10/2 308/10/2
f 308/10/2 304/10/2 309/10/2
f 306/9/2 307/9/2 311/9/2
f 311/9/2 307/9/2 312/9/2
f 309/12/2 310/12/2 313/12/2
f 313/12/2 310/12/2 314/12/2
f 315/13/2 316/13/2 317/13/2
f 317/13/2 316/13/2 318/13/2
f 319/10/2 320/10/2 321/10/2
f 321/10/2 320/10/2 322/10/2
f 326/10/3 324/10/3 323/10/3
f 327/10/3 324/10/3 326/10/3
f 331/12/3 326/12/3 325/12/3
f 331/12/3 327/12/3 326/12/3
f 331/12/3 328/12/3 327/12/3
f 332/12/3 328/12/3 331/12/3
f 333/13/3 330/13/3 329/13/3
f 334/13/3 330/13/3 333/13/3
f 339/12/3 336/12/3 335/12/3
f 340/12/3 336/12/3 339/12/3
f 341/12/3 336/12/3 340/12/3
f 342/12/3 336/12/3 341/12/3
f 343/13/3 338/13/3 337/13/3
f 344/13/3 338/13/3 343/13/3
f 345/10/3 341/10/3 340/10/3
f 346/10/3 341/10/3 345/10/3
f 350/10/3 348/10/3 347/10/3
f 351/10/3 348/10/3 350/10/3
f 355/12/3 350/12/3 349/12/3
f 356/12/3 350/12/3 355/12/3
f 357/12/3 352/12/3 351/12/3
f 358/12/3 352/12/3 357/12/3
f 359/13/3 354/13/3 353/13/3
f 360/13/3 354/13/3 359/13/3
f 363/9/3 359/9/3 358/9/3
f 364/9/3 359/9/3 363/9/3
f 365/13/3 361/13/3 360/13/3
f 366/13/3 361/13/3 365/13/3
f 367/12/3 363/12/3 362/12/3
f 368/12/3 363/12/3 367/12/3
f 369/12/3 363/12/3 368/12/3
f 370/12/3 363/12/3 369/12/3
f 371/13/3 365/13/3 364/13/3
f 372/13/3 365/13/3 371/13/3
f 373/10/3 369/10/3 368/10/3
f 374/10/3 369/10/3 373/10/3
f 378/10/3 376/10/3 375/10/3
f 379/10/3 376/10/3 378/10/3
f 383/12/3 379/12/3 378/12/3
f 383/12/3 378/12/3 377/12/3
f 383/12/3 380/12/3 379/12/3
f 384/12/3 380/12/3 383/12/3
f 385/13/3 382/13/3 381/13/3
f 386/13/3 382/13/3 385/13/3
f 391/9/3 385/9/3 384/9/3
f 392/9/3 385/9/3 391/9/3
f 393/13/3 387/13/3 386/13/3
f 394/13/3 387/13/3 393/13/3
f 395/12/3 389/12/3 388/12/3
f 396/12/3 389/12/3 395/12/3
f 397/12/3 391/12/3 390/12/3
f 398/12/3 391/12/3 397/12/3
f 399/13/3 393/13/3 392/13/3
f 400/13/3 393/13/3 399/13/3
f 401/10/3 397/10/3 396/10/3
f 402/10/3 397/10/3 401/10/3
f 405/9/3 404/9/3 403/9/3
f 406/9/3 404/9/3 405/9/3
f 409/9/3 408/9/3 407/9/3
f 410/9/3 408/9/3 409/9/3
f 413/11/3 412/11/3 411/11/3
f 414/11/3 412/11/3 413/11/3
f 415/11/3 413/11/3 411/11/3
f 417/11/3 415/11/3 411/11/3
f 417/11/3 416/11/3 415/11/3
f 418/11/3 416/11/3 417/11/3
f 427/9/3 420/9/3 419/9/3
f 428/9/3 420/9/3 427/9/3
f 430/9/3 422/9/3 421/9/3
f 430/6/3 423/6/3 422/6/3
f 431/4/3 424/4/3 423/4/3
f 431/6/3 423/6/3 430/6/3
f 432/4/3 424/4/3 431/4/3
f 433/5/3 425/5/3 424/5/3
f 433/4/3 424/4/3 432/4/3
f 434/5/3 425/5/3 433/5/3
f 436/11/3 429/11/3 428/11/3
f 437/11/3 429/11/3 436/11/3
f 439/9/3 430/9/3 421/9/3
f 440/7/3 431/7/3 430/7/3
f 440/9/3 430/9/3 439/9/3
f 441/6/3 432/6/3 431/6/3
f 441/7/3 431/7/3 440/7/3
f 442/3/3 433/3/3 432/3/3
f 442/6/3 432/6/3 441/6/3
f 442/3/3 434/3/3 433/3/3
f 443/3/3 434/3/3 442/3/3
f 444/5/3 425/5/3 434/5/3
f 444/3/3 434/3/3 443/3/3
f 445/14/3 426/14/3 425/14/3
f 445/5/3 425/5/3 444/5/3
f 446/14/3 426/14/3 445/14/3
f 447/9/3 438/9/3 437/9/3
f 448/9/3 438/9/3 447/9/3
f 449/3/3 444/3/3 443/3/3
f 449/3/3 445/3/3 444/3/3
f 450/3/3 445/3/3 449/3/3
f 451/2/3 446/2/3 445/2/3
f 451/3/3 445/3/3 450/3/3
f 456/6/3 450/6/3 449/6/3
f 457/8/3 451/8/3 450/8/3
f 457/2/3 446/2/3 451/2/3
f 458/2/3 446/2/3 457/2/3
f 459/10/3 448/10/3 447/10/3
f 459/9/3 447/9/3 437/9/3
f 460/9/3 438/9/3 448/9/3
f 460/10/3 448/10/3 459/10/3
f 461/9/3 453/9/3 452/9/3
f 461/5/3 454/5/3 453/5/3
f 462/8/3 455/8/3 454/8/3
f 462/5/3 454/5/3 461/5/3
f 463/6/3 456/6/3 455/6/3
f 463/8/3 455/8/3 462/8/3
f 464/6/3 450/6/3 456/6/3
f 464/6/3 456/6/3 463/6/3
f 465/8/3 457/8/3 450/8/3
f 465/6/3 450/6/3 464/6/3
f 466/9/3 436/9/3 435/9/3
f 467/9/3 436/9/3 466/9/3
f 468/9/3 459/9/3 437/9/3
f 468/9/3 460/9/3 459/9/3
f 469/9/3 438/9/3 460/9/3
f 469/9/3 460/9/3 468/9/3
f 470/9/3 461/9/3 452/9/3
f 471/8/3 462/8/3 461/8/3
f 471/9/3 461/9/3 470/9/3
f 472/3/3 463/3/3 462/3/3
f 472/8/3 462/8/3 471/8/3
f 473/6/3 464/6/3 463/6/3
f 473/3/3 463/3/3 472/3/3
f 474/3/3 465/3/3 464/3/3
f 474/6/3 464/6/3 473/6/3
f 475/8/3 457/8/3 465/8/3
f 475/3/3 465/3/3 474/3/3
f 476/14/3 458/14/3 457/14/3
f 476/8/3 457/8/3 475/8/3
f 477/14/3 458/14/3 476/14/3
f 479/11/3 468/11/3 467/11/3
f 480/11/3 468/11/3 479/11/3
f 481/9/3 479/9/3 478/9/3
f 482/9/3 479/9/3 481/9/3
f 487/10/3 486/10/3 485/10/3
f 488/10/3 486/10/3 487/10/3
f 489/5/3 484/5/3 483/5/3
f 490/5/3 484/5/3 489/5/3
f 491/12/4 492/12/4 497/12/4
f 497/12/4 492/12/4 498/12/4
f 493/12/4 494/12/4 499/12/4
f 499/12/4 494/12/4 500/12/4
f 495/13/4 496/13/4 501/13/4
f 501/13/4 496/13/4 502/13/4
f 500/9/4 501/9/4 508/9/4
f 508/9/4 501/9/4 509/9/4
f 502/13/4 503/13/4 510/13/4
f 510/13/4 503/13/4 511/13/4
f 505/12/4 506/12/4 512/12/4
f 504/12/4 505/12/4 512/12/4
f 512/12/4 506/12/4 513/12/4
f 507/12/4 508/12/4 514/12/4
f 514/12/4 508/12/4 515/12/4
f 509/13/4 510/13/4 516/13/4
f 516/13/4 510/13/4 517/13/4
f 518/12/4 519/12/4 524/12/4
f 524/12/4 519/12/4 525/12/4
f 525/12/4 519/12/4 526/12/4
f 520/12/4 521/12/4 527/12/4
f 527/12/4 521/12/4 528/12/4
f 522/13/4 523/13/4 529/13/4
f 529/13/4 523/13/4 530/13/4
f 528/9/4 529/9/4 535/9/4
f 535/9/4 529/9/4 536/9/4
f 530/13/4 531/13/4 537/13/4
f 537/13/4 531/13/4 538/13/4
f 532/12/4 533/12/4 539/12/4
f 539/12/4 533/12/4 540/12/4
f 534/12/4 535/12/4 541/12/4
f 541/12/4 535/12/4 542/12/4
f 536/13/4 537/13/4 543/13/4
f 543/13/4 537/13/4 544/13/4
f 545/10/4 546/10/4 547/10/4
f 547/10/4 546/10/4 548/10/4
f 549/12/4 550/12/4 555/12/4
f 555/12/4 550/12/4 556/12/4
f 551/12/4 552/12/4 558/12/4
f 558/12/4 552/12/4 559/12/4
f 553/13/4 554/13/4 560/13/4
f 560/13/4 554/13/4 561/13/4
f 557/10/4 558/10/4 562/10/4
f 562/10/4 558/10/4 563/10/4
f 564/10/4 565/10/4 568/10/4
f 568/10/4 565/10/4 569/10/4
f 566/12/4 567/12/4 573/12/4
f 573/12/4 567/12/4 574/12/4
f 569/12/4 570/12/4 575/12/4
f 575/12/4 570/12/4 576/12/4
f 571/13/4 572/13/4 577/13/4
f 577/13/4 572/13/4 578/13/4
f 579/10/4 580/10/4 581/10/4
f 581/10/4 580/10/4 582/10/4
f 583/9/4 584/9/4 585/9/4
f 585/9/4 584/9/4 586/9/4
f 587/5/4 588/5/4 591/5/4
f 591/5/4 588/5/4 592/5/4
f 589/9/4 590/9/4 593/9/4
f 593/9/4 590/9/4 594/9/4
f 595/9/4 596/9/4 604/9/4
f 596/4/4 597/4/4 604/4/4
f 597/7/4 598/7/4 605/7/4
f 604/4/4 597/4/4 605/4/4
f 605/7/4 598/7/4 606/7/4
f 598/6/4 599/6/4 607/6/4
f 606/7/4 598/7/4 607/7/4
f 602/11/4 603/11/4 608/11/4
f 608/11/4 603/11/4 609/11/4
f 595/9/4 604/9/4 611/9/4
f 605/5/4 606/5/4 612/5/4
f 611/9/4 604/9/4 612/9/4
f 604/5/4 605/5/4 612/5/4
f 606/6/4 607/6/4 613/6/4
f 612/5/4 606/5/4 613/5/4
f 607/6/4 599/6/4 614/6/4
f 613/6/4 607/6/4 614/6/4
f 599/3/4 600/3/4 615/3/4
f 614/6/4 599/6/4 615/6/4
f 609/9/4 610/9/4 617/9/4
f 614/9/4 615/9/4 618/9/4
f 615/3/4 600/3/4 619/3/4
f 618/9/4 615/9/4 619/9/4
f 600/14/4 601/14/4 620/14/4
f 619/3/4 600/3/4 620/3/4
f 618/8/4 619/8/4 624/8/4
f 619/8/4 620/8/4 624/8/4
f 620/14/4 601/14/4 625/14/4
f 624/8/4 620/8/4 625/8/4
f 616/10/4 617/10/4 626/10/4
f 617/9/4 610/9/4 627/9/4
f 626/10/4 617/10/4 627/10/4
f 623/5/4 624/5/4 628/5/4
f 624/9/4 625/9/4 628/9/4
f 625/14/4 601/14/4 629/14/4
f 628/9/4 625/9/4 629/9/4
f 627/9/4 610/9/4 631/9/4
f 631/9/4 610/9/4 632/9/4
f 621/9/4 622/9/4 633/9/4
f 622/6/4 623/6/4 634/6/4
f 633/9/4 622/9/4 634/9/4
f 623/5/4 628/5/4 635/5/4
f 634/6/4 623/6/4 635/6/4
f 628/5/4 629/5/4 635/5/4
f 629/14/4 601/14/4 636/14/4
f 635/5/4 629/5/4 636/5/4
f 636/14/4 601/14/4 637/14/4
f 630/11/4 631/11/4 638/11/4
f 638/11/4 631/11/4 639/11/4
f 640/11/4 641/11/4 642/11/4
f 642/11/4 641/11/4 643/11/4
f 648/9/5 645/9/5 644/9/5
f 649/9/5 645/9/5 648/9/5
f 650/9/5 647/9/5 646/9/5
f 651/9/5 647/9/5 650/9/5
f 655/3/5 653/3/5 652/3/5
f 656/6/5 654/6/5 653/6/5
f 656/3/5 653/3/5 655/3/5
f 657/6/5 654/6/5 656/6/5
f 658/7/5 656/7/5 655/7/5
f 659/8/5 657/8/5 656/8/5
f 659/7/5 656/7/5 658/7/5
f 660/8/5 657/8/5 659/8/5
f 661/9/5 659/9/5 658/9/5
f 662/8/5 660/8/5 659/8/5
f 662/9/5 659/9/5 661/9/5
f 663/8/5 660/8/5 662/8/5
f 666/11/5 665/11/5 664/11/5
f 667/11/5 665/11/5 666/11/5
f 668/11/5 665/11/5 667/11/5
f 669/11/5 665/11/5 668/11/5
f 672/11/5 671/11/5 670/11/5
f 673/11/5 671/11/5 672/11/5
f 679/12/5 675/12/5 674/12/5
f 680/12/5 675/12/5 679/12/5
f 683/12/5 677/12/5 676/12/5
f 684/12/5 677/12/5 683/12/5
f 686/12/5 681/12/5 680/12/5
f 686/12/5 679/12/5 678/12/5
f 686/12/5 680/12/5 679/12/5
f 687/12/5 681/12/5 686/12/5
f 688/12/5 681/12/5 687/12/5
f 689/12/5 681/12/5 688/12/5
f 690/12/5 685/12/5 684/12/5
f 690/12/5 684/12/5 683/12/5
f 690/12/5 683/12/5 682/12/5
f 691/12/5 685/12/5 690/12/5
f 692/12/5 685/12/5 691/12/5
f 693/12/5 685/12/5 692/12/5
f 694/12/5 688/12/5 687/12/5
f 695/12/5 688/12/5 694/12/5
f 696/12/5 692/12/5 691/12/5
f 697/12/5 692/12/5 696/12/5
f 703/10/5 699/10/5 698/10/5
f 704/10/5 699/10/5 703/10/5
f 705/10/5 701/10/5 700/10/5
f 706/10/5 701/10/5 705/10/5
f 708/10/5 703/10/5 702/10/5
f 711/10/5 707/10/5 706/10/5
f 712/10/5 709/10/5 708/10/5
f 712/10/5 708/10/5 702/10/5
f 713/10/5 709/10/5 712/10/5
f 714/10/5 709/10/5 713/10/5
f 717/10/5 711/10/5 710/10/5
f 718/10/5 707/10/5 711/10/5
f 718/10/5 711/10/5 717/10/5
f 719/10/5 707/10/5 718/10/5
f 720/9/5 715/9/5 714/9/5
f 720/9/5 714/9/5 713/9/5
f 723/9/5 717/9/5 716/9/5
f 723/9/5 718/9/5 717/9/5
f 724/9/5 721/9/5 720/9/5
f 724/9/5 720/9/5 713/9/5
f 725/9/5 721/9/5 724/9/5
f 726/9/5 723/9/5 722/9/5
f 727/9/5 718/9/5 723/9/5
f 727/9/5 723/9/5 726/9/5
f 733/10/5 729/10/5 728/10/5
f 734/10/5 731/10/5 730/10/5
f 736/10/5 733/10/5 732/10/5
f 737/10/5 729/10/5 733/10/5
f 737/10/5 733/10/5 736/10/5
f 738/10/5 735/10/5 734/10/5
f 738/10/5 734/10/5 730/10/5
f 739/10/5 735/10/5 738/10/5
f 742/9/5 741/9/5 740/9/5
f 743/9/5 741/9/5 742/9/5
f 744/9/5 742/9/5 740/9/5
f 745/9/5 742/9/5 744/9/5
f 746/9/5 741/9/5 743/9/5
f 747/9/5 741/9/5 746/9/5
f 753/13/5 749/13/5 748/13/5
f 754/13/5 749/13/5 753/13/5
f 757/13/5 751/13/5 750/13/5
f 758/13/5 751/13/5 757/13/5
f 760/13/5 753/13/5 752/13/5
f 761/13/5 753/13/5 760/13/5
f 762/13/5 755/13/5 754/13/5
f 763/13/5 755/13/5 762/13/5
f 764/13/5 757/13/5 756/13/5
f 765/13/5 757/13/5 764/13/5
f 766/13/5 759/13/5 758/13/5
f 767/13/5 759/13/5 766/13/5
f 768/13/5 762/13/5 761/13/5
f 769/13/5 762/13/5 768/13/5
f 770/13/5 766/13/5 765/13/5
f 771/13/5 766/13/5 770/13/5
f 774/5/5 773/5/5 772/5/5
f 775/5/5 773/5/5 774/5/5
f 776/9/6 777/9/6 780/9/6
f 780/9/6 777/9/6 781/9/6
f 778/9/6 779/9/6 782/9/6
f 782/9/6 779/9/6 783/9/6
f 784/11/6 785/11/6 786/11/6
f 786/11/6 785/11/6 787/11/6
f 788/10/6 789/10/6 793/10/6
f 793/10/6 789/10/6 794/10/6
f 790/10/6 791/10/6 799/10/6
f 799/10/6 791/10/6 800/10/6
f 792/10/6 793/10/6 802/10/6
f 795/10/6 796/10/6 805/10/6
f 797/10/6 798/10/6 806/10/6
f 800/10/6 801/10/6 809/10/6
f 802/10/6 803/10/6 810/10/6
f 792/10/6 802/10/6 810/10/6
f 810/10/6 803/10/6 811/10/6
f 811/10/6 803/10/6 812/10/6
f 804/10/6 805/10/6 813/10/6
f 805/10/6 796/10/6 814/10/6
f 813/10/6 805/10/6 814/10/6
f 806/10/6 807/10/6 819/10/6
f 797/10/6 806/10/6 819/10/6
f 819/10/6 807/10/6 820/10/6
f 808/10/6 809/10/6 821/10/6
f 809/10/6 801/10/6 822/10/6
f 821/10/6 809/10/6 822/10/6
f 822/10/6 801/10/6 823/10/6
f 811/9/6 812/9/6 824/9/6
f 812/9/6 813/9/6 824/9/6
f 815/11/6 816/11/6 825/11/6
f 825/11/6 816/11/6 826/11/6
f 817/11/6 818/11/6 827/11/6
f 827/11/6 818/11/6 828/11/6
f 821/9/6 822/9/6 829/9/6
f 820/9/6 821/9/6 829/9/6
f 826/9/6 827/9/6 830/9/6
f 830/9/6 827/9/6 831/9/6
f 811/9/6 824/9/6 832/9/6
f 824/9/6 825/9/6 832/9/6
f 832/9/6 825/9/6 833/9/6
f 828/9/6 829/9/6 834/9/6
f 829/9/6 822/9/6 835/9/6
f 834/9/6 829/9/6 835/9/6
f 826/9/6 830/9/6 837/9/6
f 837/9/6 830/9/6 838/9/6
f 831/9/6 827/9/6 839/9/6
f 839/9/6 827/9/6 840/9/6
f 837/11/6 838/11/6 842/11/6
f 840/11/6 841/11/6 842/11/6
f 839/11/6 840/11/6 842/11/6
f 838/11/6 839/11/6 842/11/6
f 836/11/6 837/11/6 842/11/6
f 842/11/6 841/11/6 843/11/6
f 844/12/6 845/12/6 849/12/6
f 849/12/6 845/12/6 850/12/6
f 846/12/6 847/12/6 853/12/6
f 853/12/6 847/12/6 854/12/6
f 848/12/6 849/12/6 856/12/6
f 856/12/6 849/12/6 857/12/6
f 850/12/6 851/12/6 858/12/6
f 858/12/6 851/12/6 859/12/6
f 852/12/6 853/12/6 860/12/6
f 860/12/6 853/12/6 861/12/6
f 854/12/6 855/12/6 862/12/6
f 862/12/6 855/12/6 863/12/6
f 857/12/6 858/12/6 864/12/6
f 864/12/6 858/12/6 865/12/6
f 861/12/6 862/12/6 866/12/6
f 866/12/6 862/12/6 867/12/6
f 868/11/6 869/11/6 872/11/6
f 872/11/6 869/11/6 873/11/6
f 870/11/6 871/11/6 874/11/6
f 874/11/6 871/11/6 875/11/6
f 876/13/6 877/13/6 881/13/6
f 881/13/6 877/13/6 882/13/6
f 878/13/6 879/13/6 885/13/6
f 885/13/6 879/13/6 886/13/6
f 880/13/6 881/13/6 888/13/6
f 888/13/6 881/13/6 889/13/6
f 882/13/6 883/13/6 890/13/6
f 890/13/6 883/13/6 891/13/6
f 884/13/6 885/13/6 892/13/6
f 892/13/6 885/13/6 893/13/6
f 886/13/6 887/13/6 894/13/6
f 894/13/6 887/13/6 895/13/6
f 889/13/6 890/13/6 896/13/6
f 896/13/6 890/13/6 897/13/6
f 893/13/6 894/13/6 898/13/6
f 898/13/6 894/13/6 899/13/6
f 900/13/6 901/13/6 904/13/6
f 904/13/6 901/13/6 905/13/6
f 902/13/6 903/13/6 906/13/6
f 906/13/6 903/13/6 907/13/6
f 908/9/6 909/9/6 910/9/6
f 910/9/6 909/9/6 911/9/6
f 912/5/6 913/5/6 914/5/6
f 914/5/6 913/5/6 915/5/6
