# MagicaVoxel @ Ephtracy

# group
o 

# material
mtllib Joints.mtl
usemtl palette

# normals
vn -1 0 0
vn 1 0 0
vn 0 0 1
vn 0 0 -1
vn 0 -1 0
vn 0 1 0

# texcoords
vt 0.0175781 0.5
vt 0.986328 0.5
vt 0.994141 0.5

# verts
v -1.8 0.4 3.4
v -1.8 0.4 3.2
v -1.8 0.4 -3.2
v -1.8 0.4 -3.4
v -1.8 0.5 3.4
v -1.8 0.5 3.2
v -1.8 0.5 -3.2
v -1.8 0.5 -3.4
v -1.8 0.6 3.4
v -1.8 0.6 3.2
v -1.8 0.6 -3.2
v -1.8 0.6 -3.4
v -1.7 0.2 3.4
v -1.7 0.2 3.2
v -1.7 0.2 -3.2
v -1.7 0.2 -3.4
v -1.7 0.3 3.4
v -1.7 0.3 3.2
v -1.7 0.3 -3.2
v -1.7 0.3 -3.4
v -1.7 0.4 3.4
v -1.7 0.4 3.2
v -1.7 0.4 -3.2
v -1.7 0.4 -3.4
v -1.7 0.6 3.4
v -1.7 0.6 3.2
v -1.7 0.6 -3.2
v -1.7 0.6 -3.4
v -1.7 0.7 3.4
v -1.7 0.7 3.2
v -1.7 0.7 -3.2
v -1.7 0.7 -3.4
v -1.7 0.8 3.4
v -1.7 0.8 3.2
v -1.7 0.8 -3.2
v -1.7 0.8 -3.4
v -1.6 0 3.4
v -1.6 0 3.2
v -1.6 0 -3.2
v -1.6 0 -3.4
v -1.6 0.1 3.4
v -1.6 0.1 3.2
v -1.6 0.1 -3.2
v -1.6 0.1 -3.4
v -1.6 0.2 3.5
v -1.6 0.2 3.4
v -1.6 0.2 3.2
v -1.6 0.2 3.1
v -1.6 0.2 -3.1
v -1.6 0.2 -3.2
v -1.6 0.2 -3.4
v -1.6 0.2 -3.5
v -1.6 0.3 3.5
v -1.6 0.3 3.4
v -1.6 0.3 3.2
v -1.6 0.3 3.1
v -1.6 0.3 -3.1
v -1.6 0.3 -3.2
v -1.6 0.3 -3.4
v -1.6 0.3 -3.5
v -1.6 0.4 3.5
v -1.6 0.4 3.4
v -1.6 0.4 3.2
v -1.6 0.4 3.1
v -1.6 0.4 -3.1
v -1.6 0.4 -3.2
v -1.6 0.4 -3.4
v -1.6 0.4 -3.5
v -1.6 0.5 3.5
v -1.6 0.5 3.4
v -1.6 0.5 3.2
v -1.6 0.5 3.1
v -1.6 0.5 -3.1
v -1.6 0.5 -3.2
v -1.6 0.5 -3.4
v -1.6 0.5 -3.5
v -1.6 0.6 3.5
v -1.6 0.6 3.4
v -1.6 0.6 3.2
v -1.6 0.6 3.1
v -1.6 0.6 -3.1
v -1.6 0.6 -3.2
v -1.6 0.6 -3.4
v -1.6 0.6 -3.5
v -1.6 0.7 3.5
v -1.6 0.7 3.4
v -1.6 0.7 3.2
v -1.6 0.7 3.1
v -1.6 0.7 -3.1
v -1.6 0.7 -3.2
v -1.6 0.7 -3.4
v -1.6 0.7 -3.5
v -1.6 0.8 3.5
v -1.6 0.8 3.4
v -1.6 0.8 3.2
v -1.6 0.8 3.1
v -1.6 0.8 -3.1
v -1.6 0.8 -3.2
v -1.6 0.8 -3.4
v -1.6 0.8 -3.5
v -1.6 0.9 3.4
v -1.6 0.9 3.2
v -1.6 0.9 -3.2
v -1.6 0.9 -3.4
v -1.6 1 3.4
v -1.6 1 3.2
v -1.6 1 -3.2
v -1.6 1 -3.4
v -1.5 0.3 3.6
v -1.5 0.3 3.5
v -1.5 0.3 3.1
v -1.5 0.3 3
v -1.5 0.3 -3
v -1.5 0.3 -3.1
v -1.5 0.3 -3.5
v -1.5 0.3 -3.6
v -1.5 0.4 3.6
v -1.5 0.4 3.5
v -1.5 0.4 3.1
v -1.5 0.4 3
v -1.5 0.4 -3
v -1.5 0.4 -3.1
v -1.5 0.4 -3.5
v -1.5 0.4 -3.6
v -1.5 0.5 3.6
v -1.5 0.5 3.5
v -1.5 0.5 3.1
v -1.5 0.5 3
v -1.5 0.5 -3
v -1.5 0.5 -3.1
v -1.5 0.5 -3.5
v -1.5 0.5 -3.6
v -1.5 0.6 3.6
v -1.5 0.6 3.5
v -1.5 0.6 3.1
v -1.5 0.6 3
v -1.5 0.6 -3
v -1.5 0.6 -3.1
v -1.5 0.6 -3.5
v -1.5 0.6 -3.6
v -1.5 0.7 3.6
v -1.5 0.7 3.5
v -1.5 0.7 3.1
v -1.5 0.7 3
v -1.5 0.7 -3
v -1.5 0.7 -3.1
v -1.5 0.7 -3.5
v -1.5 0.7 -3.6
v 1 0.4 3.4
v 1 0.4 3.2
v 1 0.4 -3.2
v 1 0.4 -3.4
v 1 0.5 3.4
v 1 0.5 3.2
v 1 0.5 -3.2
v 1 0.5 -3.4
v 1 0.6 3.4
v 1 0.6 3.2
v 1 0.6 -3.2
v 1 0.6 -3.4
v 1.1 0.2 3.4
v 1.1 0.2 3.2
v 1.1 0.2 -3.2
v 1.1 0.2 -3.4
v 1.1 0.3 3.4
v 1.1 0.3 3.2
v 1.1 0.3 -3.2
v 1.1 0.3 -3.4
v 1.1 0.4 3.4
v 1.1 0.4 3.2
v 1.1 0.4 -3.2
v 1.1 0.4 -3.4
v 1.1 0.6 3.4
v 1.1 0.6 3.2
v 1.1 0.6 -3.2
v 1.1 0.6 -3.4
v 1.1 0.7 3.4
v 1.1 0.7 3.2
v 1.1 0.7 -3.2
v 1.1 0.7 -3.4
v 1.1 0.8 3.4
v 1.1 0.8 3.2
v 1.1 0.8 -3.2
v 1.1 0.8 -3.4
v 1.2 0 3.4
v 1.2 0 3.2
v 1.2 0 -3.2
v 1.2 0 -3.4
v 1.2 0.1 3.4
v 1.2 0.1 3.2
v 1.2 0.1 -3.2
v 1.2 0.1 -3.4
v 1.2 0.2 3.5
v 1.2 0.2 3.4
v 1.2 0.2 3.2
v 1.2 0.2 3.1
v 1.2 0.2 -3.1
v 1.2 0.2 -3.2
v 1.2 0.2 -3.4
v 1.2 0.2 -3.5
v 1.2 0.3 3.5
v 1.2 0.3 3.4
v 1.2 0.3 3.2
v 1.2 0.3 3.1
v 1.2 0.3 -3.1
v 1.2 0.3 -3.2
v 1.2 0.3 -3.4
v 1.2 0.3 -3.5
v 1.2 0.4 3.5
v 1.2 0.4 3.4
v 1.2 0.4 3.2
v 1.2 0.4 3.1
v 1.2 0.4 -3.1
v 1.2 0.4 -3.2
v 1.2 0.4 -3.4
v 1.2 0.4 -3.5
v 1.2 0.5 3.5
v 1.2 0.5 3.4
v 1.2 0.5 3.2
v 1.2 0.5 3.1
v 1.2 0.5 -3.1
v 1.2 0.5 -3.2
v 1.2 0.5 -3.4
v 1.2 0.5 -3.5
v 1.2 0.6 3.5
v 1.2 0.6 3.4
v 1.2 0.6 3.2
v 1.2 0.6 3.1
v 1.2 0.6 -3.1
v 1.2 0.6 -3.2
v 1.2 0.6 -3.4
v 1.2 0.6 -3.5
v 1.2 0.7 3.5
v 1.2 0.7 3.4
v 1.2 0.7 3.2
v 1.2 0.7 3.1
v 1.2 0.7 -3.1
v 1.2 0.7 -3.2
v 1.2 0.7 -3.4
v 1.2 0.7 -3.5
v 1.2 0.8 3.5
v 1.2 0.8 3.4
v 1.2 0.8 3.2
v 1.2 0.8 3.1
v 1.2 0.8 -3.1
v 1.2 0.8 -3.2
v 1.2 0.8 -3.4
v 1.2 0.8 -3.5
v 1.2 0.9 3.4
v 1.2 0.9 3.2
v 1.2 0.9 -3.2
v 1.2 0.9 -3.4
v 1.2 1 3.4
v 1.2 1 3.2
v 1.2 1 -3.2
v 1.2 1 -3.4
v 1.3 0.3 3.6
v 1.3 0.3 3.5
v 1.3 0.3 3.1
v 1.3 0.3 3
v 1.3 0.3 -3
v 1.3 0.3 -3.1
v 1.3 0.3 -3.5
v 1.3 0.3 -3.6
v 1.3 0.4 3.6
v 1.3 0.4 3.5
v 1.3 0.4 3.1
v 1.3 0.4 3
v 1.3 0.4 -3
v 1.3 0.4 -3.1
v 1.3 0.4 -3.5
v 1.3 0.4 -3.6
v 1.3 0.5 3.6
v 1.3 0.5 3.5
v 1.3 0.5 3.1
v 1.3 0.5 3
v 1.3 0.5 -3
v 1.3 0.5 -3.1
v 1.3 0.5 -3.5
v 1.3 0.5 -3.6
v 1.3 0.6 3.6
v 1.3 0.6 3.5
v 1.3 0.6 3.1
v 1.3 0.6 3
v 1.3 0.6 -3
v 1.3 0.6 -3.1
v 1.3 0.6 -3.5
v 1.3 0.6 -3.6
v 1.3 0.7 3.6
v 1.3 0.7 3.5
v 1.3 0.7 3.1
v 1.3 0.7 3
v 1.3 0.7 -3
v 1.3 0.7 -3.1
v 1.3 0.7 -3.5
v 1.3 0.7 -3.6
v -1.3 0.3 3.6
v -1.3 0.3 3.5
v -1.3 0.3 3.1
v -1.3 0.3 3
v -1.3 0.3 -3
v -1.3 0.3 -3.1
v -1.3 0.3 -3.5
v -1.3 0.3 -3.6
v -1.3 0.4 3.6
v -1.3 0.4 3.5
v -1.3 0.4 3.1
v -1.3 0.4 3
v -1.3 0.4 -3
v -1.3 0.4 -3.1
v -1.3 0.4 -3.5
v -1.3 0.4 -3.6
v -1.3 0.5 3.6
v -1.3 0.5 3.5
v -1.3 0.5 3.1
v -1.3 0.5 3
v -1.3 0.5 -3
v -1.3 0.5 -3.1
v -1.3 0.5 -3.5
v -1.3 0.5 -3.6
v -1.3 0.6 3.6
v -1.3 0.6 3.5
v -1.3 0.6 3.1
v -1.3 0.6 3
v -1.3 0.6 -3
v -1.3 0.6 -3.1
v -1.3 0.6 -3.5
v -1.3 0.6 -3.6
v -1.3 0.7 3.6
v -1.3 0.7 3.5
v -1.3 0.7 3.1
v -1.3 0.7 3
v -1.3 0.7 -3
v -1.3 0.7 -3.1
v -1.3 0.7 -3.5
v -1.3 0.7 -3.6
v -1.2 0 3.4
v -1.2 0 3.2
v -1.2 0 -3.2
v -1.2 0 -3.4
v -1.2 0.1 3.4
v -1.2 0.1 3.2
v -1.2 0.1 -3.2
v -1.2 0.1 -3.4
v -1.2 0.2 3.5
v -1.2 0.2 3.4
v -1.2 0.2 3.2
v -1.2 0.2 3.1
v -1.2 0.2 -3.1
v -1.2 0.2 -3.2
v -1.2 0.2 -3.4
v -1.2 0.2 -3.5
v -1.2 0.3 3.5
v -1.2 0.3 3.4
v -1.2 0.3 3.2
v -1.2 0.3 3.1
v -1.2 0.3 -3.1
v -1.2 0.3 -3.2
v -1.2 0.3 -3.4
v -1.2 0.3 -3.5
v -1.2 0.4 3.5
v -1.2 0.4 3.4
v -1.2 0.4 3.2
v -1.2 0.4 3.1
v -1.2 0.4 -3.1
v -1.2 0.4 -3.2
v -1.2 0.4 -3.4
v -1.2 0.4 -3.5
v -1.2 0.5 3.5
v -1.2 0.5 3.4
v -1.2 0.5 3.2
v -1.2 0.5 3.1
v -1.2 0.5 -3.1
v -1.2 0.5 -3.2
v -1.2 0.5 -3.4
v -1.2 0.5 -3.5
v -1.2 0.6 3.5
v -1.2 0.6 3.4
v -1.2 0.6 3.2
v -1.2 0.6 3.1
v -1.2 0.6 -3.1
v -1.2 0.6 -3.2
v -1.2 0.6 -3.4
v -1.2 0.6 -3.5
v -1.2 0.7 3.5
v -1.2 0.7 3.4
v -1.2 0.7 3.2
v -1.2 0.7 3.1
v -1.2 0.7 -3.1
v -1.2 0.7 -3.2
v -1.2 0.7 -3.4
v -1.2 0.7 -3.5
v -1.2 0.8 3.5
v -1.2 0.8 3.4
v -1.2 0.8 3.2
v -1.2 0.8 3.1
v -1.2 0.8 -3.1
v -1.2 0.8 -3.2
v -1.2 0.8 -3.4
v -1.2 0.8 -3.5
v -1.2 0.9 3.4
v -1.2 0.9 3.2
v -1.2 0.9 -3.2
v -1.2 0.9 -3.4
v -1.2 1 3.4
v -1.2 1 3.2
v -1.2 1 -3.2
v -1.2 1 -3.4
v -1.1 0.2 3.4
v -1.1 0.2 3.2
v -1.1 0.2 -3.2
v -1.1 0.2 -3.4
v -1.1 0.3 3.4
v -1.1 0.3 3.2
v -1.1 0.3 -3.2
v -1.1 0.3 -3.4
v -1.1 0.4 3.4
v -1.1 0.4 3.2
v -1.1 0.4 -3.2
v -1.1 0.4 -3.4
v -1.1 0.6 3.4
v -1.1 0.6 3.2
v -1.1 0.6 -3.2
v -1.1 0.6 -3.4
v -1.1 0.7 3.4
v -1.1 0.7 3.2
v -1.1 0.7 -3.2
v -1.1 0.7 -3.4
v -1.1 0.8 3.4
v -1.1 0.8 3.2
v -1.1 0.8 -3.2
v -1.1 0.8 -3.4
v -1 0.4 3.4
v -1 0.4 3.2
v -1 0.4 -3.2
v -1 0.4 -3.4
v -1 0.5 3.4
v -1 0.5 3.2
v -1 0.5 -3.2
v -1 0.5 -3.4
v -1 0.6 3.4
v -1 0.6 3.2
v -1 0.6 -3.2
v -1 0.6 -3.4
v 1.5 0.3 3.6
v 1.5 0.3 3.5
v 1.5 0.3 3.1
v 1.5 0.3 3
v 1.5 0.3 -3
v 1.5 0.3 -3.1
v 1.5 0.3 -3.5
v 1.5 0.3 -3.6
v 1.5 0.4 3.6
v 1.5 0.4 3.5
v 1.5 0.4 3.1
v 1.5 0.4 3
v 1.5 0.4 -3
v 1.5 0.4 -3.1
v 1.5 0.4 -3.5
v 1.5 0.4 -3.6
v 1.5 0.5 3.6
v 1.5 0.5 3.5
v 1.5 0.5 3.1
v 1.5 0.5 3
v 1.5 0.5 -3
v 1.5 0.5 -3.1
v 1.5 0.5 -3.5
v 1.5 0.5 -3.6
v 1.5 0.6 3.6
v 1.5 0.6 3.5
v 1.5 0.6 3.1
v 1.5 0.6 3
v 1.5 0.6 -3
v 1.5 0.6 -3.1
v 1.5 0.6 -3.5
v 1.5 0.6 -3.6
v 1.5 0.7 3.6
v 1.5 0.7 3.5
v 1.5 0.7 3.1
v 1.5 0.7 3
v 1.5 0.7 -3
v 1.5 0.7 -3.1
v 1.5 0.7 -3.5
v 1.5 0.7 -3.6
v 1.6 0 3.4
v 1.6 0 3.2
v 1.6 0 -3.2
v 1.6 0 -3.4
v 1.6 0.1 3.4
v 1.6 0.1 3.2
v 1.6 0.1 -3.2
v 1.6 0.1 -3.4
v 1.6 0.2 3.5
v 1.6 0.2 3.4
v 1.6 0.2 3.2
v 1.6 0.2 3.1
v 1.6 0.2 -3.1
v 1.6 0.2 -3.2
v 1.6 0.2 -3.4
v 1.6 0.2 -3.5
v 1.6 0.3 3.5
v 1.6 0.3 3.4
v 1.6 0.3 3.2
v 1.6 0.3 3.1
v 1.6 0.3 -3.1
v 1.6 0.3 -3.2
v 1.6 0.3 -3.4
v 1.6 0.3 -3.5
v 1.6 0.4 3.5
v 1.6 0.4 3.4
v 1.6 0.4 3.2
v 1.6 0.4 3.1
v 1.6 0.4 -3.1
v 1.6 0.4 -3.2
v 1.6 0.4 -3.4
v 1.6 0.4 -3.5
v 1.6 0.5 3.5
v 1.6 0.5 3.4
v 1.6 0.5 3.2
v 1.6 0.5 3.1
v 1.6 0.5 -3.1
v 1.6 0.5 -3.2
v 1.6 0.5 -3.4
v 1.6 0.5 -3.5
v 1.6 0.6 3.5
v 1.6 0.6 3.4
v 1.6 0.6 3.2
v 1.6 0.6 3.1
v 1.6 0.6 -3.1
v 1.6 0.6 -3.2
v 1.6 0.6 -3.4
v 1.6 0.6 -3.5
v 1.6 0.7 3.5
v 1.6 0.7 3.4
v 1.6 0.7 3.2
v 1.6 0.7 3.1
v 1.6 0.7 -3.1
v 1.6 0.7 -3.2
v 1.6 0.7 -3.4
v 1.6 0.7 -3.5
v 1.6 0.8 3.5
v 1.6 0.8 3.4
v 1.6 0.8 3.2
v 1.6 0.8 3.1
v 1.6 0.8 -3.1
v 1.6 0.8 -3.2
v 1.6 0.8 -3.4
v 1.6 0.8 -3.5
v 1.6 0.9 3.4
v 1.6 0.9 3.2
v 1.6 0.9 -3.2
v 1.6 0.9 -3.4
v 1.6 1 3.4
v 1.6 1 3.2
v 1.6 1 -3.2
v 1.6 1 -3.4
v 1.7 0.2 3.4
v 1.7 0.2 3.2
v 1.7 0.2 -3.2
v 1.7 0.2 -3.4
v 1.7 0.3 3.4
v 1.7 0.3 3.2
v 1.7 0.3 -3.2
v 1.7 0.3 -3.4
v 1.7 0.4 3.4
v 1.7 0.4 3.2
v 1.7 0.4 -3.2
v 1.7 0.4 -3.4
v 1.7 0.6 3.4
v 1.7 0.6 3.2
v 1.7 0.6 -3.2
v 1.7 0.6 -3.4
v 1.7 0.7 3.4
v 1.7 0.7 3.2
v 1.7 0.7 -3.2
v 1.7 0.7 -3.4
v 1.7 0.8 3.4
v 1.7 0.8 3.2
v 1.7 0.8 -3.2
v 1.7 0.8 -3.4
v 1.8 0.4 3.4
v 1.8 0.4 3.2
v 1.8 0.4 -3.2
v 1.8 0.4 -3.4
v 1.8 0.5 3.4
v 1.8 0.5 3.2
v 1.8 0.5 -3.2
v 1.8 0.5 -3.4
v 1.8 0.6 3.4
v 1.8 0.6 3.2
v 1.8 0.6 -3.2
v 1.8 0.6 -3.4
v -1.5 0.3 3.6
v -1.5 0.4 3.6
v -1.5 0.5 3.6
v -1.5 0.6 3.6
v -1.5 0.7 3.6
v -1.4 0.3 3.6
v -1.4 0.4 3.6
v -1.4 0.5 3.6
v -1.4 0.6 3.6
v -1.4 0.7 3.6
v -1.3 0.3 3.6
v -1.3 0.4 3.6
v -1.3 0.5 3.6
v -1.3 0.6 3.6
v -1.3 0.7 3.6
v 1.3 0.3 3.6
v 1.3 0.4 3.6
v 1.3 0.5 3.6
v 1.3 0.6 3.6
v 1.3 0.7 3.6
v 1.4 0.3 3.6
v 1.4 0.4 3.6
v 1.4 0.5 3.6
v 1.4 0.6 3.6
v 1.4 0.7 3.6
v 1.5 0.3 3.6
v 1.5 0.4 3.6
v 1.5 0.5 3.6
v 1.5 0.6 3.6
v 1.5 0.7 3.6
v -1.6 0.2 3.5
v -1.6 0.3 3.5
v -1.6 0.4 3.5
v -1.6 0.5 3.5
v -1.6 0.6 3.5
v -1.6 0.7 3.5
v -1.6 0.8 3.5
v -1.5 0.2 3.5
v -1.5 0.3 3.5
v -1.5 0.4 3.5
v -1.5 0.5 3.5
v -1.5 0.6 3.5
v -1.5 0.7 3.5
v -1.5 0.8 3.5
v -1.4 0.2 3.5
v -1.4 0.3 3.5
v -1.4 0.7 3.5
v -1.4 0.8 3.5
v -1.3 0.2 3.5
v -1.3 0.3 3.5
v -1.3 0.4 3.5
v -1.3 0.5 3.5
v -1.3 0.6 3.5
v -1.3 0.7 3.5
v -1.3 0.8 3.5
v -1.2 0.2 3.5
v -1.2 0.3 3.5
v -1.2 0.4 3.5
v -1.2 0.5 3.5
v -1.2 0.6 3.5
v -1.2 0.7 3.5
v -1.2 0.8 3.5
v 1.2 0.2 3.5
v 1.2 0.3 3.5
v 1.2 0.4 3.5
v 1.2 0.5 3.5
v 1.2 0.6 3.5
v 1.2 0.7 3.5
v 1.2 0.8 3.5
v 1.3 0.2 3.5
v 1.3 0.3 3.5
v 1.3 0.4 3.5
v 1.3 0.5 3.5
v 1.3 0.6 3.5
v 1.3 0.7 3.5
v 1.3 0.8 3.5
v 1.4 0.2 3.5
v 1.4 0.3 3.5
v 1.4 0.7 3.5
v 1.4 0.8 3.5
v 1.5 0.2 3.5
v 1.5 0.3 3.5
v 1.5 0.4 3.5
v 1.5 0.5 3.5
v 1.5 0.6 3.5
v 1.5 0.7 3.5
v 1.5 0.8 3.5
v 1.6 0.2 3.5
v 1.6 0.3 3.5
v 1.6 0.4 3.5
v 1.6 0.5 3.5
v 1.6 0.6 3.5
v 1.6 0.7 3.5
v 1.6 0.8 3.5
v -1.8 0.4 3.4
v -1.8 0.5 3.4
v -1.8 0.6 3.4
v -1.7 0.2 3.4
v -1.7 0.3 3.4
v -1.7 0.4 3.4
v -1.7 0.5 3.4
v -1.7 0.6 3.4
v -1.7 0.7 3.4
v -1.7 0.8 3.4
v -1.6 0 3.4
v -1.6 0.1 3.4
v -1.6 0.2 3.4
v -1.6 0.3 3.4
v -1.6 0.4 3.4
v -1.6 0.5 3.4
v -1.6 0.6 3.4
v -1.6 0.7 3.4
v -1.6 0.8 3.4
v -1.6 0.9 3.4
v -1.6 1 3.4
v -1.5 0 3.4
v -1.5 0.1 3.4
v -1.5 0.2 3.4
v -1.5 0.8 3.4
v -1.5 0.9 3.4
v -1.5 1 3.4
v -1.4 0 3.4
v -1.4 0.1 3.4
v -1.4 0.2 3.4
v -1.4 0.8 3.4
v -1.4 0.9 3.4
v -1.4 1 3.4
v -1.3 0 3.4
v -1.3 0.1 3.4
v -1.3 0.2 3.4
v -1.3 0.8 3.4
v -1.3 0.9 3.4
v -1.3 1 3.4
v -1.2 0 3.4
v -1.2 0.1 3.4
v -1.2 0.2 3.4
v -1.2 0.3 3.4
v -1.2 0.4 3.4
v -1.2 0.5 3.4
v -1.2 0.6 3.4
v -1.2 0.7 3.4
v -1.2 0.8 3.4
v -1.2 0.9 3.4
v -1.2 1 3.4
v -1.1 0.2 3.4
v -1.1 0.3 3.4
v -1.1 0.4 3.4
v -1.1 0.5 3.4
v -1.1 0.6 3.4
v -1.1 0.7 3.4
v -1.1 0.8 3.4
v -1 0.4 3.4
v -1 0.5 3.4
v -1 0.6 3.4
v 1 0.4 3.4
v 1 0.5 3.4
v 1 0.6 3.4
v 1.1 0.2 3.4
v 1.1 0.3 3.4
v 1.1 0.4 3.4
v 1.1 0.5 3.4
v 1.1 0.6 3.4
v 1.1 0.7 3.4
v 1.1 0.8 3.4
v 1.2 0 3.4
v 1.2 0.1 3.4
v 1.2 0.2 3.4
v 1.2 0.3 3.4
v 1.2 0.4 3.4
v 1.2 0.5 3.4
v 1.2 0.6 3.4
v 1.2 0.7 3.4
v 1.2 0.8 3.4
v 1.2 0.9 3.4
v 1.2 1 3.4
v 1.3 0 3.4
v 1.3 0.1 3.4
v 1.3 0.2 3.4
v 1.3 0.8 3.4
v 1.3 0.9 3.4
v 1.3 1 3.4
v 1.4 0 3.4
v 1.4 0.1 3.4
v 1.4 0.2 3.4
v 1.4 0.8 3.4
v 1.4 0.9 3.4
v 1.4 1 3.4
v 1.5 0 3.4
v 1.5 0.1 3.4
v 1.5 0.2 3.4
v 1.5 0.8 3.4
v 1.5 0.9 3.4
v 1.5 1 3.4
v 1.6 0 3.4
v 1.6 0.1 3.4
v 1.6 0.2 3.4
v 1.6 0.3 3.4
v 1.6 0.4 3.4
v 1.6 0.5 3.4
v 1.6 0.6 3.4
v 1.6 0.7 3.4
v 1.6 0.8 3.4
v 1.6 0.9 3.4
v 1.6 1 3.4
v 1.7 0.2 3.4
v 1.7 0.3 3.4
v 1.7 0.4 3.4
v 1.7 0.5 3.4
v 1.7 0.6 3.4
v 1.7 0.7 3.4
v 1.7 0.8 3.4
v 1.8 0.4 3.4
v 1.8 0.5 3.4
v 1.8 0.6 3.4
v -1.5 0.3 -3
v -1.5 0.4 -3
v -1.5 0.5 -3
v -1.5 0.6 -3
v -1.5 0.7 -3
v -1.4 0.3 -3
v -1.4 0.4 -3
v -1.4 0.5 -3
v -1.4 0.6 -3
v -1.4 0.7 -3
v -1.3 0.3 -3
v -1.3 0.4 -3
v -1.3 0.5 -3
v -1.3 0.6 -3
v -1.3 0.7 -3
v 1.3 0.3 -3
v 1.3 0.4 -3
v 1.3 0.5 -3
v 1.3 0.6 -3
v 1.3 0.7 -3
v 1.4 0.3 -3
v 1.4 0.4 -3
v 1.4 0.5 -3
v 1.4 0.6 -3
v 1.4 0.7 -3
v 1.5 0.3 -3
v 1.5 0.4 -3
v 1.5 0.5 -3
v 1.5 0.6 -3
v 1.5 0.7 -3
v -1.6 0.2 -3.1
v -1.6 0.3 -3.1
v -1.6 0.4 -3.1
v -1.6 0.5 -3.1
v -1.6 0.6 -3.1
v -1.6 0.7 -3.1
v -1.6 0.8 -3.1
v -1.5 0.2 -3.1
v -1.5 0.3 -3.1
v -1.5 0.4 -3.1
v -1.5 0.5 -3.1
v -1.5 0.6 -3.1
v -1.5 0.7 -3.1
v -1.5 0.8 -3.1
v -1.4 0.2 -3.1
v -1.4 0.3 -3.1
v -1.4 0.7 -3.1
v -1.4 0.8 -3.1
v -1.3 0.2 -3.1
v -1.3 0.3 -3.1
v -1.3 0.4 -3.1
v -1.3 0.5 -3.1
v -1.3 0.6 -3.1
v -1.3 0.7 -3.1
v -1.3 0.8 -3.1
v -1.2 0.2 -3.1
v -1.2 0.3 -3.1
v -1.2 0.4 -3.1
v -1.2 0.5 -3.1
v -1.2 0.6 -3.1
v -1.2 0.7 -3.1
v -1.2 0.8 -3.1
v 1.2 0.2 -3.1
v 1.2 0.3 -3.1
v 1.2 0.4 -3.1
v 1.2 0.5 -3.1
v 1.2 0.6 -3.1
v 1.2 0.7 -3.1
v 1.2 0.8 -3.1
v 1.3 0.2 -3.1
v 1.3 0.3 -3.1
v 1.3 0.4 -3.1
v 1.3 0.5 -3.1
v 1.3 0.6 -3.1
v 1.3 0.7 -3.1
v 1.3 0.8 -3.1
v 1.4 0.2 -3.1
v 1.4 0.3 -3.1
v 1.4 0.7 -3.1
v 1.4 0.8 -3.1
v 1.5 0.2 -3.1
v 1.5 0.3 -3.1
v 1.5 0.4 -3.1
v 1.5 0.5 -3.1
v 1.5 0.6 -3.1
v 1.5 0.7 -3.1
v 1.5 0.8 -3.1
v 1.6 0.2 -3.1
v 1.6 0.3 -3.1
v 1.6 0.4 -3.1
v 1.6 0.5 -3.1
v 1.6 0.6 -3.1
v 1.6 0.7 -3.1
v 1.6 0.8 -3.1
v -1.8 0.4 -3.2
v -1.8 0.5 -3.2
v -1.8 0.6 -3.2
v -1.7 0.2 -3.2
v -1.7 0.3 -3.2
v -1.7 0.4 -3.2
v -1.7 0.5 -3.2
v -1.7 0.6 -3.2
v -1.7 0.7 -3.2
v -1.7 0.8 -3.2
v -1.6 0 -3.2
v -1.6 0.1 -3.2
v -1.6 0.2 -3.2
v -1.6 0.3 -3.2
v -1.6 0.4 -3.2
v -1.6 0.5 -3.2
v -1.6 0.6 -3.2
v -1.6 0.7 -3.2
v -1.6 0.8 -3.2
v -1.6 0.9 -3.2
v -1.6 1 -3.2
v -1.5 0 -3.2
v -1.5 0.1 -3.2
v -1.5 0.2 -3.2
v -1.5 0.8 -3.2
v -1.5 0.9 -3.2
v -1.5 1 -3.2
v -1.4 0 -3.2
v -1.4 0.1 -3.2
v -1.4 0.2 -3.2
v -1.4 0.8 -3.2
v -1.4 0.9 -3.2
v -1.4 1 -3.2
v -1.3 0 -3.2
v -1.3 0.1 -3.2
v -1.3 0.2 -3.2
v -1.3 0.8 -3.2
v -1.3 0.9 -3.2
v -1.3 1 -3.2
v -1.2 0 -3.2
v -1.2 0.1 -3.2
v -1.2 0.2 -3.2
v -1.2 0.3 -3.2
v -1.2 0.4 -3.2
v -1.2 0.5 -3.2
v -1.2 0.6 -3.2
v -1.2 0.7 -3.2
v -1.2 0.8 -3.2
v -1.2 0.9 -3.2
v -1.2 1 -3.2
v -1.1 0.2 -3.2
v -1.1 0.3 -3.2
v -1.1 0.4 -3.2
v -1.1 0.5 -3.2
v -1.1 0.6 -3.2
v -1.1 0.7 -3.2
v -1.1 0.8 -3.2
v -1 0.4 -3.2
v -1 0.5 -3.2
v -1 0.6 -3.2
v 1 0.4 -3.2
v 1 0.5 -3.2
v 1 0.6 -3.2
v 1.1 0.2 -3.2
v 1.1 0.3 -3.2
v 1.1 0.4 -3.2
v 1.1 0.5 -3.2
v 1.1 0.6 -3.2
v 1.1 0.7 -3.2
v 1.1 0.8 -3.2
v 1.2 0 -3.2
v 1.2 0.1 -3.2
v 1.2 0.2 -3.2
v 1.2 0.3 -3.2
v 1.2 0.4 -3.2
v 1.2 0.5 -3.2
v 1.2 0.6 -3.2
v 1.2 0.7 -3.2
v 1.2 0.8 -3.2
v 1.2 0.9 -3.2
v 1.2 1 -3.2
v 1.3 0 -3.2
v 1.3 0.1 -3.2
v 1.3 0.2 -3.2
v 1.3 0.8 -3.2
v 1.3 0.9 -3.2
v 1.3 1 -3.2
v 1.4 0 -3.2
v 1.4 0.1 -3.2
v 1.4 0.2 -3.2
v 1.4 0.8 -3.2
v 1.4 0.9 -3.2
v 1.4 1 -3.2
v 1.5 0 -3.2
v 1.5 0.1 -3.2
v 1.5 0.2 -3.2
v 1.5 0.8 -3.2
v 1.5 0.9 -3.2
v 1.5 1 -3.2
v 1.6 0 -3.2
v 1.6 0.1 -3.2
v 1.6 0.2 -3.2
v 1.6 0.3 -3.2
v 1.6 0.4 -3.2
v 1.6 0.5 -3.2
v 1.6 0.6 -3.2
v 1.6 0.7 -3.2
v 1.6 0.8 -3.2
v 1.6 0.9 -3.2
v 1.6 1 -3.2
v 1.7 0.2 -3.2
v 1.7 0.3 -3.2
v 1.7 0.4 -3.2
v 1.7 0.5 -3.2
v 1.7 0.6 -3.2
v 1.7 0.7 -3.2
v 1.7 0.8 -3.2
v 1.8 0.4 -3.2
v 1.8 0.5 -3.2
v 1.8 0.6 -3.2
v -1.8 0.4 3.2
v -1.8 0.5 3.2
v -1.8 0.6 3.2
v -1.7 0.2 3.2
v -1.7 0.3 3.2
v -1.7 0.4 3.2
v -1.7 0.5 3.2
v -1.7 0.6 3.2
v -1.7 0.7 3.2
v -1.7 0.8 3.2
v -1.6 0 3.2
v -1.6 0.1 3.2
v -1.6 0.2 3.2
v -1.6 0.3 3.2
v -1.6 0.4 3.2
v -1.6 0.5 3.2
v -1.6 0.6 3.2
v -1.6 0.7 3.2
v -1.6 0.8 3.2
v -1.6 0.9 3.2
v -1.6 1 3.2
v -1.5 0 3.2
v -1.5 0.1 3.2
v -1.5 0.2 3.2
v -1.5 0.8 3.2
v -1.5 0.9 3.2
v -1.5 1 3.2
v -1.4 0 3.2
v -1.4 0.1 3.2
v -1.4 0.2 3.2
v -1.4 0.8 3.2
v -1.4 0.9 3.2
v -1.4 1 3.2
v -1.3 0 3.2
v -1.3 0.1 3.2
v -1.3 0.2 3.2
v -1.3 0.8 3.2
v -1.3 0.9 3.2
v -1.3 1 3.2
v -1.2 0 3.2
v -1.2 0.1 3.2
v -1.2 0.2 3.2
v -1.2 0.3 3.2
v -1.2 0.4 3.2
v -1.2 0.5 3.2
v -1.2 0.6 3.2
v -1.2 0.7 3.2
v -1.2 0.8 3.2
v -1.2 0.9 3.2
v -1.2 1 3.2
v -1.1 0.2 3.2
v -1.1 0.3 3.2
v -1.1 0.4 3.2
v -1.1 0.5 3.2
v -1.1 0.6 3.2
v -1.1 0.7 3.2
v -1.1 0.8 3.2
v -1 0.4 3.2
v -1 0.5 3.2
v -1 0.6 3.2
v 1 0.4 3.2
v 1 0.5 3.2
v 1 0.6 3.2
v 1.1 0.2 3.2
v 1.1 0.3 3.2
v 1.1 0.4 3.2
v 1.1 0.5 3.2
v 1.1 0.6 3.2
v 1.1 0.7 3.2
v 1.1 0.8 3.2
v 1.2 0 3.2
v 1.2 0.1 3.2
v 1.2 0.2 3.2
v 1.2 0.3 3.2
v 1.2 0.4 3.2
v 1.2 0.5 3.2
v 1.2 0.6 3.2
v 1.2 0.7 3.2
v 1.2 0.8 3.2
v 1.2 0.9 3.2
v 1.2 1 3.2
v 1.3 0 3.2
v 1.3 0.1 3.2
v 1.3 0.2 3.2
v 1.3 0.8 3.2
v 1.3 0.9 3.2
v 1.3 1 3.2
v 1.4 0 3.2
v 1.4 0.1 3.2
v 1.4 0.2 3.2
v 1.4 0.8 3.2
v 1.4 0.9 3.2
v 1.4 1 3.2
v 1.5 0 3.2
v 1.5 0.1 3.2
v 1.5 0.2 3.2
v 1.5 0.8 3.2
v 1.5 0.9 3.2
v 1.5 1 3.2
v 1.6 0 3.2
v 1.6 0.1 3.2
v 1.6 0.2 3.2
v 1.6 0.3 3.2
v 1.6 0.4 3.2
v 1.6 0.5 3.2
v 1.6 0.6 3.2
v 1.6 0.7 3.2
v 1.6 0.8 3.2
v 1.6 0.9 3.2
v 1.6 1 3.2
v 1.7 0.2 3.2
v 1.7 0.3 3.2
v 1.7 0.4 3.2
v 1.7 0.5 3.2
v 1.7 0.6 3.2
v 1.7 0.7 3.2
v 1.7 0.8 3.2
v 1.8 0.4 3.2
v 1.8 0.5 3.2
v 1.8 0.6 3.2
v -1.6 0.2 3.1
v -1.6 0.3 3.1
v -1.6 0.4 3.1
v -1.6 0.5 3.1
v -1.6 0.6 3.1
v -1.6 0.7 3.1
v -1.6 0.8 3.1
v -1.5 0.2 3.1
v -1.5 0.3 3.1
v -1.5 0.4 3.1
v -1.5 0.5 3.1
v -1.5 0.6 3.1
v -1.5 0.7 3.1
v -1.5 0.8 3.1
v -1.4 0.2 3.1
v -1.4 0.3 3.1
v -1.4 0.7 3.1
v -1.4 0.8 3.1
v -1.3 0.2 3.1
v -1.3 0.3 3.1
v -1.3 0.4 3.1
v -1.3 0.5 3.1
v -1.3 0.6 3.1
v -1.3 0.7 3.1
v -1.3 0.8 3.1
v -1.2 0.2 3.1
v -1.2 0.3 3.1
v -1.2 0.4 3.1
v -1.2 0.5 3.1
v -1.2 0.6 3.1
v -1.2 0.7 3.1
v -1.2 0.8 3.1
v 1.2 0.2 3.1
v 1.2 0.3 3.1
v 1.2 0.4 3.1
v 1.2 0.5 3.1
v 1.2 0.6 3.1
v 1.2 0.7 3.1
v 1.2 0.8 3.1
v 1.3 0.2 3.1
v 1.3 0.3 3.1
v 1.3 0.4 3.1
v 1.3 0.5 3.1
v 1.3 0.6 3.1
v 1.3 0.7 3.1
v 1.3 0.8 3.1
v 1.4 0.2 3.1
v 1.4 0.3 3.1
v 1.4 0.7 3.1
v 1.4 0.8 3.1
v 1.5 0.2 3.1
v 1.5 0.3 3.1
v 1.5 0.4 3.1
v 1.5 0.5 3.1
v 1.5 0.6 3.1
v 1.5 0.7 3.1
v 1.5 0.8 3.1
v 1.6 0.2 3.1
v 1.6 0.3 3.1
v 1.6 0.4 3.1
v 1.6 0.5 3.1
v 1.6 0.6 3.1
v 1.6 0.7 3.1
v 1.6 0.8 3.1
v -1.5 0.3 3
v -1.5 0.4 3
v -1.5 0.5 3
v -1.5 0.6 3
v -1.5 0.7 3
v -1.4 0.3 3
v -1.4 0.4 3
v -1.4 0.5 3
v -1.4 0.6 3
v -1.4 0.7 3
v -1.3 0.3 3
v -1.3 0.4 3
v -1.3 0.5 3
v -1.3 0.6 3
v -1.3 0.7 3
v 1.3 0.3 3
v 1.3 0.4 3
v 1.3 0.5 3
v 1.3 0.6 3
v 1.3 0.7 3
v 1.4 0.3 3
v 1.4 0.4 3
v 1.4 0.5 3
v 1.4 0.6 3
v 1.4 0.7 3
v 1.5 0.3 3
v 1.5 0.4 3
v 1.5 0.5 3
v 1.5 0.6 3
v 1.5 0.7 3
v -1.8 0.4 -3.4
v -1.8 0.5 -3.4
v -1.8 0.6 -3.4
v -1.7 0.2 -3.4
v -1.7 0.3 -3.4
v -1.7 0.4 -3.4
v -1.7 0.5 -3.4
v -1.7 0.6 -3.4
v -1.7 0.7 -3.4
v -1.7 0.8 -3.4
v -1.6 0 -3.4
v -1.6 0.1 -3.4
v -1.6 0.2 -3.4
v -1.6 0.3 -3.4
v -1.6 0.4 -3.4
v -1.6 0.5 -3.4
v -1.6 0.6 -3.4
v -1.6 0.7 -3.4
v -1.6 0.8 -3.4
v -1.6 0.9 -3.4
v -1.6 1 -3.4
v -1.5 0 -3.4
v -1.5 0.1 -3.4
v -1.5 0.2 -3.4
v -1.5 0.8 -3.4
v -1.5 0.9 -3.4
v -1.5 1 -3.4
v -1.4 0 -3.4
v -1.4 0.1 -3.4
v -1.4 0.2 -3.4
v -1.4 0.8 -3.4
v -1.4 0.9 -3.4
v -1.4 1 -3.4
v -1.3 0 -3.4
v -1.3 0.1 -3.4
v -1.3 0.2 -3.4
v -1.3 0.8 -3.4
v -1.3 0.9 -3.4
v -1.3 1 -3.4
v -1.2 0 -3.4
v -1.2 0.1 -3.4
v -1.2 0.2 -3.4
v -1.2 0.3 -3.4
v -1.2 0.4 -3.4
v -1.2 0.5 -3.4
v -1.2 0.6 -3.4
v -1.2 0.7 -3.4
v -1.2 0.8 -3.4
v -1.2 0.9 -3.4
v -1.2 1 -3.4
v -1.1 0.2 -3.4
v -1.1 0.3 -3.4
v -1.1 0.4 -3.4
v -1.1 0.5 -3.4
v -1.1 0.6 -3.4
v -1.1 0.7 -3.4
v -1.1 0.8 -3.4
v -1 0.4 -3.4
v -1 0.5 -3.4
v -1 0.6 -3.4
v 1 0.4 -3.4
v 1 0.5 -3.4
v 1 0.6 -3.4
v 1.1 0.2 -3.4
v 1.1 0.3 -3.4
v 1.1 0.4 -3.4
v 1.1 0.5 -3.4
v 1.1 0.6 -3.4
v 1.1 0.7 -3.4
v 1.1 0.8 -3.4
v 1.2 0 -3.4
v 1.2 0.1 -3.4
v 1.2 0.2 -3.4
v 1.2 0.3 -3.4
v 1.2 0.4 -3.4
v 1.2 0.5 -3.4
v 1.2 0.6 -3.4
v 1.2 0.7 -3.4
v 1.2 0.8 -3.4
v 1.2 0.9 -3.4
v 1.2 1 -3.4
v 1.3 0 -3.4
v 1.3 0.1 -3.4
v 1.3 0.2 -3.4
v 1.3 0.8 -3.4
v 1.3 0.9 -3.4
v 1.3 1 -3.4
v 1.4 0 -3.4
v 1.4 0.1 -3.4
v 1.4 0.2 -3.4
v 1.4 0.8 -3.4
v 1.4 0.9 -3.4
v 1.4 1 -3.4
v 1.5 0 -3.4
v 1.5 0.1 -3.4
v 1.5 0.2 -3.4
v 1.5 0.8 -3.4
v 1.5 0.9 -3.4
v 1.5 1 -3.4
v 1.6 0 -3.4
v 1.6 0.1 -3.4
v 1.6 0.2 -3.4
v 1.6 0.3 -3.4
v 1.6 0.4 -3.4
v 1.6 0.5 -3.4
v 1.6 0.6 -3.4
v 1.6 0.7 -3.4
v 1.6 0.8 -3.4
v 1.6 0.9 -3.4
v 1.6 1 -3.4
v 1.7 0.2 -3.4
v 1.7 0.3 -3.4
v 1.7 0.4 -3.4
v 1.7 0.5 -3.4
v 1.7 0.6 -3.4
v 1.7 0.7 -3.4
v 1.7 0.8 -3.4
v 1.8 0.4 -3.4
v 1.8 0.5 -3.4
v 1.8 0.6 -3.4
v -1.6 0.2 -3.5
v -1.6 0.3 -3.5
v -1.6 0.4 -3.5
v -1.6 0.5 -3.5
v -1.6 0.6 -3.5
v -1.6 0.7 -3.5
v -1.6 0.8 -3.5
v -1.5 0.2 -3.5
v -1.5 0.3 -3.5
v -1.5 0.4 -3.5
v -1.5 0.5 -3.5
v -1.5 0.6 -3.5
v -1.5 0.7 -3.5
v -1.5 0.8 -3.5
v -1.4 0.2 -3.5
v -1.4 0.3 -3.5
v -1.4 0.7 -3.5
v -1.4 0.8 -3.5
v -1.3 0.2 -3.5
v -1.3 0.3 -3.5
v -1.3 0.4 -3.5
v -1.3 0.5 -3.5
v -1.3 0.6 -3.5
v -1.3 0.7 -3.5
v -1.3 0.8 -3.5
v -1.2 0.2 -3.5
v -1.2 0.3 -3.5
v -1.2 0.4 -3.5
v -1.2 0.5 -3.5
v -1.2 0.6 -3.5
v -1.2 0.7 -3.5
v -1.2 0.8 -3.5
v 1.2 0.2 -3.5
v 1.2 0.3 -3.5
v 1.2 0.4 -3.5
v 1.2 0.5 -3.5
v 1.2 0.6 -3.5
v 1.2 0.7 -3.5
v 1.2 0.8 -3.5
v 1.3 0.2 -3.5
v 1.3 0.3 -3.5
v 1.3 0.4 -3.5
v 1.3 0.5 -3.5
v 1.3 0.6 -3.5
v 1.3 0.7 -3.5
v 1.3 0.8 -3.5
v 1.4 0.2 -3.5
v 1.4 0.3 -3.5
v 1.4 0.7 -3.5
v 1.4 0.8 -3.5
v 1.5 0.2 -3.5
v 1.5 0.3 -3.5
v 1.5 0.4 -3.5
v 1.5 0.5 -3.5
v 1.5 0.6 -3.5
v 1.5 0.7 -3.5
v 1.5 0.8 -3.5
v 1.6 0.2 -3.5
v 1.6 0.3 -3.5
v 1.6 0.4 -3.5
v 1.6 0.5 -3.5
v 1.6 0.6 -3.5
v 1.6 0.7 -3.5
v 1.6 0.8 -3.5
v -1.5 0.3 -3.6
v -1.5 0.4 -3.6
v -1.5 0.5 -3.6
v -1.5 0.6 -3.6
v -1.5 0.7 -3.6
v -1.4 0.3 -3.6
v -1.4 0.4 -3.6
v -1.4 0.5 -3.6
v -1.4 0.6 -3.6
v -1.4 0.7 -3.6
v -1.3 0.3 -3.6
v -1.3 0.4 -3.6
v -1.3 0.5 -3.6
v -1.3 0.6 -3.6
v -1.3 0.7 -3.6
v 1.3 0.3 -3.6
v 1.3 0.4 -3.6
v 1.3 0.5 -3.6
v 1.3 0.6 -3.6
v 1.3 0.7 -3.6
v 1.4 0.3 -3.6
v 1.4 0.4 -3.6
v 1.4 0.5 -3.6
v 1.4 0.6 -3.6
v 1.4 0.7 -3.6
v 1.5 0.3 -3.6
v 1.5 0.4 -3.6
v 1.5 0.5 -3.6
v 1.5 0.6 -3.6
v 1.5 0.7 -3.6
v -1.6 0 3.4
v -1.5 0 3.4
v -1.4 0 3.4
v -1.3 0 3.4
v -1.2 0 3.4
v 1.2 0 3.4
v 1.3 0 3.4
v 1.4 0 3.4
v 1.5 0 3.4
v 1.6 0 3.4
v -1.6 0 3.2
v -1.5 0 3.2
v -1.4 0 3.2
v -1.3 0 3.2
v -1.2 0 3.2
v 1.2 0 3.2
v 1.3 0 3.2
v 1.4 0 3.2
v 1.5 0 3.2
v 1.6 0 3.2
v -1.6 0 -3.2
v -1.5 0 -3.2
v -1.4 0 -3.2
v -1.3 0 -3.2
v -1.2 0 -3.2
v 1.2 0 -3.2
v 1.3 0 -3.2
v 1.4 0 -3.2
v 1.5 0 -3.2
v 1.6 0 -3.2
v -1.6 0 -3.4
v -1.5 0 -3.4
v -1.4 0 -3.4
v -1.3 0 -3.4
v -1.2 0 -3.4
v 1.2 0 -3.4
v 1.3 0 -3.4
v 1.4 0 -3.4
v 1.5 0 -3.4
v 1.6 0 -3.4
v -1.6 0.2 3.5
v -1.5 0.2 3.5
v -1.4 0.2 3.5
v -1.3 0.2 3.5
v -1.2 0.2 3.5
v 1.2 0.2 3.5
v 1.3 0.2 3.5
v 1.4 0.2 3.5
v 1.5 0.2 3.5
v 1.6 0.2 3.5
v -1.7 0.2 3.4
v -1.6 0.2 3.4
v -1.5 0.2 3.4
v -1.4 0.2 3.4
v -1.3 0.2 3.4
v -1.2 0.2 3.4
v -1.1 0.2 3.4
v 1.1 0.2 3.4
v 1.2 0.2 3.4
v 1.3 0.2 3.4
v 1.4 0.2 3.4
v 1.5 0.2 3.4
v 1.6 0.2 3.4
v 1.7 0.2 3.4
v -1.7 0.2 3.2
v -1.6 0.2 3.2
v -1.5 0.2 3.2
v -1.4 0.2 3.2
v -1.3 0.2 3.2
v -1.2 0.2 3.2
v -1.1 0.2 3.2
v 1.1 0.2 3.2
v 1.2 0.2 3.2
v 1.3 0.2 3.2
v 1.4 0.2 3.2
v 1.5 0.2 3.2
v 1.6 0.2 3.2
v 1.7 0.2 3.2
v -1.6 0.2 3.1
v -1.5 0.2 3.1
v -1.4 0.2 3.1
v -1.3 0.2 3.1
v -1.2 0.2 3.1
v 1.2 0.2 3.1
v 1.3 0.2 3.1
v 1.4 0.2 3.1
v 1.5 0.2 3.1
v 1.6 0.2 3.1
v -1.6 0.2 -3.1
v -1.5 0.2 -3.1
v -1.4 0.2 -3.1
v -1.3 0.2 -3.1
v -1.2 0.2 -3.1
v 1.2 0.2 -3.1
v 1.3 0.2 -3.1
v 1.4 0.2 -3.1
v 1.5 0.2 -3.1
v 1.6 0.2 -3.1
v -1.7 0.2 -3.2
v -1.6 0.2 -3.2
v -1.5 0.2 -3.2
v -1.4 0.2 -3.2
v -1.3 0.2 -3.2
v -1.2 0.2 -3.2
v -1.1 0.2 -3.2
v 1.1 0.2 -3.2
v 1.2 0.2 -3.2
v 1.3 0.2 -3.2
v 1.4 0.2 -3.2
v 1.5 0.2 -3.2
v 1.6 0.2 -3.2
v 1.7 0.2 -3.2
v -1.7 0.2 -3.4
v -1.6 0.2 -3.4
v -1.5 0.2 -3.4
v -1.4 0.2 -3.4
v -1.3 0.2 -3.4
v -1.2 0.2 -3.4
v -1.1 0.2 -3.4
v 1.1 0.2 -3.4
v 1.2 0.2 -3.4
v 1.3 0.2 -3.4
v 1.4 0.2 -3.4
v 1.5 0.2 -3.4
v 1.6 0.2 -3.4
v 1.7 0.2 -3.4
v -1.6 0.2 -3.5
v -1.5 0.2 -3.5
v -1.4 0.2 -3.5
v -1.3 0.2 -3.5
v -1.2 0.2 -3.5
v 1.2 0.2 -3.5
v 1.3 0.2 -3.5
v 1.4 0.2 -3.5
v 1.5 0.2 -3.5
v 1.6 0.2 -3.5
v -1.5 0.3 3.6
v -1.4 0.3 3.6
v -1.3 0.3 3.6
v 1.3 0.3 3.6
v 1.4 0.3 3.6
v 1.5 0.3 3.6
v -1.5 0.3 3.5
v -1.4 0.3 3.5
v -1.3 0.3 3.5
v 1.3 0.3 3.5
v 1.4 0.3 3.5
v 1.5 0.3 3.5
v -1.5 0.3 3.1
v -1.4 0.3 3.1
v -1.3 0.3 3.1
v 1.3 0.3 3.1
v 1.4 0.3 3.1
v 1.5 0.3 3.1
v -1.5 0.3 3
v -1.4 0.3 3
v -1.3 0.3 3
v 1.3 0.3 3
v 1.4 0.3 3
v 1.5 0.3 3
v -1.5 0.3 -3
v -1.4 0.3 -3
v -1.3 0.3 -3
v 1.3 0.3 -3
v 1.4 0.3 -3
v 1.5 0.3 -3
v -1.5 0.3 -3.1
v -1.4 0.3 -3.1
v -1.3 0.3 -3.1
v 1.3 0.3 -3.1
v 1.4 0.3 -3.1
v 1.5 0.3 -3.1
v -1.5 0.3 -3.5
v -1.4 0.3 -3.5
v -1.3 0.3 -3.5
v 1.3 0.3 -3.5
v 1.4 0.3 -3.5
v 1.5 0.3 -3.5
v -1.5 0.3 -3.6
v -1.4 0.3 -3.6
v -1.3 0.3 -3.6
v 1.3 0.3 -3.6
v 1.4 0.3 -3.6
v 1.5 0.3 -3.6
v -1.8 0.4 3.4
v -1.7 0.4 3.4
v -1.1 0.4 3.4
v -1 0.4 3.4
v 1 0.4 3.4
v 1.1 0.4 3.4
v 1.7 0.4 3.4
v 1.8 0.4 3.4
v -1.8 0.4 3.2
v -1.7 0.4 3.2
v -1.1 0.4 3.2
v -1 0.4 3.2
v 1 0.4 3.2
v 1.1 0.4 3.2
v 1.7 0.4 3.2
v 1.8 0.4 3.2
v -1.8 0.4 -3.2
v -1.7 0.4 -3.2
v -1.1 0.4 -3.2
v -1 0.4 -3.2
v 1 0.4 -3.2
v 1.1 0.4 -3.2
v 1.7 0.4 -3.2
v 1.8 0.4 -3.2
v -1.8 0.4 -3.4
v -1.7 0.4 -3.4
v -1.1 0.4 -3.4
v -1 0.4 -3.4
v 1 0.4 -3.4
v 1.1 0.4 -3.4
v 1.7 0.4 -3.4
v 1.8 0.4 -3.4
v -1.8 0.6 3.4
v -1.7 0.6 3.4
v -1.1 0.6 3.4
v -1 0.6 3.4
v 1 0.6 3.4
v 1.1 0.6 3.4
v 1.7 0.6 3.4
v 1.8 0.6 3.4
v -1.8 0.6 3.2
v -1.7 0.6 3.2
v -1.1 0.6 3.2
v -1 0.6 3.2
v 1 0.6 3.2
v 1.1 0.6 3.2
v 1.7 0.6 3.2
v 1.8 0.6 3.2
v -1.8 0.6 -3.2
v -1.7 0.6 -3.2
v -1.1 0.6 -3.2
v -1 0.6 -3.2
v 1 0.6 -3.2
v 1.1 0.6 -3.2
v 1.7 0.6 -3.2
v 1.8 0.6 -3.2
v -1.8 0.6 -3.4
v -1.7 0.6 -3.4
v -1.1 0.6 -3.4
v -1 0.6 -3.4
v 1 0.6 -3.4
v 1.1 0.6 -3.4
v 1.7 0.6 -3.4
v 1.8 0.6 -3.4
v -1.5 0.7 3.6
v -1.4 0.7 3.6
v -1.3 0.7 3.6
v 1.3 0.7 3.6
v 1.4 0.7 3.6
v 1.5 0.7 3.6
v -1.5 0.7 3.5
v -1.4 0.7 3.5
v -1.3 0.7 3.5
v 1.3 0.7 3.5
v 1.4 0.7 3.5
v 1.5 0.7 3.5
v -1.5 0.7 3.1
v -1.4 0.7 3.1
v -1.3 0.7 3.1
v 1.3 0.7 3.1
v 1.4 0.7 3.1
v 1.5 0.7 3.1
v -1.5 0.7 3
v -1.4 0.7 3
v -1.3 0.7 3
v 1.3 0.7 3
v 1.4 0.7 3
v 1.5 0.7 3
v -1.5 0.7 -3
v -1.4 0.7 -3
v -1.3 0.7 -3
v 1.3 0.7 -3
v 1.4 0.7 -3
v 1.5 0.7 -3
v -1.5 0.7 -3.1
v -1.4 0.7 -3.1
v -1.3 0.7 -3.1
v 1.3 0.7 -3.1
v 1.4 0.7 -3.1
v 1.5 0.7 -3.1
v -1.5 0.7 -3.5
v -1.4 0.7 -3.5
v -1.3 0.7 -3.5
v 1.3 0.7 -3.5
v 1.4 0.7 -3.5
v 1.5 0.7 -3.5
v -1.5 0.7 -3.6
v -1.4 0.7 -3.6
v -1.3 0.7 -3.6
v 1.3 0.7 -3.6
v 1.4 0.7 -3.6
v 1.5 0.7 -3.6
v -1.6 0.8 3.5
v -1.5 0.8 3.5
v -1.4 0.8 3.5
v -1.3 0.8 3.5
v -1.2 0.8 3.5
v 1.2 0.8 3.5
v 1.3 0.8 3.5
v 1.4 0.8 3.5
v 1.5 0.8 3.5
v 1.6 0.8 3.5
v -1.7 0.8 3.4
v -1.6 0.8 3.4
v -1.5 0.8 3.4
v -1.4 0.8 3.4
v -1.3 0.8 3.4
v -1.2 0.8 3.4
v -1.1 0.8 3.4
v 1.1 0.8 3.4
v 1.2 0.8 3.4
v 1.3 0.8 3.4
v 1.4 0.8 3.4
v 1.5 0.8 3.4
v 1.6 0.8 3.4
v 1.7 0.8 3.4
v -1.7 0.8 3.2
v -1.6 0.8 3.2
v -1.5 0.8 3.2
v -1.4 0.8 3.2
v -1.3 0.8 3.2
v -1.2 0.8 3.2
v -1.1 0.8 3.2
v 1.1 0.8 3.2
v 1.2 0.8 3.2
v 1.3 0.8 3.2
v 1.4 0.8 3.2
v 1.5 0.8 3.2
v 1.6 0.8 3.2
v 1.7 0.8 3.2
v -1.6 0.8 3.1
v -1.5 0.8 3.1
v -1.4 0.8 3.1
v -1.3 0.8 3.1
v -1.2 0.8 3.1
v 1.2 0.8 3.1
v 1.3 0.8 3.1
v 1.4 0.8 3.1
v 1.5 0.8 3.1
v 1.6 0.8 3.1
v -1.6 0.8 -3.1
v -1.5 0.8 -3.1
v -1.4 0.8 -3.1
v -1.3 0.8 -3.1
v -1.2 0.8 -3.1
v 1.2 0.8 -3.1
v 1.3 0.8 -3.1
v 1.4 0.8 -3.1
v 1.5 0.8 -3.1
v 1.6 0.8 -3.1
v -1.7 0.8 -3.2
v -1.6 0.8 -3.2
v -1.5 0.8 -3.2
v -1.4 0.8 -3.2
v -1.3 0.8 -3.2
v -1.2 0.8 -3.2
v -1.1 0.8 -3.2
v 1.1 0.8 -3.2
v 1.2 0.8 -3.2
v 1.3 0.8 -3.2
v 1.4 0.8 -3.2
v 1.5 0.8 -3.2
v 1.6 0.8 -3.2
v 1.7 0.8 -3.2
v -1.7 0.8 -3.4
v -1.6 0.8 -3.4
v -1.5 0.8 -3.4
v -1.4 0.8 -3.4
v -1.3 0.8 -3.4
v -1.2 0.8 -3.4
v -1.1 0.8 -3.4
v 1.1 0.8 -3.4
v 1.2 0.8 -3.4
v 1.3 0.8 -3.4
v 1.4 0.8 -3.4
v 1.5 0.8 -3.4
v 1.6 0.8 -3.4
v 1.7 0.8 -3.4
v -1.6 0.8 -3.5
v -1.5 0.8 -3.5
v -1.4 0.8 -3.5
v -1.3 0.8 -3.5
v -1.2 0.8 -3.5
v 1.2 0.8 -3.5
v 1.3 0.8 -3.5
v 1.4 0.8 -3.5
v 1.5 0.8 -3.5
v 1.6 0.8 -3.5
v -1.6 1 3.4
v -1.5 1 3.4
v -1.4 1 3.4
v -1.3 1 3.4
v -1.2 1 3.4
v 1.2 1 3.4
v 1.3 1 3.4
v 1.4 1 3.4
v 1.5 1 3.4
v 1.6 1 3.4
v -1.6 1 3.2
v -1.5 1 3.2
v -1.4 1 3.2
v -1.3 1 3.2
v -1.2 1 3.2
v 1.2 1 3.2
v 1.3 1 3.2
v 1.4 1 3.2
v 1.5 1 3.2
v 1.6 1 3.2
v -1.6 1 -3.2
v -1.5 1 -3.2
v -1.4 1 -3.2
v -1.3 1 -3.2
v -1.2 1 -3.2
v 1.2 1 -3.2
v 1.3 1 -3.2
v 1.4 1 -3.2
v 1.5 1 -3.2
v 1.6 1 -3.2
v -1.6 1 -3.4
v -1.5 1 -3.4
v -1.4 1 -3.4
v -1.3 1 -3.4
v -1.2 1 -3.4
v 1.2 1 -3.4
v 1.3 1 -3.4
v 1.4 1 -3.4
v 1.5 1 -3.4
v 1.6 1 -3.4

# faces
f 5/1/1 2/1/1 1/1/1
f 6/1/1 2/1/1 5/1/1
f 7/1/1 4/1/1 3/1/1
f 8/1/1 4/1/1 7/1/1
f 9/3/1 6/3/1 5/3/1
f 10/3/1 6/3/1 9/3/1
f 11/3/1 8/3/1 7/3/1
f 12/3/1 8/3/1 11/3/1
f 17/3/1 14/3/1 13/3/1
f 18/3/1 14/3/1 17/3/1
f 19/3/1 16/3/1 15/3/1
f 20/3/1 16/3/1 19/3/1
f 21/1/1 18/1/1 17/1/1
f 22/1/1 18/1/1 21/1/1
f 23/1/1 20/1/1 19/1/1
f 24/1/1 20/1/1 23/1/1
f 29/3/1 26/3/1 25/3/1
f 30/3/1 26/3/1 29/3/1
f 31/3/1 28/3/1 27/3/1
f 32/3/1 28/3/1 31/3/1
f 33/1/1 30/1/1 29/1/1
f 34/1/1 30/1/1 33/1/1
f 35/1/1 32/1/1 31/1/1
f 36/1/1 32/1/1 35/1/1
f 41/1/1 38/1/1 37/1/1
f 42/1/1 38/1/1 41/1/1
f 43/1/1 40/1/1 39/1/1
f 44/1/1 40/1/1 43/1/1
f 46/3/1 42/3/1 41/3/1
f 47/3/1 42/3/1 46/3/1
f 50/3/1 44/3/1 43/3/1
f 51/3/1 44/3/1 50/3/1
f 53/1/1 46/1/1 45/1/1
f 54/1/1 46/1/1 53/1/1
f 55/1/1 48/1/1 47/1/1
f 56/1/1 48/1/1 55/1/1
f 57/1/1 50/1/1 49/1/1
f 58/1/1 50/1/1 57/1/1
f 59/1/1 52/1/1 51/1/1
f 60/1/1 52/1/1 59/1/1
f 61/3/1 54/3/1 53/3/1
f 62/3/1 54/3/1 61/3/1
f 63/3/1 56/3/1 55/3/1
f 64/3/1 56/3/1 63/3/1
f 65/3/1 58/3/1 57/3/1
f 66/3/1 58/3/1 65/3/1
f 67/3/1 60/3/1 59/3/1
f 68/3/1 60/3/1 67/3/1
f 69/1/1 62/1/1 61/1/1
f 70/1/1 62/1/1 69/1/1
f 71/1/1 64/1/1 63/1/1
f 72/1/1 64/1/1 71/1/1
f 73/1/1 66/1/1 65/1/1
f 74/1/1 66/1/1 73/1/1
f 75/1/1 68/1/1 67/1/1
f 76/1/1 68/1/1 75/1/1
f 77/3/1 70/3/1 69/3/1
f 78/3/1 70/3/1 77/3/1
f 79/3/1 72/3/1 71/3/1
f 80/3/1 72/3/1 79/3/1
f 81/3/1 74/3/1 73/3/1
f 82/3/1 74/3/1 81/3/1
f 83/3/1 76/3/1 75/3/1
f 84/3/1 76/3/1 83/3/1
f 85/1/1 78/1/1 77/1/1
f 86/1/1 78/1/1 85/1/1
f 87/1/1 80/1/1 79/1/1
f 88/1/1 80/1/1 87/1/1
f 89/1/1 82/1/1 81/1/1
f 90/1/1 82/1/1 89/1/1
f 91/1/1 84/1/1 83/1/1
f 92/1/1 84/1/1 91/1/1
f 93/3/1 86/3/1 85/3/1
f 94/3/1 86/3/1 93/3/1
f 95/3/1 88/3/1 87/3/1
f 96/3/1 88/3/1 95/3/1
f 97/3/1 90/3/1 89/3/1
f 98/3/1 90/3/1 97/3/1
f 99/3/1 92/3/1 91/3/1
f 100/3/1 92/3/1 99/3/1
f 101/1/1 95/1/1 94/1/1
f 102/1/1 95/1/1 101/1/1
f 103/1/1 99/1/1 98/1/1
f 104/1/1 99/1/1 103/1/1
f 105/3/1 102/3/1 101/3/1
f 106/3/1 102/3/1 105/3/1
f 107/3/1 104/3/1 103/3/1
f 108/3/1 104/3/1 107/3/1
f 117/1/1 110/1/1 109/1/1
f 118/1/1 110/1/1 117/1/1
f 119/1/1 112/1/1 111/1/1
f 120/1/1 112/1/1 119/1/1
f 121/1/1 114/1/1 113/1/1
f 122/1/1 114/1/1 121/1/1
f 123/1/1 116/1/1 115/1/1
f 124/1/1 116/1/1 123/1/1
f 125/3/1 118/3/1 117/3/1
f 126/3/1 118/3/1 125/3/1
f 127/3/1 120/3/1 119/3/1
f 128/3/1 120/3/1 127/3/1
f 129/3/1 122/3/1 121/3/1
f 130/3/1 122/3/1 129/3/1
f 131/3/1 124/3/1 123/3/1
f 132/3/1 124/3/1 131/3/1
f 133/1/1 126/1/1 125/1/1
f 134/1/1 126/1/1 133/1/1
f 135/1/1 128/1/1 127/1/1
f 136/1/1 128/1/1 135/1/1
f 137/1/1 130/1/1 129/1/1
f 138/1/1 130/1/1 137/1/1
f 139/1/1 132/1/1 131/1/1
f 140/1/1 132/1/1 139/1/1
f 141/3/1 134/3/1 133/3/1
f 142/3/1 134/3/1 141/3/1
f 143/3/1 136/3/1 135/3/1
f 144/3/1 136/3/1 143/3/1
f 145/3/1 138/3/1 137/3/1
f 146/3/1 138/3/1 145/3/1
f 147/3/1 140/3/1 139/3/1
f 148/3/1 140/3/1 147/3/1
f 153/3/1 150/3/1 149/3/1
f 154/3/1 150/3/1 153/3/1
f 155/3/1 152/3/1 151/3/1
f 156/3/1 152/3/1 155/3/1
f 157/1/1 154/1/1 153/1/1
f 158/1/1 154/1/1 157/1/1
f 159/1/1 156/1/1 155/1/1
f 160/1/1 156/1/1 159/1/1
f 165/1/1 162/1/1 161/1/1
f 166/1/1 162/1/1 165/1/1
f 167/1/1 164/1/1 163/1/1
f 168/1/1 164/1/1 167/1/1
f 169/3/1 166/3/1 165/3/1
f 170/3/1 166/3/1 169/3/1
f 171/3/1 168/3/1 167/3/1
f 172/3/1 168/3/1 171/3/1
f 177/1/1 174/1/1 173/1/1
f 178/1/1 174/1/1 177/1/1
f 179/1/1 176/1/1 175/1/1
f 180/1/1 176/1/1 179/1/1
f 181/3/1 178/3/1 177/3/1
f 182/3/1 178/3/1 181/3/1
f 183/3/1 180/3/1 179/3/1
f 184/3/1 180/3/1 183/3/1
f 189/3/1 186/3/1 185/3/1
f 190/3/1 186/3/1 189/3/1
f 191/3/1 188/3/1 187/3/1
f 192/3/1 188/3/1 191/3/1
f 194/1/1 190/1/1 189/1/1
f 195/1/1 190/1/1 194/1/1
f 198/1/1 192/1/1 191/1/1
f 199/1/1 192/1/1 198/1/1
f 201/3/1 194/3/1 193/3/1
f 202/3/1 194/3/1 201/3/1
f 203/3/1 196/3/1 195/3/1
f 204/3/1 196/3/1 203/3/1
f 205/3/1 198/3/1 197/3/1
f 206/3/1 198/3/1 205/3/1
f 207/3/1 200/3/1 199/3/1
f 208/3/1 200/3/1 207/3/1
f 209/1/1 202/1/1 201/1/1
f 210/1/1 202/1/1 209/1/1
f 211/1/1 204/1/1 203/1/1
f 212/1/1 204/1/1 211/1/1
f 213/1/1 206/1/1 205/1/1
f 214/1/1 206/1/1 213/1/1
f 215/1/1 208/1/1 207/1/1
f 216/1/1 208/1/1 215/1/1
f 217/3/1 210/3/1 209/3/1
f 218/3/1 210/3/1 217/3/1
f 219/3/1 212/3/1 211/3/1
f 220/3/1 212/3/1 219/3/1
f 221/3/1 214/3/1 213/3/1
f 222/3/1 214/3/1 221/3/1
f 223/3/1 216/3/1 215/3/1
f 224/3/1 216/3/1 223/3/1
f 225/1/1 218/1/1 217/1/1
f 226/1/1 218/1/1 225/1/1
f 227/1/1 220/1/1 219/1/1
f 228/1/1 220/1/1 227/1/1
f 229/1/1 222/1/1 221/1/1
f 230/1/1 222/1/1 229/1/1
f 231/1/1 224/1/1 223/1/1
f 232/1/1 224/1/1 231/1/1
f 233/3/1 226/3/1 225/3/1
f 234/3/1 226/3/1 233/3/1
f 235/3/1 228/3/1 227/3/1
f 236/3/1 228/3/1 235/3/1
f 237/3/1 230/3/1 229/3/1
f 238/3/1 230/3/1 237/3/1
f 239/3/1 232/3/1 231/3/1
f 240/3/1 232/3/1 239/3/1
f 241/1/1 234/1/1 233/1/1
f 242/1/1 234/1/1 241/1/1
f 243/1/1 236/1/1 235/1/1
f 244/1/1 236/1/1 243/1/1
f 245/1/1 238/1/1 237/1/1
f 246/1/1 238/1/1 245/1/1
f 247/1/1 240/1/1 239/1/1
f 248/1/1 240/1/1 247/1/1
f 249/3/1 243/3/1 242/3/1
f 250/3/1 243/3/1 249/3/1
f 251/3/1 247/3/1 246/3/1
f 252/3/1 247/3/1 251/3/1
f 253/1/1 250/1/1 249/1/1
f 254/1/1 250/1/1 253/1/1
f 255/1/1 252/1/1 251/1/1
f 256/1/1 252/1/1 255/1/1
f 265/3/1 258/3/1 257/3/1
f 266/3/1 258/3/1 265/3/1
f 267/3/1 260/3/1 259/3/1
f 268/3/1 260/3/1 267/3/1
f 269/3/1 262/3/1 261/3/1
f 270/3/1 262/3/1 269/3/1
f 271/3/1 264/3/1 263/3/1
f 272/3/1 264/3/1 271/3/1
f 273/1/1 266/1/1 265/1/1
f 274/1/1 266/1/1 273/1/1
f 275/1/1 268/1/1 267/1/1
f 276/1/1 268/1/1 275/1/1
f 277/1/1 270/1/1 269/1/1
f 278/1/1 270/1/1 277/1/1
f 279/1/1 272/1/1 271/1/1
f 280/1/1 272/1/1 279/1/1
f 281/3/1 274/3/1 273/3/1
f 282/3/1 274/3/1 281/3/1
f 283/3/1 276/3/1 275/3/1
f 284/3/1 276/3/1 283/3/1
f 285/3/1 278/3/1 277/3/1
f 286/3/1 278/3/1 285/3/1
f 287/3/1 280/3/1 279/3/1
f 288/3/1 280/3/1 287/3/1
f 289/1/1 282/1/1 281/1/1
f 290/1/1 282/1/1 289/1/1
f 291/1/1 284/1/1 283/1/1
f 292/1/1 284/1/1 291/1/1
f 293/1/1 286/1/1 285/1/1
f 294/1/1 286/1/1 293/1/1
f 295/1/1 288/1/1 287/1/1
f 296/1/1 288/1/1 295/1/1
f 297/3/2 298/3/2 305/3/2
f 305/3/2 298/3/2 306/3/2
f 299/3/2 300/3/2 307/3/2
f 307/3/2 300/3/2 308/3/2
f 301/3/2 302/3/2 309/3/2
f 309/3/2 302/3/2 310/3/2
f 303/3/2 304/3/2 311/3/2
f 311/3/2 304/3/2 312/3/2
f 305/1/2 306/1/2 313/1/2
f 313/1/2 306/1/2 314/1/2
f 307/1/2 308/1/2 315/1/2
f 315/1/2 308/1/2 316/1/2
f 309/1/2 310/1/2 317/1/2
f 317/1/2 310/1/2 318/1/2
f 311/1/2 312/1/2 319/1/2
f 319/1/2 312/1/2 320/1/2
f 313/3/2 314/3/2 321/3/2
f 321/3/2 314/3/2 322/3/2
f 315/3/2 316/3/2 323/3/2
f 323/3/2 316/3/2 324/3/2
f 317/3/2 318/3/2 325/3/2
f 325/3/2 318/3/2 326/3/2
f 319/3/2 320/3/2 327/3/2
f 327/3/2 320/3/2 328/3/2
f 321/1/2 322/1/2 329/1/2
f 329/1/2 322/1/2 330/1/2
f 323/1/2 324/1/2 331/1/2
f 331/1/2 324/1/2 332/1/2
f 325/1/2 326/1/2 333/1/2
f 333/1/2 326/1/2 334/1/2
f 327/1/2 328/1/2 335/1/2
f 335/1/2 328/1/2 336/1/2
f 337/3/2 338/3/2 341/3/2
f 341/3/2 338/3/2 342/3/2
f 339/3/2 340/3/2 343/3/2
f 343/3/2 340/3/2 344/3/2
f 341/1/2 342/1/2 346/1/2
f 346/1/2 342/1/2 347/1/2
f 343/1/2 344/1/2 350/1/2
f 350/1/2 344/1/2 351/1/2
f 345/3/2 346/3/2 353/3/2
f 353/3/2 346/3/2 354/3/2
f 347/3/2 348/3/2 355/3/2
f 355/3/2 348/3/2 356/3/2
f 349/3/2 350/3/2 357/3/2
f 357/3/2 350/3/2 358/3/2
f 351/3/2 352/3/2 359/3/2
f 359/3/2 352/3/2 360/3/2
f 353/1/2 354/1/2 361/1/2
f 361/1/2 354/1/2 362/1/2
f 355/1/2 356/1/2 363/1/2
f 363/1/2 356/1/2 364/1/2
f 357/1/2 358/1/2 365/1/2
f 365/1/2 358/1/2 366/1/2
f 359/1/2 360/1/2 367/1/2
f 367/1/2 360/1/2 368/1/2
f 361/3/2 362/3/2 369/3/2
f 369/3/2 362/3/2 370/3/2
f 363/3/2 364/3/2 371/3/2
f 371/3/2 364/3/2 372/3/2
f 365/3/2 366/3/2 373/3/2
f 373/3/2 366/3/2 374/3/2
f 367/3/2 368/3/2 375/3/2
f 375/3/2 368/3/2 376/3/2
f 369/1/2 370/1/2 377/1/2
f 377/1/2 370/1/2 378/1/2
f 371/1/2 372/1/2 379/1/2
f 379/1/2 372/1/2 380/1/2
f 373/1/2 374/1/2 381/1/2
f 381/1/2 374/1/2 382/1/2
f 375/1/2 376/1/2 383/1/2
f 383/1/2 376/1/2 384/1/2
f 377/3/2 378/3/2 385/3/2
f 385/3/2 378/3/2 386/3/2
f 379/3/2 380/3/2 387/3/2
f 387/3/2 380/3/2 388/3/2
f 381/3/2 382/3/2 389/3/2
f 389/3/2 382/3/2 390/3/2
f 383/3/2 384/3/2 391/3/2
f 391/3/2 384/3/2 392/3/2
f 385/1/2 386/1/2 393/1/2
f 393/1/2 386/1/2 394/1/2
f 387/1/2 388/1/2 395/1/2
f 395/1/2 388/1/2 396/1/2
f 389/1/2 390/1/2 397/1/2
f 397/1/2 390/1/2 398/1/2
f 391/1/2 392/1/2 399/1/2
f 399/1/2 392/1/2 400/1/2
f 394/3/2 395/3/2 401/3/2
f 401/3/2 395/3/2 402/3/2
f 398/3/2 399/3/2 403/3/2
f 403/3/2 399/3/2 404/3/2
f 401/1/2 402/1/2 405/1/2
f 405/1/2 402/1/2 406/1/2
f 403/1/2 404/1/2 407/1/2
f 407/1/2 404/1/2 408/1/2
f 409/1/2 410/1/2 413/1/2
f 413/1/2 410/1/2 414/1/2
f 411/1/2 412/1/2 415/1/2
f 415/1/2 412/1/2 416/1/2
f 413/3/2 414/3/2 417/3/2
f 417/3/2 414/3/2 418/3/2
f 415/3/2 416/3/2 419/3/2
f 419/3/2 416/3/2 420/3/2
f 421/1/2 422/1/2 425/1/2
f 425/1/2 422/1/2 426/1/2
f 423/1/2 424/1/2 427/1/2
f 427/1/2 424/1/2 428/1/2
f 425/3/2 426/3/2 429/3/2
f 429/3/2 426/3/2 430/3/2
f 427/3/2 428/3/2 431/3/2
f 431/3/2 428/3/2 432/3/2
f 433/3/2 434/3/2 437/3/2
f 437/3/2 434/3/2 438/3/2
f 435/3/2 436/3/2 439/3/2
f 439/3/2 436/3/2 440/3/2
f 437/1/2 438/1/2 441/1/2
f 441/1/2 438/1/2 442/1/2
f 439/1/2 440/1/2 443/1/2
f 443/1/2 440/1/2 444/1/2
f 445/1/2 446/1/2 453/1/2
f 453/1/2 446/1/2 454/1/2
f 447/1/2 448/1/2 455/1/2
f 455/1/2 448/1/2 456/1/2
f 449/1/2 450/1/2 457/1/2
f 457/1/2 450/1/2 458/1/2
f 451/1/2 452/1/2 459/1/2
f 459/1/2 452/1/2 460/1/2
f 453/3/2 454/3/2 461/3/2
f 461/3/2 454/3/2 462/3/2
f 455/3/2 456/3/2 463/3/2
f 463/3/2 456/3/2 464/3/2
f 457/3/2 458/3/2 465/3/2
f 465/3/2 458/3/2 466/3/2
f 459/3/2 460/3/2 467/3/2
f 467/3/2 460/3/2 468/3/2
f 461/1/2 462/1/2 469/1/2
f 469/1/2 462/1/2 470/1/2
f 463/1/2 464/1/2 471/1/2
f 471/1/2 464/1/2 472/1/2
f 465/1/2 466/1/2 473/1/2
f 473/1/2 466/1/2 474/1/2
f 467/1/2 468/1/2 475/1/2
f 475/1/2 468/1/2 476/1/2
f 469/3/2 470/3/2 477/3/2
f 477/3/2 470/3/2 478/3/2
f 471/3/2 472/3/2 479/3/2
f 479/3/2 472/3/2 480/3/2
f 473/3/2 474/3/2 481/3/2
f 481/3/2 474/3/2 482/3/2
f 475/3/2 476/3/2 483/3/2
f 483/3/2 476/3/2 484/3/2
f 485/1/2 486/1/2 489/1/2
f 489/1/2 486/1/2 490/1/2
f 487/1/2 488/1/2 491/1/2
f 491/1/2 488/1/2 492/1/2
f 489/3/2 490/3/2 494/3/2
f 494/3/2 490/3/2 495/3/2
f 491/3/2 492/3/2 498/3/2
f 498/3/2 492/3/2 499/3/2
f 493/1/2 494/1/2 501/1/2
f 501/1/2 494/1/2 502/1/2
f 495/1/2 496/1/2 503/1/2
f 503/1/2 496/1/2 504/1/2
f 497/1/2 498/1/2 505/1/2
f 505/1/2 498/1/2 506/1/2
f 499/1/2 500/1/2 507/1/2
f 507/1/2 500/1/2 508/1/2
f 501/3/2 502/3/2 509/3/2
f 509/3/2 502/3/2 510/3/2
f 503/3/2 504/3/2 511/3/2
f 511/3/2 504/3/2 512/3/2
f 505/3/2 506/3/2 513/3/2
f 513/3/2 506/3/2 514/3/2
f 507/3/2 508/3/2 515/3/2
f 515/3/2 508/3/2 516/3/2
f 509/1/2 510/1/2 517/1/2
f 517/1/2 510/1/2 518/1/2
f 511/1/2 512/1/2 519/1/2
f 519/1/2 512/1/2 520/1/2
f 513/1/2 514/1/2 521/1/2
f 521/1/2 514/1/2 522/1/2
f 515/1/2 516/1/2 523/1/2
f 523/1/2 516/1/2 524/1/2
f 517/3/2 518/3/2 525/3/2
f 525/3/2 518/3/2 526/3/2
f 519/3/2 520/3/2 527/3/2
f 527/3/2 520/3/2 528/3/2
f 521/3/2 522/3/2 529/3/2
f 529/3/2 522/3/2 530/3/2
f 523/3/2 524/3/2 531/3/2
f 531/3/2 524/3/2 532/3/2
f 525/1/2 526/1/2 533/1/2
f 533/1/2 526/1/2 534/1/2
f 527/1/2 528/1/2 535/1/2
f 535/1/2 528/1/2 536/1/2
f 529/1/2 530/1/2 537/1/2
f 537/1/2 530/1/2 538/1/2
f 531/1/2 532/1/2 539/1/2
f 539/1/2 532/1/2 540/1/2
f 533/3/2 534/3/2 541/3/2
f 541/3/2 534/3/2 542/3/2
f 535/3/2 536/3/2 543/3/2
f 543/3/2 536/3/2 544/3/2
f 537/3/2 538/3/2 545/3/2
f 545/3/2 538/3/2 546/3/2
f 539/3/2 540/3/2 547/3/2
f 547/3/2 540/3/2 548/3/2
f 542/1/2 543/1/2 549/1/2
f 549/1/2 543/1/2 550/1/2
f 546/1/2 547/1/2 551/1/2
f 551/1/2 547/1/2 552/1/2
f 549/3/2 550/3/2 553/3/2
f 553/3/2 550/3/2 554/3/2
f 551/3/2 552/3/2 555/3/2
f 555/3/2 552/3/2 556/3/2
f 557/3/2 558/3/2 561/3/2
f 561/3/2 558/3/2 562/3/2
f 559/3/2 560/3/2 563/3/2
f 563/3/2 560/3/2 564/3/2
f 561/1/2 562/1/2 565/1/2
f 565/1/2 562/1/2 566/1/2
f 563/1/2 564/1/2 567/1/2
f 567/1/2 564/1/2 568/1/2
f 569/3/2 570/3/2 573/3/2
f 573/3/2 570/3/2 574/3/2
f 571/3/2 572/3/2 575/3/2
f 575/3/2 572/3/2 576/3/2
f 573/1/2 574/1/2 577/1/2
f 577/1/2 574/1/2 578/1/2
f 575/1/2 576/1/2 579/1/2
f 579/1/2 576/1/2 580/1/2
f 581/1/2 582/1/2 585/1/2
f 585/1/2 582/1/2 586/1/2
f 583/1/2 584/1/2 587/1/2
f 587/1/2 584/1/2 588/1/2
f 585/3/2 586/3/2 589/3/2
f 589/3/2 586/3/2 590/3/2
f 587/3/2 588/3/2 591/3/2
f 591/3/2 588/3/2 592/3/2
f 598/1/3 594/1/3 593/1/3
f 599/3/3 595/3/3 594/3/3
f 599/1/3 594/1/3 598/1/3
f 600/1/3 596/1/3 595/1/3
f 600/3/3 595/3/3 599/3/3
f 601/3/3 597/3/3 596/3/3
f 601/1/3 596/1/3 600/1/3
f 602/3/3 597/3/3 601/3/3
f 603/3/3 599/3/3 598/3/3
f 604/1/3 600/1/3 599/1/3
f 604/3/3 599/3/3 603/3/3
f 605/3/3 601/3/3 600/3/3
f 605/1/3 600/1/3 604/1/3
f 606/1/3 602/1/3 601/1/3
f 606/3/3 601/3/3 605/3/3
f 607/1/3 602/1/3 606/1/3
f 613/3/3 609/3/3 608/3/3
f 614/1/3 610/1/3 609/1/3
f 614/3/3 609/3/3 613/3/3
f 615/3/3 611/3/3 610/3/3
f 615/1/3 610/1/3 614/1/3
f 616/1/3 612/1/3 611/1/3
f 616/3/3 611/3/3 615/3/3
f 617/1/3 612/1/3 616/1/3
f 618/1/3 614/1/3 613/1/3
f 619/3/3 615/3/3 614/3/3
f 619/1/3 614/1/3 618/1/3
f 620/1/3 616/1/3 615/1/3
f 620/3/3 615/3/3 619/3/3
f 621/3/3 617/3/3 616/3/3
f 621/1/3 616/1/3 620/1/3
f 622/3/3 617/3/3 621/3/3
f 630/1/3 624/1/3 623/1/3
f 631/3/3 625/3/3 624/3/3
f 631/1/3 624/1/3 630/1/3
f 632/1/3 626/1/3 625/1/3
f 632/3/3 625/3/3 631/3/3
f 633/3/3 627/3/3 626/3/3
f 633/1/3 626/1/3 632/1/3
f 634/1/3 628/1/3 627/1/3
f 634/3/3 627/3/3 633/3/3
f 635/3/3 629/3/3 628/3/3
f 635/1/3 628/1/3 634/1/3
f 636/3/3 629/3/3 635/3/3
f 637/3/3 631/3/3 630/3/3
f 638/3/3 631/3/3 637/3/3
f 639/1/3 636/1/3 635/1/3
f 640/1/3 636/1/3 639/1/3
f 641/1/3 638/1/3 637/1/3
f 642/1/3 638/1/3 641/1/3
f 646/3/3 640/3/3 639/3/3
f 647/3/3 640/3/3 646/3/3
f 648/3/3 642/3/3 641/3/3
f 649/1/3 643/1/3 642/1/3
f 649/3/3 642/3/3 648/3/3
f 650/3/3 644/3/3 643/3/3
f 650/1/3 643/1/3 649/1/3
f 651/1/3 645/1/3 644/1/3
f 651/3/3 644/3/3 650/3/3
f 652/3/3 646/3/3 645/3/3
f 652/1/3 645/1/3 651/1/3
f 653/1/3 647/1/3 646/1/3
f 653/3/3 646/3/3 652/3/3
f 654/1/3 647/1/3 653/1/3
f 662/3/3 656/3/3 655/3/3
f 663/1/3 657/1/3 656/1/3
f 663/3/3 656/3/3 662/3/3
f 664/3/3 658/3/3 657/3/3
f 664/1/3 657/1/3 663/1/3
f 665/1/3 659/1/3 658/1/3
f 665/3/3 658/3/3 664/3/3
f 666/3/3 660/3/3 659/3/3
f 666/1/3 659/1/3 665/1/3
f 667/1/3 661/1/3 660/1/3
f 667/3/3 660/3/3 666/3/3
f 668/1/3 661/1/3 667/1/3
f 669/1/3 663/1/3 662/1/3
f 670/1/3 663/1/3 669/1/3
f 671/3/3 668/3/3 667/3/3
f 672/3/3 668/3/3 671/3/3
f 673/3/3 670/3/3 669/3/3
f 674/3/3 670/3/3 673/3/3
f 678/1/3 672/1/3 671/1/3
f 679/1/3 672/1/3 678/1/3
f 680/1/3 674/1/3 673/1/3
f 681/3/3 675/3/3 674/3/3
f 681/1/3 674/1/3 680/1/3
f 682/1/3 676/1/3 675/1/3
f 682/3/3 675/3/3 681/3/3
f 683/3/3 677/3/3 676/3/3
f 683/1/3 676/1/3 682/1/3
f 684/1/3 678/1/3 677/1/3
f 684/3/3 677/3/3 683/3/3
f 685/3/3 679/3/3 678/3/3
f 685/1/3 678/1/3 684/1/3
f 686/3/3 679/3/3 685/3/3
f 692/1/3 688/1/3 687/1/3
f 693/3/3 689/3/3 688/3/3
f 693/1/3 688/1/3 692/1/3
f 694/3/3 689/3/3 693/3/3
f 699/3/3 691/3/3 690/3/3
f 700/1/3 692/1/3 691/1/3
f 700/3/3 691/3/3 699/3/3
f 701/3/3 693/3/3 692/3/3
f 701/1/3 692/1/3 700/1/3
f 702/1/3 694/1/3 693/1/3
f 702/3/3 693/3/3 701/3/3
f 703/3/3 695/3/3 694/3/3
f 703/1/3 694/1/3 702/1/3
f 704/1/3 696/1/3 695/1/3
f 704/3/3 695/3/3 703/3/3
f 705/1/3 696/1/3 704/1/3
f 708/1/3 698/1/3 697/1/3
f 709/3/3 699/3/3 698/3/3
f 709/1/3 698/1/3 708/1/3
f 710/3/3 699/3/3 709/3/3
f 711/1/3 706/1/3 705/1/3
f 712/3/3 707/3/3 706/3/3
f 712/1/3 706/1/3 711/1/3
f 713/3/3 707/3/3 712/3/3
f 714/3/3 709/3/3 708/3/3
f 715/1/3 710/1/3 709/1/3
f 715/3/3 709/3/3 714/3/3
f 716/1/3 710/1/3 715/1/3
f 717/3/3 712/3/3 711/3/3
f 718/1/3 713/1/3 712/1/3
f 718/3/3 712/3/3 717/3/3
f 719/1/3 713/1/3 718/1/3
f 720/1/3 715/1/3 714/1/3
f 721/3/3 716/3/3 715/3/3
f 721/1/3 715/1/3 720/1/3
f 722/3/3 716/3/3 721/3/3
f 723/1/3 718/1/3 717/1/3
f 724/3/3 719/3/3 718/3/3
f 724/1/3 718/1/3 723/1/3
f 725/3/3 719/3/3 724/3/3
f 726/3/3 721/3/3 720/3/3
f 727/1/3 722/1/3 721/1/3
f 727/3/3 721/3/3 726/3/3
f 728/1/3 722/1/3 727/1/3
f 734/3/3 724/3/3 723/3/3
f 735/1/3 725/1/3 724/1/3
f 735/3/3 724/3/3 734/3/3
f 736/1/3 725/1/3 735/1/3
f 737/1/3 729/1/3 728/1/3
f 738/3/3 730/3/3 729/3/3
f 738/1/3 729/1/3 737/1/3
f 739/1/3 731/1/3 730/1/3
f 739/3/3 730/3/3 738/3/3
f 740/3/3 732/3/3 731/3/3
f 740/1/3 731/1/3 739/1/3
f 741/1/3 733/1/3 732/1/3
f 741/3/3 732/3/3 740/3/3
f 742/3/3 734/3/3 733/3/3
f 742/1/3 733/1/3 741/1/3
f 743/3/3 734/3/3 742/3/3
f 744/3/3 740/3/3 739/3/3
f 745/1/3 741/1/3 740/1/3
f 745/3/3 740/3/3 744/3/3
f 746/1/3 741/1/3 745/1/3
f 752/3/3 748/3/3 747/3/3
f 753/1/3 749/1/3 748/1/3
f 753/3/3 748/3/3 752/3/3
f 754/1/3 749/1/3 753/1/3
f 759/1/3 751/1/3 750/1/3
f 760/3/3 752/3/3 751/3/3
f 760/1/3 751/1/3 759/1/3
f 761/1/3 753/1/3 752/1/3
f 761/3/3 752/3/3 760/3/3
f 762/3/3 754/3/3 753/3/3
f 762/1/3 753/1/3 761/1/3
f 763/1/3 755/1/3 754/1/3
f 763/3/3 754/3/3 762/3/3
f 764/3/3 756/3/3 755/3/3
f 764/1/3 755/1/3 763/1/3
f 765/3/3 756/3/3 764/3/3
f 768/3/3 758/3/3 757/3/3
f 769/1/3 759/1/3 758/1/3
f 769/3/3 758/3/3 768/3/3
f 770/1/3 759/1/3 769/1/3
f 771/3/3 766/3/3 765/3/3
f 772/1/3 767/1/3 766/1/3
f 772/3/3 766/3/3 771/3/3
f 773/1/3 767/1/3 772/1/3
f 774/1/3 769/1/3 768/1/3
f 775/3/3 770/3/3 769/3/3
f 775/1/3 769/1/3 774/1/3
f 776/3/3 770/3/3 775/3/3
f 777/1/3 772/1/3 771/1/3
f 778/3/3 773/3/3 772/3/3
f 778/1/3 772/1/3 777/1/3
f 779/3/3 773/3/3 778/3/3
f 780/3/3 775/3/3 774/3/3
f 781/1/3 776/1/3 775/1/3
f 781/3/3 775/3/3 780/3/3
f 782/1/3 776/1/3 781/1/3
f 783/3/3 778/3/3 777/3/3
f 784/1/3 779/1/3 778/1/3
f 784/3/3 778/3/3 783/3/3
f 785/1/3 779/1/3 784/1/3
f 786/1/3 781/1/3 780/1/3
f 787/3/3 782/3/3 781/3/3
f 787/1/3 781/1/3 786/1/3
f 788/3/3 782/3/3 787/3/3
f 794/1/3 784/1/3 783/1/3
f 795/3/3 785/3/3 784/3/3
f 795/1/3 784/1/3 794/1/3
f 796/3/3 785/3/3 795/3/3
f 797/3/3 789/3/3 788/3/3
f 798/1/3 790/1/3 789/1/3
f 798/3/3 789/3/3 797/3/3
f 799/3/3 791/3/3 790/3/3
f 799/1/3 790/1/3 798/1/3
f 800/1/3 792/1/3 791/1/3
f 800/3/3 791/3/3 799/3/3
f 801/3/3 793/3/3 792/3/3
f 801/1/3 792/1/3 800/1/3
f 802/1/3 794/1/3 793/1/3
f 802/3/3 793/3/3 801/3/3
f 803/1/3 794/1/3 802/1/3
f 804/1/3 800/1/3 799/1/3
f 805/3/3 801/3/3 800/3/3
f 805/1/3 800/1/3 804/1/3
f 806/3/3 801/3/3 805/3/3
f 812/1/3 808/1/3 807/1/3
f 813/3/3 809/3/3 808/3/3
f 813/1/3 808/1/3 812/1/3
f 814/1/3 810/1/3 809/1/3
f 814/3/3 809/3/3 813/3/3
f 815/3/3 811/3/3 810/3/3
f 815/1/3 810/1/3 814/1/3
f 816/3/3 811/3/3 815/3/3
f 817/3/3 813/3/3 812/3/3
f 818/1/3 814/1/3 813/1/3
f 818/3/3 813/3/3 817/3/3
f 819/3/3 815/3/3 814/3/3
f 819/1/3 814/1/3 818/1/3
f 820/1/3 816/1/3 815/1/3
f 820/3/3 815/3/3 819/3/3
f 821/1/3 816/1/3 820/1/3
f 827/3/3 823/3/3 822/3/3
f 828/1/3 824/1/3 823/1/3
f 828/3/3 823/3/3 827/3/3
f 829/3/3 825/3/3 824/3/3
f 829/1/3 824/1/3 828/1/3
f 830/1/3 826/1/3 825/1/3
f 830/3/3 825/3/3 829/3/3
f 831/1/3 826/1/3 830/1/3
f 832/1/3 828/1/3 827/1/3
f 833/3/3 829/3/3 828/3/3
f 833/1/3 828/1/3 832/1/3
f 834/1/3 830/1/3 829/1/3
f 834/3/3 829/3/3 833/3/3
f 835/3/3 831/3/3 830/3/3
f 835/1/3 830/1/3 834/1/3
f 836/3/3 831/3/3 835/3/3
f 844/1/3 838/1/3 837/1/3
f 845/3/3 839/3/3 838/3/3
f 845/1/3 838/1/3 844/1/3
f 846/1/3 840/1/3 839/1/3
f 846/3/3 839/3/3 845/3/3
f 847/3/3 841/3/3 840/3/3
f 847/1/3 840/1/3 846/1/3
f 848/1/3 842/1/3 841/1/3
f 848/3/3 841/3/3 847/3/3
f 849/3/3 843/3/3 842/3/3
f 849/1/3 842/1/3 848/1/3
f 850/3/3 843/3/3 849/3/3
f 851/3/3 845/3/3 844/3/3
f 852/3/3 845/3/3 851/3/3
f 853/1/3 850/1/3 849/1/3
f 854/1/3 850/1/3 853/1/3
f 855/1/3 852/1/3 851/1/3
f 856/1/3 852/1/3 855/1/3
f 860/3/3 854/3/3 853/3/3
f 861/3/3 854/3/3 860/3/3
f 862/3/3 856/3/3 855/3/3
f 863/1/3 857/1/3 856/1/3
f 863/3/3 856/3/3 862/3/3
f 864/3/3 858/3/3 857/3/3
f 864/1/3 857/1/3 863/1/3
f 865/1/3 859/1/3 858/1/3
f 865/3/3 858/3/3 864/3/3
f 866/3/3 860/3/3 859/3/3
f 866/1/3 859/1/3 865/1/3
f 867/1/3 861/1/3 860/1/3
f 867/3/3 860/3/3 866/3/3
f 868/1/3 861/1/3 867/1/3
f 876/3/3 870/3/3 869/3/3
f 877/1/3 871/1/3 870/1/3
f 877/3/3 870/3/3 876/3/3
f 878/3/3 872/3/3 871/3/3
f 878/1/3 871/1/3 877/1/3
f 879/1/3 873/1/3 872/1/3
f 879/3/3 872/3/3 878/3/3
f 880/3/3 874/3/3 873/3/3
f 880/1/3 873/1/3 879/1/3
f 881/1/3 875/1/3 874/1/3
f 881/3/3 874/3/3 880/3/3
f 882/1/3 875/1/3 881/1/3
f 883/1/3 877/1/3 876/1/3
f 884/1/3 877/1/3 883/1/3
f 885/3/3 882/3/3 881/3/3
f 886/3/3 882/3/3 885/3/3
f 887/3/3 884/3/3 883/3/3
f 888/3/3 884/3/3 887/3/3
f 892/1/3 886/1/3 885/1/3
f 893/1/3 886/1/3 892/1/3
f 894/1/3 888/1/3 887/1/3
f 895/3/3 889/3/3 888/3/3
f 895/1/3 888/1/3 894/1/3
f 896/1/3 890/1/3 889/1/3
f 896/3/3 889/3/3 895/3/3
f 897/3/3 891/3/3 890/3/3
f 897/1/3 890/1/3 896/1/3
f 898/1/3 892/1/3 891/1/3
f 898/3/3 891/3/3 897/3/3
f 899/3/3 893/3/3 892/3/3
f 899/1/3 892/1/3 898/1/3
f 900/3/3 893/3/3 899/3/3
f 906/1/3 902/1/3 901/1/3
f 907/3/3 903/3/3 902/3/3
f 907/1/3 902/1/3 906/1/3
f 908/3/3 903/3/3 907/3/3
f 913/3/3 905/3/3 904/3/3
f 914/1/3 906/1/3 905/1/3
f 914/3/3 905/3/3 913/3/3
f 915/3/3 907/3/3 906/3/3
f 915/1/3 906/1/3 914/1/3
f 916/1/3 908/1/3 907/1/3
f 916/3/3 907/3/3 915/3/3
f 917/3/3 909/3/3 908/3/3
f 917/1/3 908/1/3 916/1/3
f 918/1/3 910/1/3 909/1/3
f 918/3/3 909/3/3 917/3/3
f 919/1/3 910/1/3 918/1/3
f 922/1/3 912/1/3 911/1/3
f 923/3/3 913/3/3 912/3/3
f 923/1/3 912/1/3 922/1/3
f 924/3/3 913/3/3 923/3/3
f 925/1/3 920/1/3 919/1/3
f 926/3/3 921/3/3 920/3/3
f 926/1/3 920/1/3 925/1/3
f 927/3/3 921/3/3 926/3/3
f 928/3/3 923/3/3 922/3/3
f 929/1/3 924/1/3 923/1/3
f 929/3/3 923/3/3 928/3/3
f 930/1/3 924/1/3 929/1/3
f 931/3/3 926/3/3 925/3/3
f 932/1/3 927/1/3 926/1/3
f 932/3/3 926/3/3 931/3/3
f 933/1/3 927/1/3 932/1/3
f 934/1/3 929/1/3 928/1/3
f 935/3/3 930/3/3 929/3/3
f 935/1/3 929/1/3 934/1/3
f 936/3/3 930/3/3 935/3/3
f 937/1/3 932/1/3 931/1/3
f 938/3/3 933/3/3 932/3/3
f 938/1/3 932/1/3 937/1/3
f 939/3/3 933/3/3 938/3/3
f 940/3/3 935/3/3 934/3/3
f 941/1/3 936/1/3 935/1/3
f 941/3/3 935/3/3 940/3/3
f 942/1/3 936/1/3 941/1/3
f 948/3/3 938/3/3 937/3/3
f 949/1/3 939/1/3 938/1/3
f 949/3/3 938/3/3 948/3/3
f 950/1/3 939/1/3 949/1/3
f 951/1/3 943/1/3 942/1/3
f 952/3/3 944/3/3 943/3/3
f 952/1/3 943/1/3 951/1/3
f 953/1/3 945/1/3 944/1/3
f 953/3/3 944/3/3 952/3/3
f 954/3/3 946/3/3 945/3/3
f 954/1/3 945/1/3 953/1/3
f 955/1/3 947/1/3 946/1/3
f 955/3/3 946/3/3 954/3/3
f 956/3/3 948/3/3 947/3/3
f 956/1/3 947/1/3 955/1/3
f 957/3/3 948/3/3 956/3/3
f 958/3/3 954/3/3 953/3/3
f 959/1/3 955/1/3 954/1/3
f 959/3/3 954/3/3 958/3/3
f 960/1/3 955/1/3 959/1/3
f 966/3/3 962/3/3 961/3/3
f 967/1/3 963/1/3 962/1/3
f 967/3/3 962/3/3 966/3/3
f 968/1/3 963/1/3 967/1/3
f 973/1/3 965/1/3 964/1/3
f 974/3/3 966/3/3 965/3/3
f 974/1/3 965/1/3 973/1/3
f 975/1/3 967/1/3 966/1/3
f 975/3/3 966/3/3 974/3/3
f 976/3/3 968/3/3 967/3/3
f 976/1/3 967/1/3 975/1/3
f 977/1/3 969/1/3 968/1/3
f 977/3/3 968/3/3 976/3/3
f 978/3/3 970/3/3 969/3/3
f 978/1/3 969/1/3 977/1/3
f 979/3/3 970/3/3 978/3/3
f 982/3/3 972/3/3 971/3/3
f 983/1/3 973/1/3 972/1/3
f 983/3/3 972/3/3 982/3/3
f 984/1/3 973/1/3 983/1/3
f 985/3/3 980/3/3 979/3/3
f 986/1/3 981/1/3 980/1/3
f 986/3/3 980/3/3 985/3/3
f 987/1/3 981/1/3 986/1/3
f 988/1/3 983/1/3 982/1/3
f 989/3/3 984/3/3 983/3/3
f 989/1/3 983/1/3 988/1/3
f 990/3/3 984/3/3 989/3/3
f 991/1/3 986/1/3 985/1/3
f 992/3/3 987/3/3 986/3/3
f 992/1/3 986/1/3 991/1/3
f 993/3/3 987/3/3 992/3/3
f 994/3/3 989/3/3 988/3/3
f 995/1/3 990/1/3 989/1/3
f 995/3/3 989/3/3 994/3/3
f 996/1/3 990/1/3 995/1/3
f 997/3/3 992/3/3 991/3/3
f 998/1/3 993/1/3 992/1/3
f 998/3/3 992/3/3 997/3/3
f 999/1/3 993/1/3 998/1/3
f 1000/1/3 995/1/3 994/1/3
f 1001/3/3 996/3/3 995/3/3
f 1001/1/3 995/1/3 1000/1/3
f 1002/3/3 996/3/3 1001/3/3
f 1008/1/3 998/1/3 997/1/3
f 1009/3/3 999/3/3 998/3/3
f 1009/1/3 998/1/3 1008/1/3
f 1010/3/3 999/3/3 1009/3/3
f 1011/3/3 1003/3/3 1002/3/3
f 1012/1/3 1004/1/3 1003/1/3
f 1012/3/3 1003/3/3 1011/3/3
f 1013/3/3 1005/3/3 1004/3/3
f 1013/1/3 1004/1/3 1012/1/3
f 1014/1/3 1006/1/3 1005/1/3
f 1014/3/3 1005/3/3 1013/3/3
f 1015/3/3 1007/3/3 1006/3/3
f 1015/1/3 1006/1/3 1014/1/3
f 1016/1/3 1008/1/3 1007/1/3
f 1016/3/3 1007/3/3 1015/3/3
f 1017/1/3 1008/1/3 1016/1/3
f 1018/1/3 1014/1/3 1013/1/3
f 1019/3/3 1015/3/3 1014/3/3
f 1019/1/3 1014/1/3 1018/1/3
f 1020/3/3 1015/3/3 1019/3/3
f 1021/1/4 1022/1/4 1026/1/4
f 1022/3/4 1023/3/4 1027/3/4
f 1026/1/4 1022/1/4 1027/1/4
f 1027/3/4 1023/3/4 1028/3/4
f 1024/3/4 1025/3/4 1033/3/4
f 1025/1/4 1026/1/4 1034/1/4
f 1033/3/4 1025/3/4 1034/3/4
f 1026/3/4 1027/3/4 1035/3/4
f 1034/1/4 1026/1/4 1035/1/4
f 1027/1/4 1028/1/4 1036/1/4
f 1035/3/4 1027/3/4 1036/3/4
f 1028/3/4 1029/3/4 1037/3/4
f 1036/1/4 1028/1/4 1037/1/4
f 1029/1/4 1030/1/4 1038/1/4
f 1037/3/4 1029/3/4 1038/3/4
f 1038/1/4 1030/1/4 1039/1/4
f 1031/1/4 1032/1/4 1042/1/4
f 1032/3/4 1033/3/4 1043/3/4
f 1042/1/4 1032/1/4 1043/1/4
f 1043/3/4 1033/3/4 1044/3/4
f 1039/1/4 1040/1/4 1045/1/4
f 1040/3/4 1041/3/4 1046/3/4
f 1045/1/4 1040/1/4 1046/1/4
f 1046/3/4 1041/3/4 1047/3/4
f 1042/3/4 1043/3/4 1048/3/4
f 1043/1/4 1044/1/4 1049/1/4
f 1048/3/4 1043/3/4 1049/3/4
f 1049/1/4 1044/1/4 1050/1/4
f 1045/3/4 1046/3/4 1051/3/4
f 1046/1/4 1047/1/4 1052/1/4
f 1051/3/4 1046/3/4 1052/3/4
f 1052/1/4 1047/1/4 1053/1/4
f 1048/1/4 1049/1/4 1054/1/4
f 1049/3/4 1050/3/4 1055/3/4
f 1054/1/4 1049/1/4 1055/1/4
f 1055/3/4 1050/3/4 1056/3/4
f 1051/1/4 1052/1/4 1057/1/4
f 1052/3/4 1053/3/4 1058/3/4
f 1057/1/4 1052/1/4 1058/1/4
f 1058/3/4 1053/3/4 1059/3/4
f 1054/3/4 1055/3/4 1060/3/4
f 1055/1/4 1056/1/4 1061/1/4
f 1060/3/4 1055/3/4 1061/3/4
f 1061/1/4 1056/1/4 1062/1/4
f 1057/3/4 1058/3/4 1068/3/4
f 1058/1/4 1059/1/4 1069/1/4
f 1068/3/4 1058/3/4 1069/3/4
f 1069/1/4 1059/1/4 1070/1/4
f 1062/1/4 1063/1/4 1071/1/4
f 1063/3/4 1064/3/4 1072/3/4
f 1071/1/4 1063/1/4 1072/1/4
f 1064/1/4 1065/1/4 1073/1/4
f 1072/3/4 1064/3/4 1073/3/4
f 1065/3/4 1066/3/4 1074/3/4
f 1073/1/4 1065/1/4 1074/1/4
f 1066/1/4 1067/1/4 1075/1/4
f 1074/3/4 1066/3/4 1075/3/4
f 1067/3/4 1068/3/4 1076/3/4
f 1075/1/4 1067/1/4 1076/1/4
f 1076/3/4 1068/3/4 1077/3/4
f 1073/3/4 1074/3/4 1078/3/4
f 1074/1/4 1075/1/4 1079/1/4
f 1078/3/4 1074/3/4 1079/3/4
f 1079/1/4 1075/1/4 1080/1/4
f 1081/3/4 1082/3/4 1086/3/4
f 1082/1/4 1083/1/4 1087/1/4
f 1086/3/4 1082/3/4 1087/3/4
f 1087/1/4 1083/1/4 1088/1/4
f 1084/1/4 1085/1/4 1093/1/4
f 1085/3/4 1086/3/4 1094/3/4
f 1093/1/4 1085/1/4 1094/1/4
f 1086/1/4 1087/1/4 1095/1/4
f 1094/3/4 1086/3/4 1095/3/4
f 1087/3/4 1088/3/4 1096/3/4
f 1095/1/4 1087/1/4 1096/1/4
f 1088/1/4 1089/1/4 1097/1/4
f 1096/3/4 1088/3/4 1097/3/4
f 1089/3/4 1090/3/4 1098/3/4
f 1097/1/4 1089/1/4 1098/1/4
f 1098/3/4 1090/3/4 1099/3/4
f 1091/3/4 1092/3/4 1102/3/4
f 1092/1/4 1093/1/4 1103/1/4
f 1102/3/4 1092/3/4 1103/3/4
f 1103/1/4 1093/1/4 1104/1/4
f 1099/3/4 1100/3/4 1105/3/4
f 1100/1/4 1101/1/4 1106/1/4
f 1105/3/4 1100/3/4 1106/3/4
f 1106/1/4 1101/1/4 1107/1/4
f 1102/1/4 1103/1/4 1108/1/4
f 1103/3/4 1104/3/4 1109/3/4
f 1108/1/4 1103/1/4 1109/1/4
f 1109/3/4 1104/3/4 1110/3/4
f 1105/1/4 1106/1/4 1111/1/4
f 1106/3/4 1107/3/4 1112/3/4
f 1111/1/4 1106/1/4 1112/1/4
f 1112/3/4 1107/3/4 1113/3/4
f 1108/3/4 1109/3/4 1114/3/4
f 1109/1/4 1110/1/4 1115/1/4
f 1114/3/4 1109/3/4 1115/3/4
f 1115/1/4 1110/1/4 1116/1/4
f 1111/3/4 1112/3/4 1117/3/4
f 1112/1/4 1113/1/4 1118/1/4
f 1117/3/4 1112/3/4 1118/3/4
f 1118/1/4 1113/1/4 1119/1/4
f 1114/1/4 1115/1/4 1120/1/4
f 1115/3/4 1116/3/4 1121/3/4
f 1120/1/4 1115/1/4 1121/1/4
f 1121/3/4 1116/3/4 1122/3/4
f 1117/1/4 1118/1/4 1128/1/4
f 1118/3/4 1119/3/4 1129/3/4
f 1128/1/4 1118/1/4 1129/1/4
f 1129/3/4 1119/3/4 1130/3/4
f 1122/3/4 1123/3/4 1131/3/4
f 1123/1/4 1124/1/4 1132/1/4
f 1131/3/4 1123/3/4 1132/3/4
f 1124/3/4 1125/3/4 1133/3/4
f 1132/1/4 1124/1/4 1133/1/4
f 1125/1/4 1126/1/4 1134/1/4
f 1133/3/4 1125/3/4 1134/3/4
f 1126/3/4 1127/3/4 1135/3/4
f 1134/1/4 1126/1/4 1135/1/4
f 1127/1/4 1128/1/4 1136/1/4
f 1135/3/4 1127/3/4 1136/3/4
f 1136/1/4 1128/1/4 1137/1/4
f 1133/1/4 1134/1/4 1138/1/4
f 1134/3/4 1135/3/4 1139/3/4
f 1138/1/4 1134/1/4 1139/1/4
f 1139/3/4 1135/3/4 1140/3/4
f 1141/1/4 1142/1/4 1148/1/4
f 1142/3/4 1143/3/4 1149/3/4
f 1148/1/4 1142/1/4 1149/1/4
f 1143/1/4 1144/1/4 1150/1/4
f 1149/3/4 1143/3/4 1150/3/4
f 1144/3/4 1145/3/4 1151/3/4
f 1150/1/4 1144/1/4 1151/1/4
f 1145/1/4 1146/1/4 1152/1/4
f 1151/3/4 1145/3/4 1152/3/4
f 1146/3/4 1147/3/4 1153/3/4
f 1152/1/4 1146/1/4 1153/1/4
f 1153/3/4 1147/3/4 1154/3/4
f 1148/3/4 1149/3/4 1155/3/4
f 1155/3/4 1149/3/4 1156/3/4
f 1153/1/4 1154/1/4 1157/1/4
f 1157/1/4 1154/1/4 1158/1/4
f 1155/1/4 1156/1/4 1159/1/4
f 1159/1/4 1156/1/4 1160/1/4
f 1157/3/4 1158/3/4 1164/3/4
f 1164/3/4 1158/3/4 1165/3/4
f 1159/3/4 1160/3/4 1166/3/4
f 1160/1/4 1161/1/4 1167/1/4
f 1166/3/4 1160/3/4 1167/3/4
f 1161/3/4 1162/3/4 1168/3/4
f 1167/1/4 1161/1/4 1168/1/4
f 1162/1/4 1163/1/4 1169/1/4
f 1168/3/4 1162/3/4 1169/3/4
f 1163/3/4 1164/3/4 1170/3/4
f 1169/1/4 1163/1/4 1170/1/4
f 1164/1/4 1165/1/4 1171/1/4
f 1170/3/4 1164/3/4 1171/3/4
f 1171/1/4 1165/1/4 1172/1/4
f 1173/3/4 1174/3/4 1180/3/4
f 1174/1/4 1175/1/4 1181/1/4
f 1180/3/4 1174/3/4 1181/3/4
f 1175/3/4 1176/3/4 1182/3/4
f 1181/1/4 1175/1/4 1182/1/4
f 1176/1/4 1177/1/4 1183/1/4
f 1182/3/4 1176/3/4 1183/3/4
f 1177/3/4 1178/3/4 1184/3/4
f 1183/1/4 1177/1/4 1184/1/4
f 1178/1/4 1179/1/4 1185/1/4
f 1184/3/4 1178/3/4 1185/3/4
f 1185/1/4 1179/1/4 1186/1/4
f 1180/1/4 1181/1/4 1187/1/4
f 1187/1/4 1181/1/4 1188/1/4
f 1185/3/4 1186/3/4 1189/3/4
f 1189/3/4 1186/3/4 1190/3/4
f 1187/3/4 1188/3/4 1191/3/4
f 1191/3/4 1188/3/4 1192/3/4
f 1189/1/4 1190/1/4 1196/1/4
f 1196/1/4 1190/1/4 1197/1/4
f 1191/1/4 1192/1/4 1198/1/4
f 1192/3/4 1193/3/4 1199/3/4
f 1198/1/4 1192/1/4 1199/1/4
f 1193/1/4 1194/1/4 1200/1/4
f 1199/3/4 1193/3/4 1200/3/4
f 1194/3/4 1195/3/4 1201/3/4
f 1200/1/4 1194/1/4 1201/1/4
f 1195/1/4 1196/1/4 1202/1/4
f 1201/3/4 1195/3/4 1202/3/4
f 1196/3/4 1197/3/4 1203/3/4
f 1202/1/4 1196/1/4 1203/1/4
f 1203/3/4 1197/3/4 1204/3/4
f 1205/1/4 1206/1/4 1210/1/4
f 1206/3/4 1207/3/4 1211/3/4
f 1210/1/4 1206/1/4 1211/1/4
f 1207/1/4 1208/1/4 1212/1/4
f 1211/3/4 1207/3/4 1212/3/4
f 1208/3/4 1209/3/4 1213/3/4
f 1212/1/4 1208/1/4 1213/1/4
f 1213/3/4 1209/3/4 1214/3/4
f 1210/3/4 1211/3/4 1215/3/4
f 1211/1/4 1212/1/4 1216/1/4
f 1215/3/4 1211/3/4 1216/3/4
f 1212/3/4 1213/3/4 1217/3/4
f 1216/1/4 1212/1/4 1217/1/4
f 1213/1/4 1214/1/4 1218/1/4
f 1217/3/4 1213/3/4 1218/3/4
f 1218/1/4 1214/1/4 1219/1/4
f 1220/3/4 1221/3/4 1225/3/4
f 1221/1/4 1222/1/4 1226/1/4
f 1225/3/4 1221/3/4 1226/3/4
f 1222/3/4 1223/3/4 1227/3/4
f 1226/1/4 1222/1/4 1227/1/4
f 1223/1/4 1224/1/4 1228/1/4
f 1227/3/4 1223/3/4 1228/3/4
f 1228/1/4 1224/1/4 1229/1/4
f 1225/1/4 1226/1/4 1230/1/4
f 1226/3/4 1227/3/4 1231/3/4
f 1230/1/4 1226/1/4 1231/1/4
f 1227/1/4 1228/1/4 1232/1/4
f 1231/3/4 1227/3/4 1232/3/4
f 1228/3/4 1229/3/4 1233/3/4
f 1232/1/4 1228/1/4 1233/1/4
f 1233/3/4 1229/3/4 1234/3/4
f 1235/1/4 1236/1/4 1240/1/4
f 1236/3/4 1237/3/4 1241/3/4
f 1240/1/4 1236/1/4 1241/1/4
f 1241/3/4 1237/3/4 1242/3/4
f 1238/3/4 1239/3/4 1247/3/4
f 1239/1/4 1240/1/4 1248/1/4
f 1247/3/4 1239/3/4 1248/3/4
f 1240/3/4 1241/3/4 1249/3/4
f 1248/1/4 1240/1/4 1249/1/4
f 1241/1/4 1242/1/4 1250/1/4
f 1249/3/4 1241/3/4 1250/3/4
f 1242/3/4 1243/3/4 1251/3/4
f 1250/1/4 1242/1/4 1251/1/4
f 1243/1/4 1244/1/4 1252/1/4
f 1251/3/4 1243/3/4 1252/3/4
f 1252/1/4 1244/1/4 1253/1/4
f 1245/1/4 1246/1/4 1256/1/4
f 1246/3/4 1247/3/4 1257/3/4
f 1256/1/4 1246/1/4 1257/1/4
f 1257/3/4 1247/3/4 1258/3/4
f 1253/1/4 1254/1/4 1259/1/4
f 1254/3/4 1255/3/4 1260/3/4
f 1259/1/4 1254/1/4 1260/1/4
f 1260/3/4 1255/3/4 1261/3/4
f 1256/3/4 1257/3/4 1262/3/4
f 1257/1/4 1258/1/4 1263/1/4
f 1262/3/4 1257/3/4 1263/3/4
f 1263/1/4 1258/1/4 1264/1/4
f 1259/3/4 1260/3/4 1265/3/4
f 1260/1/4 1261/1/4 1266/1/4
f 1265/3/4 1260/3/4 1266/3/4
f 1266/1/4 1261/1/4 1267/1/4
f 1262/1/4 1263/1/4 1268/1/4
f 1263/3/4 1264/3/4 1269/3/4
f 1268/1/4 1263/1/4 1269/1/4
f 1269/3/4 1264/3/4 1270/3/4
f 1265/1/4 1266/1/4 1271/1/4
f 1266/3/4 1267/3/4 1272/3/4
f 1271/1/4 1266/1/4 1272/1/4
f 1272/3/4 1267/3/4 1273/3/4
f 1268/3/4 1269/3/4 1274/3/4
f 1269/1/4 1270/1/4 1275/1/4
f 1274/3/4 1269/3/4 1275/3/4
f 1275/1/4 1270/1/4 1276/1/4
f 1271/3/4 1272/3/4 1282/3/4
f 1272/1/4 1273/1/4 1283/1/4
f 1282/3/4 1272/3/4 1283/3/4
f 1283/1/4 1273/1/4 1284/1/4
f 1276/1/4 1277/1/4 1285/1/4
f 1277/3/4 1278/3/4 1286/3/4
f 1285/1/4 1277/1/4 1286/1/4
f 1278/1/4 1279/1/4 1287/1/4
f 1286/3/4 1278/3/4 1287/3/4
f 1279/3/4 1280/3/4 1288/3/4
f 1287/1/4 1279/1/4 1288/1/4
f 1280/1/4 1281/1/4 1289/1/4
f 1288/3/4 1280/3/4 1289/3/4
f 1281/3/4 1282/3/4 1290/3/4
f 1289/1/4 1281/1/4 1290/1/4
f 1290/3/4 1282/3/4 1291/3/4
f 1287/3/4 1288/3/4 1292/3/4
f 1288/1/4 1289/1/4 1293/1/4
f 1292/3/4 1288/3/4 1293/3/4
f 1293/1/4 1289/1/4 1294/1/4
f 1295/3/4 1296/3/4 1300/3/4
f 1296/1/4 1297/1/4 1301/1/4
f 1300/3/4 1296/3/4 1301/3/4
f 1301/1/4 1297/1/4 1302/1/4
f 1298/1/4 1299/1/4 1307/1/4
f 1299/3/4 1300/3/4 1308/3/4
f 1307/1/4 1299/1/4 1308/1/4
f 1300/1/4 1301/1/4 1309/1/4
f 1308/3/4 1300/3/4 1309/3/4
f 1301/3/4 1302/3/4 1310/3/4
f 1309/1/4 1301/1/4 1310/1/4
f 1302/1/4 1303/1/4 1311/1/4
f 1310/3/4 1302/3/4 1311/3/4
f 1303/3/4 1304/3/4 1312/3/4
f 1311/1/4 1303/1/4 1312/1/4
f 1312/3/4 1304/3/4 1313/3/4
f 1305/3/4 1306/3/4 1316/3/4
f 1306/1/4 1307/1/4 1317/1/4
f 1316/3/4 1306/3/4 1317/3/4
f 1317/1/4 1307/1/4 1318/1/4
f 1313/3/4 1314/3/4 1319/3/4
f 1314/1/4 1315/1/4 1320/1/4
f 1319/3/4 1314/3/4 1320/3/4
f 1320/1/4 1315/1/4 1321/1/4
f 1316/1/4 1317/1/4 1322/1/4
f 1317/3/4 1318/3/4 1323/3/4
f 1322/1/4 1317/1/4 1323/1/4
f 1323/3/4 1318/3/4 1324/3/4
f 1319/1/4 1320/1/4 1325/1/4
f 1320/3/4 1321/3/4 1326/3/4
f 1325/1/4 1320/1/4 1326/1/4
f 1326/3/4 1321/3/4 1327/3/4
f 1322/3/4 1323/3/4 1328/3/4
f 1323/1/4 1324/1/4 1329/1/4
f 1328/3/4 1323/3/4 1329/3/4
f 1329/1/4 1324/1/4 1330/1/4
f 1325/3/4 1326/3/4 1331/3/4
f 1326/1/4 1327/1/4 1332/1/4
f 1331/3/4 1326/3/4 1332/3/4
f 1332/1/4 1327/1/4 1333/1/4
f 1328/1/4 1329/1/4 1334/1/4
f 1329/3/4 1330/3/4 1335/3/4
f 1334/1/4 1329/1/4 1335/1/4
f 1335/3/4 1330/3/4 1336/3/4
f 1331/1/4 1332/1/4 1342/1/4
f 1332/3/4 1333/3/4 1343/3/4
f 1342/1/4 1332/1/4 1343/1/4
f 1343/3/4 1333/3/4 1344/3/4
f 1336/3/4 1337/3/4 1345/3/4
f 1337/1/4 1338/1/4 1346/1/4
f 1345/3/4 1337/3/4 1346/3/4
f 1338/3/4 1339/3/4 1347/3/4
f 1346/1/4 1338/1/4 1347/1/4
f 1339/1/4 1340/1/4 1348/1/4
f 1347/3/4 1339/3/4 1348/3/4
f 1340/3/4 1341/3/4 1349/3/4
f 1348/1/4 1340/1/4 1349/1/4
f 1341/1/4 1342/1/4 1350/1/4
f 1349/3/4 1341/3/4 1350/3/4
f 1350/1/4 1342/1/4 1351/1/4
f 1347/1/4 1348/1/4 1352/1/4
f 1348/3/4 1349/3/4 1353/3/4
f 1352/1/4 1348/1/4 1353/1/4
f 1353/3/4 1349/3/4 1354/3/4
f 1355/1/4 1356/1/4 1362/1/4
f 1356/3/4 1357/3/4 1363/3/4
f 1362/1/4 1356/1/4 1363/1/4
f 1357/1/4 1358/1/4 1364/1/4
f 1363/3/4 1357/3/4 1364/3/4
f 1358/3/4 1359/3/4 1365/3/4
f 1364/1/4 1358/1/4 1365/1/4
f 1359/1/4 1360/1/4 1366/1/4
f 1365/3/4 1359/3/4 1366/3/4
f 1360/3/4 1361/3/4 1367/3/4
f 1366/1/4 1360/1/4 1367/1/4
f 1367/3/4 1361/3/4 1368/3/4
f 1362/3/4 1363/3/4 1369/3/4
f 1369/3/4 1363/3/4 1370/3/4
f 1367/1/4 1368/1/4 1371/1/4
f 1371/1/4 1368/1/4 1372/1/4
f 1369/1/4 1370/1/4 1373/1/4
f 1373/1/4 1370/1/4 1374/1/4
f 1371/3/4 1372/3/4 1378/3/4
f 1378/3/4 1372/3/4 1379/3/4
f 1373/3/4 1374/3/4 1380/3/4
f 1374/1/4 1375/1/4 1381/1/4
f 1380/3/4 1374/3/4 1381/3/4
f 1375/3/4 1376/3/4 1382/3/4
f 1381/1/4 1375/1/4 1382/1/4
f 1376/1/4 1377/1/4 1383/1/4
f 1382/3/4 1376/3/4 1383/3/4
f 1377/3/4 1378/3/4 1384/3/4
f 1383/1/4 1377/1/4 1384/1/4
f 1378/1/4 1379/1/4 1385/1/4
f 1384/3/4 1378/3/4 1385/3/4
f 1385/1/4 1379/1/4 1386/1/4
f 1387/3/4 1388/3/4 1394/3/4
f 1388/1/4 1389/1/4 1395/1/4
f 1394/3/4 1388/3/4 1395/3/4
f 1389/3/4 1390/3/4 1396/3/4
f 1395/1/4 1389/1/4 1396/1/4
f 1390/1/4 1391/1/4 1397/1/4
f 1396/3/4 1390/3/4 1397/3/4
f 1391/3/4 1392/3/4 1398/3/4
f 1397/1/4 1391/1/4 1398/1/4
f 1392/1/4 1393/1/4 1399/1/4
f 1398/3/4 1392/3/4 1399/3/4
f 1399/1/4 1393/1/4 1400/1/4
f 1394/1/4 1395/1/4 1401/1/4
f 1401/1/4 1395/1/4 1402/1/4
f 1399/3/4 1400/3/4 1403/3/4
f 1403/3/4 1400/3/4 1404/3/4
f 1401/3/4 1402/3/4 1405/3/4
f 1405/3/4 1402/3/4 1406/3/4
f 1403/1/4 1404/1/4 1410/1/4
f 1410/1/4 1404/1/4 1411/1/4
f 1405/1/4 1406/1/4 1412/1/4
f 1406/3/4 1407/3/4 1413/3/4
f 1412/1/4 1406/1/4 1413/1/4
f 1407/1/4 1408/1/4 1414/1/4
f 1413/3/4 1407/3/4 1414/3/4
f 1408/3/4 1409/3/4 1415/3/4
f 1414/1/4 1408/1/4 1415/1/4
f 1409/1/4 1410/1/4 1416/1/4
f 1415/3/4 1409/3/4 1416/3/4
f 1410/3/4 1411/3/4 1417/3/4
f 1416/1/4 1410/1/4 1417/1/4
f 1417/3/4 1411/3/4 1418/3/4
f 1419/1/4 1420/1/4 1424/1/4
f 1420/3/4 1421/3/4 1425/3/4
f 1424/1/4 1420/1/4 1425/1/4
f 1421/1/4 1422/1/4 1426/1/4
f 1425/3/4 1421/3/4 1426/3/4
f 1422/3/4 1423/3/4 1427/3/4
f 1426/1/4 1422/1/4 1427/1/4
f 1427/3/4 1423/3/4 1428/3/4
f 1424/3/4 1425/3/4 1429/3/4
f 1425/1/4 1426/1/4 1430/1/4
f 1429/3/4 1425/3/4 1430/3/4
f 1426/3/4 1427/3/4 1431/3/4
f 1430/1/4 1426/1/4 1431/1/4
f 1427/1/4 1428/1/4 1432/1/4
f 1431/3/4 1427/3/4 1432/3/4
f 1432/1/4 1428/1/4 1433/1/4
f 1434/3/4 1435/3/4 1439/3/4
f 1435/1/4 1436/1/4 1440/1/4
f 1439/3/4 1435/3/4 1440/3/4
f 1436/3/4 1437/3/4 1441/3/4
f 1440/1/4 1436/1/4 1441/1/4
f 1437/1/4 1438/1/4 1442/1/4
f 1441/3/4 1437/3/4 1442/3/4
f 1442/1/4 1438/1/4 1443/1/4
f 1439/1/4 1440/1/4 1444/1/4
f 1440/3/4 1441/3/4 1445/3/4
f 1444/1/4 1440/1/4 1445/1/4
f 1441/1/4 1442/1/4 1446/1/4
f 1445/3/4 1441/3/4 1446/3/4
f 1442/3/4 1443/3/4 1447/3/4
f 1446/1/4 1442/1/4 1447/1/4
f 1447/3/4 1443/3/4 1448/3/4
f 1459/1/5 1450/1/5 1449/1/5
f 1460/3/5 1451/3/5 1450/3/5
f 1460/1/5 1450/1/5 1459/1/5
f 1461/1/5 1452/1/5 1451/1/5
f 1461/3/5 1451/3/5 1460/3/5
f 1462/3/5 1453/3/5 1452/3/5
f 1462/1/5 1452/1/5 1461/1/5
f 1463/3/5 1453/3/5 1462/3/5
f 1464/3/5 1455/3/5 1454/3/5
f 1465/1/5 1456/1/5 1455/1/5
f 1465/3/5 1455/3/5 1464/3/5
f 1466/3/5 1457/3/5 1456/3/5
f 1466/1/5 1456/1/5 1465/1/5
f 1467/1/5 1458/1/5 1457/1/5
f 1467/3/5 1457/3/5 1466/3/5
f 1468/1/5 1458/1/5 1467/1/5
f 1479/1/5 1470/1/5 1469/1/5
f 1480/3/5 1471/3/5 1470/3/5
f 1480/1/5 1470/1/5 1479/1/5
f 1481/1/5 1472/1/5 1471/1/5
f 1481/3/5 1471/3/5 1480/3/5
f 1482/3/5 1473/3/5 1472/3/5
f 1482/1/5 1472/1/5 1481/1/5
f 1483/3/5 1473/3/5 1482/3/5
f 1484/3/5 1475/3/5 1474/3/5
f 1485/1/5 1476/1/5 1475/1/5
f 1485/3/5 1475/3/5 1484/3/5
f 1486/3/5 1477/3/5 1476/3/5
f 1486/1/5 1476/1/5 1485/1/5
f 1487/1/5 1478/1/5 1477/1/5
f 1487/3/5 1477/3/5 1486/3/5
f 1488/1/5 1478/1/5 1487/1/5
f 1500/1/5 1490/1/5 1489/1/5
f 1501/3/5 1491/3/5 1490/3/5
f 1501/1/5 1490/1/5 1500/1/5
f 1502/1/5 1492/1/5 1491/1/5
f 1502/3/5 1491/3/5 1501/3/5
f 1503/3/5 1493/3/5 1492/3/5
f 1503/1/5 1492/1/5 1502/1/5
f 1504/3/5 1493/3/5 1503/3/5
f 1507/3/5 1495/3/5 1494/3/5
f 1508/1/5 1496/1/5 1495/1/5
f 1508/3/5 1495/3/5 1507/3/5
f 1509/3/5 1497/3/5 1496/3/5
f 1509/1/5 1496/1/5 1508/1/5
f 1510/1/5 1498/1/5 1497/1/5
f 1510/3/5 1497/3/5 1509/3/5
f 1511/1/5 1498/1/5 1510/1/5
f 1513/3/5 1500/3/5 1499/3/5
f 1514/3/5 1500/3/5 1513/3/5
f 1518/1/5 1505/1/5 1504/1/5
f 1519/1/5 1505/1/5 1518/1/5
f 1520/1/5 1507/1/5 1506/1/5
f 1521/1/5 1507/1/5 1520/1/5
f 1525/3/5 1512/3/5 1511/3/5
f 1526/3/5 1512/3/5 1525/3/5
f 1527/1/5 1515/1/5 1514/1/5
f 1528/3/5 1516/3/5 1515/3/5
f 1528/1/5 1515/1/5 1527/1/5
f 1529/1/5 1517/1/5 1516/1/5
f 1529/3/5 1516/3/5 1528/3/5
f 1530/3/5 1518/3/5 1517/3/5
f 1530/1/5 1517/1/5 1529/1/5
f 1531/3/5 1518/3/5 1530/3/5
f 1532/3/5 1522/3/5 1521/3/5
f 1533/1/5 1523/1/5 1522/1/5
f 1533/3/5 1522/3/5 1532/3/5
f 1534/3/5 1524/3/5 1523/3/5
f 1534/1/5 1523/1/5 1533/1/5
f 1535/1/5 1525/1/5 1524/1/5
f 1535/3/5 1524/3/5 1534/3/5
f 1536/1/5 1525/1/5 1535/1/5
f 1548/1/5 1538/1/5 1537/1/5
f 1549/3/5 1539/3/5 1538/3/5
f 1549/1/5 1538/1/5 1548/1/5
f 1550/1/5 1540/1/5 1539/1/5
f 1550/3/5 1539/3/5 1549/3/5
f 1551/3/5 1541/3/5 1540/3/5
f 1551/1/5 1540/1/5 1550/1/5
f 1552/3/5 1541/3/5 1551/3/5
f 1555/3/5 1543/3/5 1542/3/5
f 1556/1/5 1544/1/5 1543/1/5
f 1556/3/5 1543/3/5 1555/3/5
f 1557/3/5 1545/3/5 1544/3/5
f 1557/1/5 1544/1/5 1556/1/5
f 1558/1/5 1546/1/5 1545/1/5
f 1558/3/5 1545/3/5 1557/3/5
f 1559/1/5 1546/1/5 1558/1/5
f 1561/3/5 1548/3/5 1547/3/5
f 1562/3/5 1548/3/5 1561/3/5
f 1566/1/5 1553/1/5 1552/1/5
f 1567/1/5 1553/1/5 1566/1/5
f 1568/1/5 1555/1/5 1554/1/5
f 1569/1/5 1555/1/5 1568/1/5
f 1573/3/5 1560/3/5 1559/3/5
f 1574/3/5 1560/3/5 1573/3/5
f 1575/1/5 1563/1/5 1562/1/5
f 1576/3/5 1564/3/5 1563/3/5
f 1576/1/5 1563/1/5 1575/1/5
f 1577/1/5 1565/1/5 1564/1/5
f 1577/3/5 1564/3/5 1576/3/5
f 1578/3/5 1566/3/5 1565/3/5
f 1578/1/5 1565/1/5 1577/1/5
f 1579/3/5 1566/3/5 1578/3/5
f 1580/3/5 1570/3/5 1569/3/5
f 1581/1/5 1571/1/5 1570/1/5
f 1581/3/5 1570/3/5 1580/3/5
f 1582/3/5 1572/3/5 1571/3/5
f 1582/1/5 1571/1/5 1581/1/5
f 1583/1/5 1573/1/5 1572/1/5
f 1583/3/5 1572/3/5 1582/3/5
f 1584/1/5 1573/1/5 1583/1/5
f 1591/1/5 1586/1/5 1585/1/5
f 1592/3/5 1587/3/5 1586/3/5
f 1592/1/5 1586/1/5 1591/1/5
f 1593/3/5 1587/3/5 1592/3/5
f 1594/3/5 1589/3/5 1588/3/5
f 1595/1/5 1590/1/5 1589/1/5
f 1595/3/5 1589/3/5 1594/3/5
f 1596/1/5 1590/1/5 1595/1/5
f 1603/1/5 1598/1/5 1597/1/5
f 1604/3/5 1599/3/5 1598/3/5
f 1604/1/5 1598/1/5 1603/1/5
f 1605/3/5 1599/3/5 1604/3/5
f 1606/3/5 1601/3/5 1600/3/5
f 1607/1/5 1602/1/5 1601/1/5
f 1607/3/5 1601/3/5 1606/3/5
f 1608/1/5 1602/1/5 1607/1/5
f 1615/1/5 1610/1/5 1609/1/5
f 1616/3/5 1611/3/5 1610/3/5
f 1616/1/5 1610/1/5 1615/1/5
f 1617/3/5 1611/3/5 1616/3/5
f 1618/3/5 1613/3/5 1612/3/5
f 1619/1/5 1614/1/5 1613/1/5
f 1619/3/5 1613/3/5 1618/3/5
f 1620/1/5 1614/1/5 1619/1/5
f 1627/1/5 1622/1/5 1621/1/5
f 1628/3/5 1623/3/5 1622/3/5
f 1628/1/5 1622/1/5 1627/1/5
f 1629/3/5 1623/3/5 1628/3/5
f 1630/3/5 1625/3/5 1624/3/5
f 1631/1/5 1626/1/5 1625/1/5
f 1631/3/5 1625/3/5 1630/3/5
f 1632/1/5 1626/1/5 1631/1/5
f 1641/1/5 1634/1/5 1633/1/5
f 1642/1/5 1634/1/5 1641/1/5
f 1643/3/5 1636/3/5 1635/3/5
f 1644/3/5 1636/3/5 1643/3/5
f 1645/3/5 1638/3/5 1637/3/5
f 1646/3/5 1638/3/5 1645/3/5
f 1647/1/5 1640/1/5 1639/1/5
f 1648/1/5 1640/1/5 1647/1/5
f 1657/1/5 1650/1/5 1649/1/5
f 1658/1/5 1650/1/5 1657/1/5
f 1659/3/5 1652/3/5 1651/3/5
f 1660/3/5 1652/3/5 1659/3/5
f 1661/3/5 1654/3/5 1653/3/5
f 1662/3/5 1654/3/5 1661/3/5
f 1663/1/5 1656/1/5 1655/1/5
f 1664/1/5 1656/1/5 1663/1/5
f 1665/3/6 1666/3/6 1673/3/6
f 1673/3/6 1666/3/6 1674/3/6
f 1667/1/6 1668/1/6 1675/1/6
f 1675/1/6 1668/1/6 1676/1/6
f 1669/1/6 1670/1/6 1677/1/6
f 1677/1/6 1670/1/6 1678/1/6
f 1671/3/6 1672/3/6 1679/3/6
f 1679/3/6 1672/3/6 1680/3/6
f 1681/3/6 1682/3/6 1689/3/6
f 1689/3/6 1682/3/6 1690/3/6
f 1683/1/6 1684/1/6 1691/1/6
f 1691/1/6 1684/1/6 1692/1/6
f 1685/1/6 1686/1/6 1693/1/6
f 1693/1/6 1686/1/6 1694/1/6
f 1687/3/6 1688/3/6 1695/3/6
f 1695/3/6 1688/3/6 1696/3/6
f 1697/3/6 1698/3/6 1703/3/6
f 1698/1/6 1699/1/6 1704/1/6
f 1703/3/6 1698/3/6 1704/3/6
f 1704/1/6 1699/1/6 1705/1/6
f 1700/1/6 1701/1/6 1706/1/6
f 1701/3/6 1702/3/6 1707/3/6
f 1706/1/6 1701/1/6 1707/1/6
f 1707/3/6 1702/3/6 1708/3/6
f 1709/3/6 1710/3/6 1715/3/6
f 1710/1/6 1711/1/6 1716/1/6
f 1715/3/6 1710/3/6 1716/3/6
f 1716/1/6 1711/1/6 1717/1/6
f 1712/1/6 1713/1/6 1718/1/6
f 1713/3/6 1714/3/6 1719/3/6
f 1718/1/6 1713/1/6 1719/1/6
f 1719/3/6 1714/3/6 1720/3/6
f 1721/3/6 1722/3/6 1727/3/6
f 1722/1/6 1723/1/6 1728/1/6
f 1727/3/6 1722/3/6 1728/3/6
f 1728/1/6 1723/1/6 1729/1/6
f 1724/1/6 1725/1/6 1730/1/6
f 1725/3/6 1726/3/6 1731/3/6
f 1730/1/6 1725/1/6 1731/1/6
f 1731/3/6 1726/3/6 1732/3/6
f 1733/3/6 1734/3/6 1739/3/6
f 1734/1/6 1735/1/6 1740/1/6
f 1739/3/6 1734/3/6 1740/3/6
f 1740/1/6 1735/1/6 1741/1/6
f 1736/1/6 1737/1/6 1742/1/6
f 1737/3/6 1738/3/6 1743/3/6
f 1742/1/6 1737/1/6 1743/1/6
f 1743/3/6 1738/3/6 1744/3/6
f 1745/3/6 1746/3/6 1756/3/6
f 1746/1/6 1747/1/6 1757/1/6
f 1756/3/6 1746/3/6 1757/3/6
f 1747/3/6 1748/3/6 1758/3/6
f 1757/1/6 1747/1/6 1758/1/6
f 1748/1/6 1749/1/6 1759/1/6
f 1758/3/6 1748/3/6 1759/3/6
f 1759/1/6 1749/1/6 1760/1/6
f 1750/1/6 1751/1/6 1763/1/6
f 1751/3/6 1752/3/6 1764/3/6
f 1763/1/6 1751/1/6 1764/1/6
f 1752/1/6 1753/1/6 1765/1/6
f 1764/3/6 1752/3/6 1765/3/6
f 1753/3/6 1754/3/6 1766/3/6
f 1765/1/6 1753/1/6 1766/1/6
f 1766/3/6 1754/3/6 1767/3/6
f 1755/1/6 1756/1/6 1769/1/6
f 1769/1/6 1756/1/6 1770/1/6
f 1760/3/6 1761/3/6 1774/3/6
f 1774/3/6 1761/3/6 1775/3/6
f 1762/3/6 1763/3/6 1776/3/6
f 1776/3/6 1763/3/6 1777/3/6
f 1767/1/6 1768/1/6 1781/1/6
f 1781/1/6 1768/1/6 1782/1/6
f 1770/3/6 1771/3/6 1783/3/6
f 1771/1/6 1772/1/6 1784/1/6
f 1783/3/6 1771/3/6 1784/3/6
f 1772/3/6 1773/3/6 1785/3/6
f 1784/1/6 1772/1/6 1785/1/6
f 1773/1/6 1774/1/6 1786/1/6
f 1785/3/6 1773/3/6 1786/3/6
f 1786/1/6 1774/1/6 1787/1/6
f 1777/1/6 1778/1/6 1788/1/6
f 1778/3/6 1779/3/6 1789/3/6
f 1788/1/6 1778/1/6 1789/1/6
f 1779/1/6 1780/1/6 1790/1/6
f 1789/3/6 1779/3/6 1790/3/6
f 1780/3/6 1781/3/6 1791/3/6
f 1790/1/6 1780/1/6 1791/1/6
f 1791/3/6 1781/3/6 1792/3/6
f 1793/3/6 1794/3/6 1804/3/6
f 1794/1/6 1795/1/6 1805/1/6
f 1804/3/6 1794/3/6 1805/3/6
f 1795/3/6 1796/3/6 1806/3/6
f 1805/1/6 1795/1/6 1806/1/6
f 1796/1/6 1797/1/6 1807/1/6
f 1806/3/6 1796/3/6 1807/3/6
f 1807/1/6 1797/1/6 1808/1/6
f 1798/1/6 1799/1/6 1811/1/6
f 1799/3/6 1800/3/6 1812/3/6
f 1811/1/6 1799/1/6 1812/1/6
f 1800/1/6 1801/1/6 1813/1/6
f 1812/3/6 1800/3/6 1813/3/6
f 1801/3/6 1802/3/6 1814/3/6
f 1813/1/6 1801/1/6 1814/1/6
f 1814/3/6 1802/3/6 1815/3/6
f 1803/1/6 1804/1/6 1817/1/6
f 1817/1/6 1804/1/6 1818/1/6
f 1808/3/6 1809/3/6 1822/3/6
f 1822/3/6 1809/3/6 1823/3/6
f 1810/3/6 1811/3/6 1824/3/6
f 1824/3/6 1811/3/6 1825/3/6
f 1815/1/6 1816/1/6 1829/1/6
f 1829/1/6 1816/1/6 1830/1/6
f 1818/3/6 1819/3/6 1831/3/6
f 1819/1/6 1820/1/6 1832/1/6
f 1831/3/6 1819/3/6 1832/3/6
f 1820/3/6 1821/3/6 1833/3/6
f 1832/1/6 1820/1/6 1833/1/6
f 1821/1/6 1822/1/6 1834/1/6
f 1833/3/6 1821/3/6 1834/3/6
f 1834/1/6 1822/1/6 1835/1/6
f 1825/1/6 1826/1/6 1836/1/6
f 1826/3/6 1827/3/6 1837/3/6
f 1836/1/6 1826/1/6 1837/1/6
f 1827/1/6 1828/1/6 1838/1/6
f 1837/3/6 1827/3/6 1838/3/6
f 1828/3/6 1829/3/6 1839/3/6
f 1838/1/6 1828/1/6 1839/1/6
f 1839/3/6 1829/3/6 1840/3/6
f 1841/3/6 1842/3/6 1851/3/6
f 1842/1/6 1843/1/6 1852/1/6
f 1851/3/6 1842/3/6 1852/3/6
f 1843/3/6 1844/3/6 1853/3/6
f 1852/1/6 1843/1/6 1853/1/6
f 1844/1/6 1845/1/6 1854/1/6
f 1853/3/6 1844/3/6 1854/3/6
f 1854/1/6 1845/1/6 1855/1/6
f 1846/1/6 1847/1/6 1856/1/6
f 1847/3/6 1848/3/6 1857/3/6
f 1856/1/6 1847/1/6 1857/1/6
f 1848/1/6 1849/1/6 1858/1/6
f 1857/3/6 1848/3/6 1858/3/6
f 1849/3/6 1850/3/6 1859/3/6
f 1858/1/6 1849/1/6 1859/1/6
f 1859/3/6 1850/3/6 1860/3/6
f 1861/3/6 1862/3/6 1871/3/6
f 1862/1/6 1863/1/6 1872/1/6
f 1871/3/6 1862/3/6 1872/3/6
f 1863/3/6 1864/3/6 1873/3/6
f 1872/1/6 1863/1/6 1873/1/6
f 1864/1/6 1865/1/6 1874/1/6
f 1873/3/6 1864/3/6 1874/3/6
f 1874/1/6 1865/1/6 1875/1/6
f 1866/1/6 1867/1/6 1876/1/6
f 1867/3/6 1868/3/6 1877/3/6
f 1876/1/6 1867/1/6 1877/1/6
f 1868/1/6 1869/1/6 1878/1/6
f 1877/3/6 1868/3/6 1878/3/6
f 1869/3/6 1870/3/6 1879/3/6
f 1878/1/6 1869/1/6 1879/1/6
f 1879/3/6 1870/3/6 1880/3/6
