# MagicaVoxel @ Ephtracy

# group
o 

# material
mtllib tunel.mtl
usemtl palette

# normals
vn -1 0 0
vn 1 0 0
vn 0 0 1
vn 0 0 -1
vn 0 -1 0
vn 0 1 0

# texcoords
vt 0.916016 0.5
vt 0.919922 0.5
vt 0.923828 0.5
vt 0.970703 0.5
vt 0.974609 0.5
vt 0.986328 0.5

# verts
v -6 0 -3.8
v -6 0 -3.9
v -6 0 -6.3
v -6 11.8 -3.8
v -6 11.8 -3.9
v -6 11.8 -6.3
v -5.9 11.8 -3.8
v -5.9 11.8 -3.9
v -5.9 11.8 -6.3
v -5.9 11.9 -3.8
v -5.9 11.9 -3.9
v -5.9 11.9 -6.3
v -5.8 11.9 -3.8
v -5.8 11.9 -3.9
v -5.8 11.9 -6.3
v -5.8 12 -3.8
v -5.8 12 -3.9
v -5.8 12 -6.3
v -5.7 12 -3.8
v -5.7 12 -3.9
v -5.7 12 -6.3
v -5.7 12.1 -3.8
v -5.7 12.1 -3.9
v -5.7 12.1 -6.3
v -5.6 12.1 -3.8
v -5.6 12.1 -3.9
v -5.6 12.1 -6.3
v -5.6 12.2 -3.8
v -5.6 12.2 -3.9
v -5.6 12.2 -6.3
v -5.5 12.2 -3.8
v -5.5 12.2 -3.9
v -5.5 12.2 -6.3
v -5.5 12.3 -3.8
v -5.5 12.3 -3.9
v -5.5 12.3 -6.3
v -5.4 12.3 -3.8
v -5.4 12.3 -3.9
v -5.4 12.3 -6.3
v -5.4 12.4 -3.8
v -5.4 12.4 -3.9
v -5.4 12.4 -6.3
v -5.3 12.4 -3.8
v -5.3 12.4 -3.9
v -5.3 12.4 -6.3
v -5.3 12.5 -3.8
v -5.3 12.5 -3.9
v -5.3 12.5 -6.3
v -5.2 12.5 -3.8
v -5.2 12.5 -3.9
v -5.2 12.5 -6.3
v -5.2 12.6 -3.8
v -5.2 12.6 -3.9
v -5.2 12.6 -6.3
v -5.3 0 -3.8
v -5.3 0 -3.9
v -5.3 0 -4
v -5.3 11.2 -3.8
v -5.3 11.2 -3.9
v -5.3 11.2 -4
v -5.2 11.2 -3.8
v -5.2 11.2 -3.9
v -5.2 11.2 -4
v -5.2 11.3 -3.8
v -5.2 11.3 -3.9
v -5.2 11.3 -4
v -5.1 11.3 -3.8
v -5.1 11.3 -3.9
v -5.1 11.3 -4
v -5.1 11.4 -3.8
v -5.1 11.4 -3.9
v -5.1 11.4 -4
v -5 11.4 -3.8
v -5 11.4 -3.9
v -5 11.4 -4
v -5 11.5 -3.8
v -5 11.5 -3.9
v -5 11.5 -4
v -4.9 11.5 -3.8
v -4.9 11.5 -3.9
v -4.9 11.5 -4
v -4.9 11.6 -3.8
v -4.9 11.6 -3.9
v -4.9 11.6 -4
v -4.8 11.6 -3.8
v -4.8 11.6 -3.9
v -4.8 11.6 -4
v -4.8 11.7 -3.8
v -4.8 11.7 -3.9
v -4.8 11.7 -4
v -4.7 11.7 -3.8
v -4.7 11.7 -3.9
v -4.7 11.7 -4
v -4.7 11.8 -3.8
v -4.7 11.8 -3.9
v -4.7 11.8 -4
v -4.6 11.8 -3.8
v -4.6 11.8 -3.9
v -4.6 11.8 -4
v -4.6 11.9 -3.8
v -4.6 11.9 -3.9
v -4.6 11.9 -4
v 6 0 -4
v 6 0 -4.1
v 6 0 -6.3
v 6 11.9 -3.8
v 6 11.9 -3.9
v 6 11.9 -4
v 6 11.9 -4.1
v 6 12.6 -3.8
v 6 12.6 -3.9
v 6 12.6 -6.3
v -6 0 -3.8
v -6 11.8 -3.8
v -5.9 11.8 -3.8
v -5.9 11.9 -3.8
v -5.8 11.9 -3.8
v -5.8 12 -3.8
v -5.7 12 -3.8
v -5.7 12.1 -3.8
v -5.6 12.1 -3.8
v -5.6 12.2 -3.8
v -5.5 12.2 -3.8
v -5.5 12.3 -3.8
v -5.4 12.3 -3.8
v -5.4 12.4 -3.8
v -5.3 0 -3.8
v -5.3 11.2 -3.8
v -5.3 12.4 -3.8
v -5.3 12.5 -3.8
v -5.2 11.2 -3.8
v -5.2 11.3 -3.8
v -5.2 12.5 -3.8
v -5.2 12.6 -3.8
v -5.1 11.3 -3.8
v -5.1 11.4 -3.8
v -5 11.4 -3.8
v -5 11.5 -3.8
v -4.9 11.5 -3.8
v -4.9 11.6 -3.8
v -4.8 11.6 -3.8
v -4.8 11.7 -3.8
v -4.7 11.7 -3.8
v -4.7 11.8 -3.8
v -4.6 11.8 -3.8
v -4.6 11.9 -3.8
v 6 11.9 -3.8
v 6 12.6 -3.8
v -5.3 0 -4
v -5.3 11.2 -4
v -5.2 11.2 -4
v -5.2 11.3 -4
v -5.1 11.3 -4
v -5.1 11.4 -4
v -5 11.4 -4
v -5 11.5 -4
v -4.9 11.5 -4
v -4.9 11.6 -4
v -4.8 11.6 -4
v -4.8 11.7 -4
v -4.7 11.7 -4
v -4.7 11.8 -4
v -4.6 11.8 -4
v -4.6 11.9 -4
v 6 0 -4
v 6 11.9 -4
v -6 0 -6.3
v -6 11.8 -6.3
v -5.9 11.8 -6.3
v -5.9 11.9 -6.3
v -5.8 11.9 -6.3
v -5.8 12 -6.3
v -5.7 12 -6.3
v -5.7 12.1 -6.3
v -5.6 12.1 -6.3
v -5.6 12.2 -6.3
v -5.5 12.2 -6.3
v -5.5 12.3 -6.3
v -5.4 12.3 -6.3
v -5.4 12.4 -6.3
v -5.3 12.4 -6.3
v -5.3 12.5 -6.3
v -5.2 12.5 -6.3
v -5.2 12.6 -6.3
v 6 0 -6.3
v 6 12.6 -6.3
v -6 0 -3.8
v -5.3 0 -3.8
v -6 0 -3.9
v -5.3 0 -3.9
v -5.3 0 -4
v 6 0 -4
v -5.3 0 -4.1
v 6 0 -4.1
v -5.9 0 -4.9
v -5.7 0 -4.9
v -0.0999999 0 -4.9
v 0.1 0 -4.9
v -5.9 0 -5
v -5.8 0 -5
v -0.0999999 0 -5.1
v 0.1 0 -5.1
v -0.0999999 0 -5.5
v 0.1 0 -5.5
v -5.8 0 -6.2
v -5.7 0 -6.2
v -0.0999999 0 -6.2
v 0.1 0 -6.2
v -6 0 -6.3
v 6 0 -6.3
v -5.3 11.2 -3.8
v -5.2 11.2 -3.8
v -5.3 11.2 -3.9
v -5.2 11.2 -3.9
v -5.3 11.2 -4
v -5.2 11.2 -4
v -5.2 11.3 -3.8
v -5.1 11.3 -3.8
v -5.2 11.3 -3.9
v -5.1 11.3 -3.9
v -5.2 11.3 -4
v -5.1 11.3 -4
v -5.1 11.4 -3.8
v -5 11.4 -3.8
v -5.1 11.4 -3.9
v -5 11.4 -3.9
v -5.1 11.4 -4
v -5 11.4 -4
v -5 11.5 -3.8
v -4.9 11.5 -3.8
v -5 11.5 -3.9
v -4.9 11.5 -3.9
v -5 11.5 -4
v -4.9 11.5 -4
v -4.9 11.6 -3.8
v -4.8 11.6 -3.8
v -4.9 11.6 -3.9
v -4.8 11.6 -3.9
v -4.9 11.6 -4
v -4.8 11.6 -4
v -4.8 11.7 -3.8
v -4.7 11.7 -3.8
v -4.8 11.7 -3.9
v -4.7 11.7 -3.9
v -4.8 11.7 -4
v -4.7 11.7 -4
v -4.7 11.8 -3.8
v -4.6 11.8 -3.8
v -4.7 11.8 -3.9
v -4.6 11.8 -3.9
v -4.7 11.8 -4
v -4.6 11.8 -4
v -4.6 11.9 -3.8
v 6 11.9 -3.8
v -4.6 11.9 -3.9
v 6 11.9 -3.9
v -4.6 11.9 -4
v 6 11.9 -4
v -6 11.8 -3.8
v -5.9 11.8 -3.8
v -6 11.8 -3.9
v -5.9 11.8 -3.9
v -6 11.8 -6.3
v -5.9 11.8 -6.3
v -5.9 11.9 -3.8
v -5.8 11.9 -3.8
v -5.9 11.9 -3.9
v -5.8 11.9 -3.9
v -5.9 11.9 -6.3
v -5.8 11.9 -6.3
v -5.8 12 -3.8
v -5.7 12 -3.8
v -5.8 12 -3.9
v -5.7 12 -3.9
v -5.8 12 -6.3
v -5.7 12 -6.3
v -5.7 12.1 -3.8
v -5.6 12.1 -3.8
v -5.7 12.1 -3.9
v -5.6 12.1 -3.9
v -5.7 12.1 -6.3
v -5.6 12.1 -6.3
v -5.6 12.2 -3.8
v -5.5 12.2 -3.8
v -5.6 12.2 -3.9
v -5.5 12.2 -3.9
v -5.6 12.2 -6.3
v -5.5 12.2 -6.3
v -5.5 12.3 -3.8
v -5.4 12.3 -3.8
v -5.5 12.3 -3.9
v -5.4 12.3 -3.9
v -5.5 12.3 -6.3
v -5.4 12.3 -6.3
v -5.4 12.4 -3.8
v -5.3 12.4 -3.8
v -5.4 12.4 -3.9
v -5.3 12.4 -3.9
v -5.4 12.4 -6.3
v -5.3 12.4 -6.3
v -5.3 12.5 -3.8
v -5.2 12.5 -3.8
v -5.3 12.5 -3.9
v -5.2 12.5 -3.9
v -5.3 12.5 -6.3
v -5.2 12.5 -6.3
v -5.2 12.6 -3.8
v 6 12.6 -3.8
v -5.2 12.6 -3.9
v 6 12.6 -3.9
v -5.2 12.6 -6.3
v 6 12.6 -6.3

# faces
f 4/5/1 2/5/1 1/5/1
f 5/4/1 3/4/1 2/4/1
f 5/5/1 2/5/1 4/5/1
f 6/4/1 3/4/1 5/4/1
f 10/5/1 8/5/1 7/5/1
f 11/4/1 9/4/1 8/4/1
f 11/5/1 8/5/1 10/5/1
f 12/4/1 9/4/1 11/4/1
f 16/5/1 14/5/1 13/5/1
f 17/4/1 15/4/1 14/4/1
f 17/5/1 14/5/1 16/5/1
f 18/4/1 15/4/1 17/4/1
f 22/5/1 20/5/1 19/5/1
f 23/4/1 21/4/1 20/4/1
f 23/5/1 20/5/1 22/5/1
f 24/4/1 21/4/1 23/4/1
f 28/5/1 26/5/1 25/5/1
f 29/4/1 27/4/1 26/4/1
f 29/5/1 26/5/1 28/5/1
f 30/4/1 27/4/1 29/4/1
f 34/5/1 32/5/1 31/5/1
f 35/4/1 33/4/1 32/4/1
f 35/5/1 32/5/1 34/5/1
f 36/4/1 33/4/1 35/4/1
f 40/5/1 38/5/1 37/5/1
f 41/4/1 39/4/1 38/4/1
f 41/5/1 38/5/1 40/5/1
f 42/4/1 39/4/1 41/4/1
f 46/5/1 44/5/1 43/5/1
f 47/4/1 45/4/1 44/4/1
f 47/5/1 44/5/1 46/5/1
f 48/4/1 45/4/1 47/4/1
f 52/5/1 50/5/1 49/5/1
f 53/4/1 51/4/1 50/4/1
f 53/5/1 50/5/1 52/5/1
f 54/4/1 51/4/1 53/4/1
f 55/5/2 56/5/2 58/5/2
f 56/4/2 57/4/2 59/4/2
f 58/5/2 56/5/2 59/5/2
f 59/4/2 57/4/2 60/4/2
f 61/5/2 62/5/2 64/5/2
f 62/4/2 63/4/2 65/4/2
f 64/5/2 62/5/2 65/5/2
f 65/4/2 63/4/2 66/4/2
f 67/5/2 68/5/2 70/5/2
f 68/4/2 69/4/2 71/4/2
f 70/5/2 68/5/2 71/5/2
f 71/4/2 69/4/2 72/4/2
f 73/5/2 74/5/2 76/5/2
f 74/4/2 75/4/2 77/4/2
f 76/5/2 74/5/2 77/5/2
f 77/4/2 75/4/2 78/4/2
f 79/5/2 80/5/2 82/5/2
f 80/4/2 81/4/2 83/4/2
f 82/5/2 80/5/2 83/5/2
f 83/4/2 81/4/2 84/4/2
f 85/5/2 86/5/2 88/5/2
f 86/4/2 87/4/2 89/4/2
f 88/5/2 86/5/2 89/5/2
f 89/4/2 87/4/2 90/4/2
f 91/5/2 92/5/2 94/5/2
f 92/4/2 93/4/2 95/4/2
f 94/5/2 92/5/2 95/5/2
f 95/4/2 93/4/2 96/4/2
f 97/5/2 98/5/2 100/5/2
f 98/4/2 99/4/2 101/4/2
f 100/5/2 98/5/2 101/5/2
f 101/4/2 99/4/2 102/4/2
f 103/3/2 104/3/2 108/3/2
f 104/4/2 105/4/2 109/4/2
f 108/3/2 104/3/2 109/3/2
f 106/5/2 107/5/2 110/5/2
f 107/4/2 108/4/2 111/4/2
f 110/5/2 107/5/2 111/5/2
f 108/4/2 109/4/2 111/4/2
f 109/4/2 105/4/2 112/4/2
f 111/4/2 109/4/2 112/4/2
f 115/5/3 114/5/3 113/5/3
f 117/5/3 116/5/3 115/5/3
f 119/5/3 118/5/3 117/5/3
f 121/5/3 120/5/3 119/5/3
f 123/5/3 122/5/3 121/5/3
f 125/5/3 124/5/3 123/5/3
f 127/5/3 115/5/3 113/5/3
f 127/5/3 126/5/3 125/5/3
f 127/5/3 125/5/3 123/5/3
f 127/5/3 123/5/3 121/5/3
f 127/5/3 121/5/3 119/5/3
f 127/5/3 119/5/3 117/5/3
f 127/5/3 117/5/3 115/5/3
f 128/5/3 126/5/3 127/5/3
f 129/5/3 126/5/3 128/5/3
f 131/5/3 130/5/3 129/5/3
f 131/5/3 129/5/3 128/5/3
f 132/5/3 130/5/3 131/5/3
f 133/5/3 130/5/3 132/5/3
f 135/5/3 134/5/3 133/5/3
f 135/5/3 133/5/3 132/5/3
f 136/5/3 134/5/3 135/5/3
f 137/5/3 134/5/3 136/5/3
f 138/5/3 134/5/3 137/5/3
f 139/5/3 134/5/3 138/5/3
f 140/5/3 134/5/3 139/5/3
f 141/5/3 134/5/3 140/5/3
f 142/5/3 134/5/3 141/5/3
f 143/5/3 134/5/3 142/5/3
f 144/5/3 134/5/3 143/5/3
f 145/5/3 134/5/3 144/5/3
f 146/5/3 134/5/3 145/5/3
f 147/5/3 134/5/3 146/5/3
f 148/5/3 134/5/3 147/5/3
f 151/3/3 150/3/3 149/3/3
f 153/3/3 152/3/3 151/3/3
f 155/3/3 154/3/3 153/3/3
f 157/3/3 156/3/3 155/3/3
f 159/3/3 158/3/3 157/3/3
f 161/3/3 160/3/3 159/3/3
f 163/3/3 162/3/3 161/3/3
f 165/3/3 151/3/3 149/3/3
f 165/3/3 164/3/3 163/3/3
f 165/3/3 163/3/3 161/3/3
f 165/3/3 161/3/3 159/3/3
f 165/3/3 159/3/3 157/3/3
f 165/3/3 157/3/3 155/3/3
f 165/3/3 155/3/3 153/3/3
f 165/3/3 153/3/3 151/3/3
f 166/3/3 164/3/3 165/3/3
f 167/4/4 168/4/4 169/4/4
f 169/4/4 170/4/4 171/4/4
f 171/4/4 172/4/4 173/4/4
f 173/4/4 174/4/4 175/4/4
f 175/4/4 176/4/4 177/4/4
f 177/4/4 178/4/4 179/4/4
f 179/4/4 180/4/4 181/4/4
f 181/4/4 182/4/4 183/4/4
f 167/4/4 169/4/4 185/4/4
f 183/4/4 184/4/4 185/4/4
f 181/4/4 183/4/4 185/4/4
f 179/4/4 181/4/4 185/4/4
f 177/4/4 179/4/4 185/4/4
f 175/4/4 177/4/4 185/4/4
f 173/4/4 175/4/4 185/4/4
f 171/4/4 173/4/4 185/4/4
f 169/4/4 171/4/4 185/4/4
f 185/4/4 184/4/4 186/4/4
f 189/5/5 188/5/5 187/5/5
f 190/5/5 188/5/5 189/5/5
f 191/4/5 190/4/5 189/4/5
f 193/4/5 191/4/5 189/4/5
f 193/3/5 192/3/5 191/3/5
f 194/3/5 192/3/5 193/3/5
f 195/4/5 193/4/5 189/4/5
f 195/4/5 194/4/5 193/4/5
f 196/4/5 194/4/5 195/4/5
f 197/4/5 194/4/5 196/4/5
f 198/4/5 194/4/5 197/4/5
f 199/4/5 195/4/5 189/4/5
f 199/1/5 196/1/5 195/1/5
f 200/1/5 196/1/5 199/1/5
f 201/6/5 198/6/5 197/6/5
f 201/4/5 197/4/5 196/4/5
f 202/4/5 194/4/5 198/4/5
f 202/6/5 198/6/5 201/6/5
f 203/4/5 201/4/5 196/4/5
f 203/4/5 202/4/5 201/4/5
f 204/4/5 194/4/5 202/4/5
f 204/4/5 202/4/5 203/4/5
f 205/1/5 196/1/5 200/1/5
f 205/4/5 200/4/5 199/4/5
f 206/4/5 203/4/5 196/4/5
f 206/1/5 196/1/5 205/1/5
f 207/6/5 204/6/5 203/6/5
f 207/4/5 203/4/5 206/4/5
f 208/4/5 194/4/5 204/4/5
f 208/6/5 204/6/5 207/6/5
f 209/4/5 205/4/5 199/4/5
f 209/4/5 207/4/5 206/4/5
f 209/4/5 208/4/5 207/4/5
f 209/4/5 199/4/5 189/4/5
f 209/4/5 206/4/5 205/4/5
f 210/4/5 194/4/5 208/4/5
f 210/4/5 208/4/5 209/4/5
f 213/5/5 212/5/5 211/5/5
f 214/5/5 212/5/5 213/5/5
f 215/4/5 214/4/5 213/4/5
f 216/4/5 214/4/5 215/4/5
f 219/5/5 218/5/5 217/5/5
f 220/5/5 218/5/5 219/5/5
f 221/4/5 220/4/5 219/4/5
f 222/4/5 220/4/5 221/4/5
f 225/5/5 224/5/5 223/5/5
f 226/5/5 224/5/5 225/5/5
f 227/4/5 226/4/5 225/4/5
f 228/4/5 226/4/5 227/4/5
f 231/5/5 230/5/5 229/5/5
f 232/5/5 230/5/5 231/5/5
f 233/4/5 232/4/5 231/4/5
f 234/4/5 232/4/5 233/4/5
f 237/5/5 236/5/5 235/5/5
f 238/5/5 236/5/5 237/5/5
f 239/4/5 238/4/5 237/4/5
f 240/4/5 238/4/5 239/4/5
f 243/5/5 242/5/5 241/5/5
f 244/5/5 242/5/5 243/5/5
f 245/4/5 244/4/5 243/4/5
f 246/4/5 244/4/5 245/4/5
f 249/5/5 248/5/5 247/5/5
f 250/5/5 248/5/5 249/5/5
f 251/4/5 250/4/5 249/4/5
f 252/4/5 250/4/5 251/4/5
f 255/5/5 254/5/5 253/5/5
f 256/5/5 254/5/5 255/5/5
f 257/4/5 256/4/5 255/4/5
f 258/4/5 256/4/5 257/4/5
f 259/5/6 260/5/6 261/5/6
f 261/5/6 260/5/6 262/5/6
f 261/4/6 262/4/6 263/4/6
f 263/4/6 262/4/6 264/4/6
f 265/5/6 266/5/6 267/5/6
f 267/5/6 266/5/6 268/5/6
f 267/4/6 268/4/6 269/4/6
f 269/4/6 268/4/6 270/4/6
f 271/5/6 272/5/6 273/5/6
f 273/5/6 272/5/6 274/5/6
f 273/4/6 274/4/6 275/4/6
f 275/4/6 274/4/6 276/4/6
f 277/5/6 278/5/6 279/5/6
f 279/5/6 278/5/6 280/5/6
f 279/4/6 280/4/6 281/4/6
f 281/4/6 280/4/6 282/4/6
f 283/5/6 284/5/6 285/5/6
f 285/5/6 284/5/6 286/5/6
f 285/4/6 286/4/6 287/4/6
f 287/4/6 286/4/6 288/4/6
f 289/5/6 290/5/6 291/5/6
f 291/5/6 290/5/6 292/5/6
f 291/4/6 292/4/6 293/4/6
f 293/4/6 292/4/6 294/4/6
f 295/5/6 296/5/6 297/5/6
f 297/5/6 296/5/6 298/5/6
f 297/4/6 298/4/6 299/4/6
f 299/4/6 298/4/6 300/4/6
f 301/5/6 302/5/6 303/5/6
f 303/5/6 302/5/6 304/5/6
f 303/4/6 304/4/6 305/4/6
f 305/4/6 304/4/6 306/4/6
f 307/5/6 308/5/6 309/5/6
f 309/5/6 308/5/6 310/5/6
f 309/4/6 310/4/6 311/4/6
f 311/4/6 310/4/6 312/4/6
